<?xml version="1.0" encoding="iso-8859-1"?>
<!-- Generator: Adobe Illustrator 18.0.0, SVG Export Plug-In . SVG Version: 6.00 Build 0)  -->
<!DOCTYPE svg PUBLIC "-//W3C//DTD SVG 1.1//EN" "http://www.w3.org/Graphics/SVG/1.1/DTD/svg11.dtd">
<svg version="1.1" id="Layer_1" xmlns="http://www.w3.org/2000/svg" xmlns:xlink="http://www.w3.org/1999/xlink" x="0px" y="0px"
	 viewBox="0 0 24 24" style="enable-background:new 0 0 24 24;" xml:space="preserve">
<g>
	<circle style="fill:#DAE1E6;" cx="12" cy="12.961" r="7.979"/>
	<g>
		<polyline style="fill:none;stroke:#000000;stroke-width:0.5;stroke-linecap:round;stroke-miterlimit:10;" points="6.546,15.06 
			6.546,3.06 17.454,3.06 17.454,15.06 		"/>
		
			<rect x="8.194" y="7.682" style="fill:none;stroke:#000000;stroke-width:0.5;stroke-miterlimit:10;" width="7.612" height="0.883"/>
		
			<rect x="8.194" y="9.849" style="fill:none;stroke:#000000;stroke-width:0.5;stroke-miterlimit:10;" width="7.612" height="0.883"/>
		
			<rect x="8.194" y="12.016" style="fill:none;stroke:#000000;stroke-width:0.5;stroke-miterlimit:10;" width="7.612" height="0.883"/>
		
			<line style="fill:none;stroke:#000000;stroke-width:0.5;stroke-linecap:round;stroke-miterlimit:10;" x1="9.845" y1="5.997" x2="14.155" y2="5.997"/>
		
			<line style="fill:none;stroke:#000000;stroke-width:0.5;stroke-linecap:round;stroke-miterlimit:10;" x1="10.423" y1="5.014" x2="13.577" y2="5.014"/>
		
			<line style="fill:none;stroke:#000000;stroke-width:0.5;stroke-linecap:round;stroke-miterlimit:10;" x1="10.99" y1="14.523" x2="13.01" y2="14.523"/>
	</g>
</g>
</svg>
