<?xml version="1.0" encoding="iso-8859-1"?>
<!-- Generator: Adobe Illustrator 18.0.0, SVG Export Plug-In . SVG Version: 6.00 Build 0)  -->
<!DOCTYPE svg PUBLIC "-//W3C//DTD SVG 1.1//EN" "http://www.w3.org/Graphics/SVG/1.1/DTD/svg11.dtd">
<svg version="1.1" id="Layer_1" xmlns="http://www.w3.org/2000/svg" xmlns:xlink="http://www.w3.org/1999/xlink" x="0px" y="0px"
	 viewBox="0 0 24 24" style="enable-background:new 0 0 24 24;" xml:space="preserve">
<circle style="fill:#DAE1E6;" cx="12" cy="13.271" r="7.979"/>
<g>
	<path style="stroke:#000000;stroke-width:0.001;stroke-miterlimit:10;" d="M15.44,4.318H8.669c-0.058,0-0.104-0.047-0.104-0.104
		v-0.26c0-0.058,0.047-0.104,0.104-0.104h6.771c0.058,0,0.104,0.047,0.104,0.104v0.26C15.544,4.271,15.498,4.318,15.44,4.318z"/>
	<path style="stroke:#000000;stroke-width:0.001;stroke-miterlimit:10;" d="M16.917,7.276H7.1c-0.045,0-0.081-0.036-0.081-0.081
		V6.888c0-0.045,0.036-0.081,0.081-0.081h9.818c0.045,0,0.081,0.036,0.081,0.081v0.307C16.998,7.24,16.962,7.276,16.917,7.276z"/>
	<path style="stroke:#000000;stroke-width:0.001;stroke-miterlimit:10;" d="M16.933,8.339H7.084c-0.036,0-0.065-0.029-0.065-0.065
		V7.935c0-0.036,0.029-0.065,0.065-0.065h9.849c0.036,0,0.065,0.029,0.065,0.065v0.338C16.998,8.309,16.969,8.339,16.933,8.339z"/>
	<path style="stroke:#000000;stroke-width:0.001;stroke-miterlimit:10;" d="M8.495,14.651H7.084c-0.036,0-0.065-0.029-0.065-0.065
		v-0.338c0-0.036,0.029-0.065,0.065-0.065h1.411c0.036,0,0.065,0.029,0.065,0.065v0.338C8.561,14.622,8.531,14.651,8.495,14.651z"/>
	<path style="stroke:#000000;stroke-width:0.001;stroke-miterlimit:10;" d="M8.495,15.37H7.084c-0.036,0-0.065-0.029-0.065-0.065
		v-0.338c0-0.036,0.029-0.065,0.065-0.065h1.411c0.036,0,0.065,0.029,0.065,0.065v0.338C8.561,15.341,8.531,15.37,8.495,15.37z"/>
	<path style="stroke:#000000;stroke-width:0.001;stroke-miterlimit:10;" d="M13.917,5.297h-3.766c-0.047,0-0.086-0.038-0.086-0.086
		V4.914c0-0.047,0.038-0.086,0.086-0.086h3.766c0.047,0,0.086,0.038,0.086,0.086v0.297C14.003,5.258,13.964,5.297,13.917,5.297z"/>
	<path style="fill:none;stroke:#000000;stroke-width:0.5;stroke-miterlimit:10;" d="M17.93,16.375H6.076
		c-0.072,0-0.13-0.058-0.13-0.13V3.13C5.945,3.058,6.004,3,6.076,3H17.93c0.072,0,0.13,0.058,0.13,0.13v13.115
		C18.06,16.317,18.002,16.375,17.93,16.375z"/>
	<path style="stroke:#000000;stroke-width:0.001;stroke-miterlimit:10;" d="M16.925,9.359H7.102c-0.043,0-0.078-0.035-0.078-0.078
		V8.969c0-0.043,0.035-0.078,0.078-0.078h9.823c0.043,0,0.078,0.035,0.078,0.078v0.312C17.003,9.324,16.968,9.359,16.925,9.359z"/>
	<path style="stroke:#000000;stroke-width:0.001;stroke-miterlimit:10;" d="M11.995,10.328H7.094c-0.039,0-0.07-0.032-0.07-0.07
		V9.93c0-0.039,0.032-0.07,0.07-0.07h4.901c0.039,0,0.07,0.032,0.07,0.07v0.328C12.065,10.297,12.034,10.328,11.995,10.328z"/>
	<path style="stroke:#000000;stroke-width:0.001;stroke-miterlimit:10;" d="M9.917,11.609H7.109c-0.047,0-0.086-0.038-0.086-0.086
		v-0.297c0-0.047,0.038-0.086,0.086-0.086h2.807c0.047,0,0.086,0.038,0.086,0.086v0.297C10.003,11.571,9.964,11.609,9.917,11.609z"
		/>
	<path style="stroke:#000000;stroke-width:0.001;stroke-miterlimit:10;" d="M9.904,12.391H7.122c-0.055,0-0.099-0.044-0.099-0.099
		v-0.271c0-0.055,0.044-0.099,0.099-0.099h2.781c0.055,0,0.099,0.044,0.099,0.099v0.271C10.003,12.346,9.958,12.391,9.904,12.391z"
		/>
	<path style="stroke:#000000;stroke-width:0.001;stroke-miterlimit:10;" d="M9.919,13.297H7.107c-0.046,0-0.083-0.037-0.083-0.083
		v-0.302c0-0.046,0.037-0.083,0.083-0.083h2.813c0.046,0,0.083,0.037,0.083,0.083v0.302C10.003,13.26,9.965,13.297,9.919,13.297z"/>
	<g>
		<path style="fill:none;stroke:#000000;stroke-width:0.2;stroke-miterlimit:10;" d="M17.055,14.706l-0.567-1.368
			c-0.014-0.035-0.054-0.051-0.089-0.037c-0.035,0.014-0.051,0.054-0.037,0.089l0.512,1.237l-0.467-0.135
			c-0.031-0.009-0.063,0.005-0.079,0.033l-0.235,0.426l-0.55-1.327c0.635-0.122,1.115-0.682,1.115-1.352
			c0-0.759-0.618-1.377-1.377-1.377c-0.759,0-1.377,0.618-1.377,1.377c0,0.307,0.101,0.592,0.272,0.821l-0.668,1.614
			c-0.01,0.024-0.005,0.052,0.012,0.072c0.018,0.02,0.045,0.027,0.07,0.02l0.551-0.16l0.277,0.503
			c0.012,0.022,0.035,0.035,0.06,0.035c0.001,0,0.003,0,0.004,0c0.026-0.001,0.049-0.018,0.059-0.042l0.53-1.279
			c0.014-0.035-0.002-0.075-0.037-0.089c-0.035-0.014-0.075,0.002-0.089,0.037l-0.475,1.147l-0.235-0.426
			c-0.015-0.028-0.048-0.042-0.079-0.033l-0.467,0.135l0.587-1.416c0.251,0.269,0.609,0.437,1.005,0.437
			c0.041,0,0.081-0.002,0.121-0.005l0.618,1.492c0.01,0.024,0.033,0.041,0.059,0.042c0.001,0,0.003,0,0.004,0
			c0.025,0,0.048-0.013,0.06-0.035l0.277-0.503l0.551,0.16c0.025,0.007,0.052,0,0.07-0.02S17.065,14.73,17.055,14.706L17.055,14.706
			z M14.043,12.271c0-0.684,0.556-1.24,1.24-1.24s1.24,0.556,1.24,1.24s-0.556,1.24-1.24,1.24S14.043,12.955,14.043,12.271
			L14.043,12.271z"/>
		<path style="fill:none;stroke:#000000;stroke-width:0.2;stroke-miterlimit:10;" d="M16.072,12.015
			c-0.008-0.024-0.029-0.042-0.054-0.046l-0.46-0.077l-0.215-0.413c-0.012-0.023-0.035-0.037-0.061-0.037
			c-0.025,0-0.049,0.014-0.061,0.037l-0.215,0.413l-0.46,0.077c-0.025,0.004-0.046,0.022-0.054,0.046
			c-0.008,0.024-0.002,0.051,0.016,0.069l0.327,0.333l-0.069,0.461c-0.004,0.025,0.007,0.05,0.027,0.065
			c0.021,0.015,0.048,0.017,0.071,0.006l0.417-0.208l0.417,0.208c0.01,0.005,0.02,0.007,0.03,0.007c0.014,0,0.028-0.004,0.04-0.013
			c0.021-0.015,0.031-0.04,0.027-0.065l-0.069-0.461l0.327-0.333C16.074,12.066,16.08,12.039,16.072,12.015z M15.608,12.345
			c-0.015,0.015-0.022,0.037-0.019,0.058l0.054,0.365l-0.33-0.165c-0.01-0.005-0.02-0.007-0.03-0.007
			c-0.01,0-0.021,0.002-0.03,0.007l-0.33,0.165l0.054-0.365c0.003-0.021-0.004-0.043-0.019-0.058l-0.259-0.263l0.364-0.061
			c0.021-0.004,0.039-0.017,0.049-0.036l0.171-0.327l0.171,0.327c0.01,0.019,0.028,0.032,0.049,0.036l0.364,0.061L15.608,12.345
			L15.608,12.345z"/>
	</g>
</g>
</svg>
