<?xml version="1.0" encoding="iso-8859-1"?>
<!-- Generator: Adobe Illustrator 18.0.0, SVG Export Plug-In . SVG Version: 6.00 Build 0)  -->
<!DOCTYPE svg PUBLIC "-//W3C//DTD SVG 1.1//EN" "http://www.w3.org/Graphics/SVG/1.1/DTD/svg11.dtd">
<svg version="1.1" id="Layer_1" xmlns="http://www.w3.org/2000/svg" xmlns:xlink="http://www.w3.org/1999/xlink" x="0px" y="0px"
	 viewBox="0 0 24 24" style="enable-background:new 0 0 24 24;" xml:space="preserve">
<g>
	<circle style="fill:#DAE1E6;" cx="12" cy="13.021" r="7.979"/>
</g>
<g>
	<g>
		<g>
			<path d="M13.082,3.94c-0.103,0-0.187,0.084-0.187,0.187v1.868c0,0.103,0.084,0.187,0.187,0.187h1.868
				c0.103,0,0.187-0.084,0.187-0.187C15.137,4.862,14.215,3.94,13.082,3.94z M13.269,5.808V4.324
				c0.778,0.086,1.398,0.706,1.484,1.484H13.269z"/>
		</g>
	</g>
	<g>
		<g>
			<path d="M14.203,6.555h-1.681V4.874c0-0.103-0.084-0.187-0.187-0.187c-1.133,0-2.055,0.922-2.055,2.055s0.922,2.055,2.055,2.055
				s2.055-0.922,2.055-2.055C14.39,6.639,14.306,6.555,14.203,6.555z M12.335,8.423c-0.927,0-1.681-0.754-1.681-1.681
				c0-0.864,0.655-1.578,1.494-1.671v1.671c0,0.103,0.084,0.187,0.187,0.187h1.671C13.913,7.768,13.199,8.423,12.335,8.423z"/>
		</g>
	</g>
	<path style="fill:none;stroke:#000000;stroke-width:0.5;stroke-miterlimit:10;" d="M18.044,13.949H7.019
		c-0.088,0-0.159-0.071-0.159-0.159V3.159C6.859,3.071,6.931,3,7.019,3h11.025c0.088,0,0.159,0.071,0.159,0.159v10.63
		C18.203,13.878,18.132,13.949,18.044,13.949z"/>
	<path d="M7.812,4.693H5.937c-0.078,0-0.141-0.063-0.141-0.141v-0.25c0-0.078,0.063-0.141,0.141-0.141h1.875
		c0.078,0,0.141,0.063,0.141,0.141v0.25C7.953,4.63,7.89,4.693,7.812,4.693z"/>
	<path d="M7.812,6.724H5.937c-0.078,0-0.141-0.063-0.141-0.141v-0.25c0-0.078,0.063-0.141,0.141-0.141h1.875
		c0.078,0,0.141,0.063,0.141,0.141v0.25C7.953,6.662,7.89,6.724,7.812,6.724z"/>
	<path d="M7.812,8.693H5.937c-0.078,0-0.141-0.063-0.141-0.141v-0.25c0-0.078,0.063-0.141,0.141-0.141h1.875
		c0.078,0,0.141,0.063,0.141,0.141v0.25C7.953,8.63,7.89,8.693,7.812,8.693z"/>
	<path d="M7.812,10.693H5.937c-0.078,0-0.141-0.063-0.141-0.141v-0.25c0-0.078,0.063-0.141,0.141-0.141h1.875
		c0.078,0,0.141,0.063,0.141,0.141v0.25C7.953,10.63,7.89,10.693,7.812,10.693z"/>
	<path d="M7.812,12.724H5.937c-0.078,0-0.141-0.063-0.141-0.141v-0.25c0-0.078,0.063-0.141,0.141-0.141h1.875
		c0.078,0,0.141,0.063,0.141,0.141v0.25C7.953,12.662,7.89,12.724,7.812,12.724z"/>
	<path d="M16.562,10.443h-2.875c-0.078,0-0.141-0.063-0.141-0.141v-0.25c0-0.078,0.063-0.141,0.141-0.141h2.875
		c0.078,0,0.141,0.063,0.141,0.141v0.25C16.703,10.38,16.64,10.443,16.562,10.443z"/>
	<path d="M16.578,11.474h-5.781c-0.069,0-0.125-0.056-0.125-0.125v-0.281c0-0.069,0.056-0.125,0.125-0.125h5.781
		c0.069,0,0.125,0.056,0.125,0.125v0.281C16.703,11.418,16.647,11.474,16.578,11.474z"/>
	<path d="M16.578,12.443h-5.781c-0.069,0-0.125-0.056-0.125-0.125v-0.281c0-0.069,0.056-0.125,0.125-0.125h5.781
		c0.069,0,0.125,0.056,0.125,0.125v0.281C16.703,12.387,16.647,12.443,16.578,12.443z"/>
</g>
</svg>
