<?xml version="1.0" encoding="iso-8859-1"?>
<!-- Generator: Adobe Illustrator 18.0.0, SVG Export Plug-In . SVG Version: 6.00 Build 0)  -->
<!DOCTYPE svg PUBLIC "-//W3C//DTD SVG 1.1//EN" "http://www.w3.org/Graphics/SVG/1.1/DTD/svg11.dtd">
<svg version="1.1" id="Layer_1" xmlns="http://www.w3.org/2000/svg" xmlns:xlink="http://www.w3.org/1999/xlink" x="0px" y="0px"
	 viewBox="0 0 24 24" style="enable-background:new 0 0 24 24;" xml:space="preserve">
<g>
	<circle style="fill:#DAE1E6;" cx="12" cy="12.972" r="7.979"/>
	<g>
		<g>
			<path d="M18.123,3.372c-0.029-0.114-0.078-0.209-0.188-0.262h-0.152c-0.056,0.073-0.126,0.139-0.165,0.22
				c-0.201,0.414-0.508,0.651-0.98,0.659c-0.224,0.004-0.448,0.039-0.67,0.067c-0.622,0.078-1.09,0.394-1.401,0.943
				c-0.057,0.101-0.115,0.203-0.168,0.307c-0.086,0.168-0.073,0.235,0.059,0.369c0.453,0.459,0.912,0.912,1.355,1.381
				c0.147,0.155,0.287,0.183,0.474,0.106c0.891-0.364,1.526-0.971,1.787-1.926C18.242,4.62,18.284,3.998,18.123,3.372z
				 M17.691,4.837c-0.152,0.85-0.621,1.462-1.397,1.835c-0.098,0.047-0.16,0.046-0.242-0.041c-0.355-0.372-0.719-0.734-1.08-1.098
				c-0.036-0.036-0.079-0.064-0.112-0.09c0.246-0.537,0.618-0.87,1.195-0.928c0.281-0.028,0.563-0.052,0.844-0.082
				c0.312-0.034,0.573-0.174,0.789-0.401c0.014-0.015,0.032-0.028,0.049-0.042c0.002-0.001,0.007,0.001,0.042,0.007
				C17.75,4.275,17.74,4.559,17.691,4.837z M15.944,11.232c-0.414-0.17-0.825-0.361-1.209-0.592
				c-0.285-0.172-0.551-0.396-0.779-0.642c-0.095-0.103-0.165-0.202-0.209-0.299c0.033-0.036,0.066-0.071,0.1-0.106
				c0.147-0.153,0.296-0.305,0.445-0.457c0.109-0.111,0.218-0.221,0.328-0.331c0.392-0.396,0.788-0.789,1.181-1.183
				c0.134-0.135,0.14-0.265,0.007-0.4c-0.453-0.458-0.908-0.916-1.363-1.373c-0.143-0.143-0.256-0.141-0.401,0.005
				c-0.112,0.112-0.223,0.225-0.334,0.337c-0.108-0.111-0.222-0.215-0.342-0.316c-0.32-0.27-0.336-0.268-0.654,0.005
				c-0.008,0.007-0.019,0.009-0.03,0.014c-0.013-0.009-0.028-0.016-0.039-0.027c-0.948-0.892-1.895-1.784-2.841-2.678
				C9.607,3.004,9.496,2.998,9.301,3.193C8.257,4.241,7.214,5.29,6.171,6.339C6.065,6.446,5.96,6.553,5.859,6.665
				c-0.11,0.121-0.11,0.251-0.003,0.376C5.926,7.123,6,7.201,6.073,7.279c0.841,0.907,1.683,1.815,2.562,2.763
				c-0.062,0.045-0.121,0.077-0.166,0.122c-0.105,0.105-0.121,0.232-0.033,0.351c0.146,0.196,0.301,0.382,0.471,0.549
				c-0.133,0.164-0.262,0.33-0.389,0.498c-0.37,0.489-0.718,0.993-0.96,1.562c-0.091,0.216-0.166,0.437-0.172,0.675
				c-0.008,0.345,0.176,0.533,0.518,0.531c0.002,0.009,0.005,0.018,0.007,0.027c0.187-0.051,0.38-0.09,0.561-0.158
				c0.446-0.164,0.845-0.42,1.23-0.694c0.99-0.703,1.893-1.507,2.742-2.371c0.016,0.01,0.033,0.021,0.049,0.033
				c0.187,0.129,0.36,0.292,0.505,0.468c0.399,0.487,0.688,1.041,0.889,1.638c0.302,0.898,1.173,1.167,1.848,1.013
				c0.715-0.163,1.18-0.732,1.228-1.492C17.009,12.098,16.604,11.503,15.944,11.232z M14.246,6.329
				c0.356,0.36,0.717,0.724,1.069,1.08c-0.343,0.346-0.689,0.694-1.033,1.041c0.248-0.452,0.25-0.946,0.002-1.46
				c-0.075-0.155-0.163-0.299-0.263-0.434L14.246,6.329z M6.391,6.87C6.957,6.3,7.506,5.748,8.087,5.165
				c0.138,0.149,0.284,0.311,0.436,0.468c0.195,0.201,0.394,0.397,0.593,0.593c0.148,0.146,0.294,0.163,0.408,0.05
				c0.116-0.115,0.1-0.261-0.045-0.411c-0.345-0.355-0.69-0.709-1.034-1.062c0.123-0.122,0.255-0.251,0.397-0.392
				C9.01,4.583,9.186,4.764,9.364,4.942c0.142,0.141,0.279,0.156,0.394,0.047c0.116-0.11,0.104-0.267-0.037-0.409
				C9.545,4.401,9.366,4.224,9.188,4.047c0.127-0.132,0.242-0.251,0.37-0.384c0.92,0.866,1.837,1.73,2.739,2.579
				c-1.118,1.133-2.227,2.256-3.345,3.388C8.101,8.714,7.247,7.793,6.391,6.87z M9.263,13.238c-0.297,0.201-0.616,0.371-0.931,0.543
				c-0.106,0.058-0.23,0.089-0.35,0.112c-0.126,0.025-0.192-0.045-0.162-0.172c0.033-0.137,0.077-0.275,0.138-0.402
				c0.299-0.626,0.7-1.186,1.126-1.729c0.059-0.074,0.117-0.149,0.177-0.223c0.176,0.129,0.367,0.239,0.578,0.325
				c0.492,0.2,0.966,0.156,1.407-0.144c0.133-0.09,0.253-0.2,0.373-0.306c0.067-0.06,0.134-0.107,0.2-0.143
				C11.026,11.882,10.188,12.611,9.263,13.238z M15.471,13.849c-0.455,0.054-0.926-0.262-1.096-0.73
				c-0.301-0.826-0.723-1.577-1.367-2.183c-0.065-0.061-0.135-0.117-0.209-0.168c-0.05-0.035-0.102-0.067-0.154-0.098
				c-0.093-0.054-0.186-0.095-0.278-0.123c-0.36-0.111-0.709-0.022-1.026,0.257c-0.097,0.085-0.188,0.177-0.291,0.254
				c-0.29,0.22-0.617,0.273-0.959,0.165c-0.185-0.058-0.351-0.145-0.503-0.252c-0.126-0.089-0.242-0.191-0.354-0.303
				c-0.088-0.089-0.173-0.184-0.256-0.283c1.364-1.376,2.712-2.736,4.075-4.111c0.104,0.091,0.204,0.184,0.298,0.28
				c0.114,0.116,0.218,0.237,0.307,0.368c0.126,0.188,0.221,0.396,0.264,0.639c0.069,0.388-0.081,0.709-0.345,0.983
				c-0.108,0.112-0.206,0.229-0.278,0.361C13.24,9.008,13.198,9.122,13.18,9.25c-0.013,0.094-0.013,0.185-0.003,0.272
				c0.005,0.042,0.013,0.084,0.023,0.125c0.037,0.158,0.109,0.304,0.203,0.443c0.027,0.04,0.056,0.079,0.086,0.118
				c0.367,0.472,0.846,0.809,1.363,1.089c0.296,0.16,0.606,0.297,0.919,0.42c0.458,0.181,0.774,0.652,0.718,1.11
				C16.427,13.337,15.976,13.79,15.471,13.849z"/>
		</g>
	</g>
</g>
</svg>
