<?xml version="1.0" encoding="iso-8859-1"?>
<!-- Generator: Adobe Illustrator 18.0.0, SVG Export Plug-In . SVG Version: 6.00 Build 0)  -->
<!DOCTYPE svg PUBLIC "-//W3C//DTD SVG 1.1//EN" "http://www.w3.org/Graphics/SVG/1.1/DTD/svg11.dtd">
<svg version="1.1" id="Layer_1" xmlns="http://www.w3.org/2000/svg" xmlns:xlink="http://www.w3.org/1999/xlink" x="0px" y="0px"
	 viewBox="0 0 24 24" style="enable-background:new 0 0 24 24;" xml:space="preserve">
<g>
	<circle style="fill:#DAE1E6;" cx="12" cy="12.894" r="7.979"/>
	<g>
		<path style="fill:none;stroke:#000000;stroke-width:0.5;stroke-miterlimit:10;" d="M18.375,15.047H5.625
			c-0.127,0-0.229-0.103-0.229-0.229V3.356c0-0.127,0.103-0.229,0.229-0.229h12.75c0.127,0,0.229,0.103,0.229,0.229v11.462
			C18.604,14.944,18.502,15.047,18.375,15.047z"/>
		<path style="fill:none;stroke:#000000;stroke-width:0.5;stroke-miterlimit:10;" d="M7.591,6.325L7.591,6.325
			c-0.481,0-0.871-0.39-0.871-0.871V5.368c0-0.481,0.39-0.871,0.871-0.871h0c0.481,0,0.871,0.39,0.871,0.871v0.086
			C8.463,5.935,8.072,6.325,7.591,6.325z"/>
		<line style="fill:none;stroke:#000000;stroke-width:0.5;stroke-miterlimit:10;" x1="9.808" y1="4.848" x2="16.752" y2="4.848"/>
		<line style="fill:none;stroke:#000000;stroke-width:0.5;stroke-miterlimit:10;" x1="9.808" y1="5.944" x2="15.443" y2="5.944"/>
		<path style="fill:none;stroke:#000000;stroke-width:0.5;stroke-miterlimit:10;" d="M16.917,13.744H7.083
			c-0.195,0-0.353-0.158-0.353-0.353V8.343c0-0.195,0.158-0.353,0.353-0.353h9.833c0.195,0,0.353,0.158,0.353,0.353v5.048
			C17.269,13.586,17.111,13.744,16.917,13.744z"/>
		<path d="M11.623,11.071c-0.014,0-0.024,0-0.035,0c-0.12,0-0.239,0-0.359,0c-0.059,0-0.081-0.023-0.081-0.081
			c0-0.161,0-0.322,0-0.483c0-0.059,0.024-0.082,0.084-0.082c0.119,0,0.238,0,0.356,0c0.01,0,0.021,0,0.035,0
			c0-0.011,0-0.02,0-0.029c0-0.106,0-0.212,0-0.318c0-0.157,0.028-0.306,0.107-0.444c0.081-0.14,0.2-0.237,0.352-0.292
			c0.097-0.036,0.198-0.05,0.301-0.05c0.129,0,0.258,0,0.387,0c0.056,0,0.081,0.024,0.081,0.08c0,0.15,0,0.3,0,0.449
			c0,0.057-0.024,0.08-0.08,0.08c-0.106,0.001-0.212,0-0.317,0.005c-0.057,0.002-0.112,0.019-0.14,0.076
			c-0.013,0.027-0.023,0.059-0.023,0.089c-0.003,0.116-0.001,0.232-0.001,0.353c0.01,0,0.02,0,0.03,0c0.143,0,0.286,0,0.429,0
			c0.061,0,0.084,0.023,0.084,0.084c0,0.16,0,0.32,0,0.48c0,0.061-0.022,0.082-0.083,0.082c-0.143,0-0.286,0-0.429,0
			c-0.009,0-0.019,0-0.032,0c0,0.013,0,0.023,0,0.034c0,0.416,0,0.832,0,1.247c0,0.069-0.021,0.091-0.091,0.091
			c-0.163,0-0.325,0-0.488,0c-0.064,0-0.086-0.022-0.086-0.085c0-0.417,0-0.833,0-1.25C11.623,11.097,11.623,11.086,11.623,11.071z"
			/>
	</g>
</g>
</svg>
