<?xml version="1.0" encoding="iso-8859-1"?>
<!-- Generator: Adobe Illustrator 18.0.0, SVG Export Plug-In . SVG Version: 6.00 Build 0)  -->
<!DOCTYPE svg PUBLIC "-//W3C//DTD SVG 1.1//EN" "http://www.w3.org/Graphics/SVG/1.1/DTD/svg11.dtd">
<svg version="1.1" id="Layer_1" xmlns="http://www.w3.org/2000/svg" xmlns:xlink="http://www.w3.org/1999/xlink" x="0px" y="0px"
	 viewBox="0 0 24 24" style="enable-background:new 0 0 24 24;" xml:space="preserve">
<circle style="fill:#DAE1E6;" cx="12" cy="13.021" r="7.979"/>
<g>
	<path d="M16.781,3H7.223C7.103,3,7.005,3.098,7.005,3.218v10.736c0,0.121,0.098,0.218,0.218,0.218h9.557
		c0.121,0,0.218-0.098,0.218-0.218V3.218C16.999,3.098,16.901,3,16.781,3z M16.563,13.736H7.442V3.436h9.121V13.736z"/>
	<path d="M8.271,13.125h7.463c0.121,0,0.218-0.098,0.218-0.218V7.51c0-0.121-0.098-0.218-0.218-0.218S15.515,7.39,15.515,7.51v5.178
		H8.489V4.484h7.026v1.011c0,0.121,0.098,0.218,0.218,0.218s0.218-0.098,0.218-0.218V4.266c0-0.121-0.098-0.218-0.218-0.218H8.271
		c-0.121,0-0.218,0.098-0.218,0.218v8.641C8.053,13.027,8.15,13.125,8.271,13.125z"/>
	<path d="M14.409,10.916H9.457c-0.111,0-0.2-0.09-0.2-0.2v-0.002c0-0.111,0.09-0.2,0.2-0.2h4.952c0.111,0,0.2,0.09,0.2,0.2v0.002
		C14.61,10.826,14.52,10.916,14.409,10.916z"/>
	<path d="M14.804,11.67H9.156c-0.111,0-0.2-0.09-0.2-0.2v0c0-0.111,0.09-0.2,0.2-0.2h5.648c0.111,0,0.2,0.09,0.2,0.2v0
		C15.005,11.58,14.915,11.67,14.804,11.67z"/>
</g>
</svg>
