<?xml version="1.0" encoding="iso-8859-1"?>
<!-- Generator: Adobe Illustrator 18.0.0, SVG Export Plug-In . SVG Version: 6.00 Build 0)  -->
<!DOCTYPE svg PUBLIC "-//W3C//DTD SVG 1.1//EN" "http://www.w3.org/Graphics/SVG/1.1/DTD/svg11.dtd">
<svg version="1.1" id="Layer_1" xmlns="http://www.w3.org/2000/svg" xmlns:xlink="http://www.w3.org/1999/xlink" x="0px" y="0px"
	 viewBox="0 0 24 24" style="enable-background:new 0 0 24 24;" xml:space="preserve">
<circle style="fill:#DAE1E6;" cx="12" cy="13.021" r="7.979"/>
<g>
	<path d="M12.004,13.468c-1.173,0-2.345,0-3.518,0c-0.276,0-0.397-0.121-0.398-0.396c0-1.618-0.002-3.236,0.003-4.853
		c0-0.13-0.037-0.22-0.13-0.31C7.602,7.56,7.253,7.203,6.899,6.851C6.808,6.76,6.761,6.656,6.791,6.528
		C6.819,6.406,6.895,6.32,7.016,6.286C7.144,6.251,7.257,6.283,7.353,6.38c0.37,0.372,0.743,0.741,1.112,1.115
		c0.06,0.061,0.119,0.088,0.207,0.088c2.226-0.003,4.452-0.002,6.677,0c0.089,0,0.153-0.023,0.218-0.089
		c0.368-0.374,0.741-0.743,1.111-1.115c0.096-0.097,0.21-0.128,0.338-0.092c0.121,0.034,0.196,0.12,0.225,0.242
		c0.03,0.129-0.019,0.232-0.11,0.323c-0.369,0.368-0.736,0.738-1.107,1.104c-0.058,0.058-0.083,0.115-0.083,0.198
		c0.002,1.64,0.002,3.279,0.002,4.919c0,0.273-0.123,0.396-0.399,0.396C14.364,13.468,13.184,13.468,12.004,13.468z M15.279,12.81
		c0-1.528,0-3.049,0-4.568c-2.182,0-4.354,0-6.528,0c0,1.526,0,3.044,0,4.568C10.928,12.81,13.098,12.81,15.279,12.81z"/>
	<path d="M12.023,3c0.738,0,1.476,0,2.215,0c0.272,0,0.394,0.118,0.394,0.387c0.001,0.829,0.001,1.657,0,2.486
		c0,0.284-0.117,0.4-0.403,0.4c-1.48,0-2.96,0.001-4.44,0C9.524,6.273,9.4,6.152,9.4,5.89c-0.001-0.84-0.001-1.679,0-2.519
		C9.4,3.124,9.526,3,9.776,3C10.525,3,11.274,3,12.023,3z M13.97,3.66c-1.309,0-2.607,0-3.908,0c0,0.653,0,1.299,0,1.951
		c1.305,0,2.603,0,3.908,0C13.97,4.959,13.97,4.313,13.97,3.66z"/>
	<path d="M12.021,10.195c-0.546,0-1.093,0.002-1.639-0.001c-0.19-0.001-0.325-0.139-0.327-0.319
		c-0.001-0.182,0.128-0.319,0.316-0.333c0.032-0.002,0.065-0.001,0.098-0.001c0.962,0,1.925,0,2.887,0c0.09,0,0.181-0.001,0.271,0
		c0.21,0.004,0.35,0.139,0.349,0.334c-0.001,0.187-0.143,0.319-0.349,0.32C13.092,10.196,12.556,10.195,12.021,10.195L12.021,10.195
		z"/>
</g>
</svg>
