<?xml version="1.0" encoding="iso-8859-1"?>
<!-- Generator: Adobe Illustrator 18.0.0, SVG Export Plug-In . SVG Version: 6.00 Build 0)  -->
<!DOCTYPE svg PUBLIC "-//W3C//DTD SVG 1.1//EN" "http://www.w3.org/Graphics/SVG/1.1/DTD/svg11.dtd">
<svg version="1.1" id="Layer_1" xmlns="http://www.w3.org/2000/svg" xmlns:xlink="http://www.w3.org/1999/xlink" x="0px" y="0px"
	 viewBox="0 0 24 24" style="enable-background:new 0 0 24 24;" xml:space="preserve">
<g>
	<circle style="fill:#DAE1E6;" cx="12" cy="12.949" r="7.979"/>
	<g>
		<circle style="fill:none;stroke:#000000;stroke-width:0.5;stroke-miterlimit:10;" cx="6.402" cy="3.675" r="0.603"/>
		<circle style="fill:none;stroke:#000000;stroke-width:0.5;stroke-miterlimit:10;" cx="6.587" cy="6.156" r="0.603"/>
		<circle style="fill:none;stroke:#000000;stroke-width:0.5;stroke-miterlimit:10;" cx="6.587" cy="12.35" r="0.603"/>
		<circle style="fill:none;stroke:#000000;stroke-width:0.5;stroke-miterlimit:10;" cx="8.494" cy="4.841" r="0.603"/>
		<circle style="fill:none;stroke:#000000;stroke-width:0.5;stroke-miterlimit:10;" cx="15.543" cy="4.841" r="0.603"/>
		<circle style="fill:none;stroke:#000000;stroke-width:0.5;stroke-miterlimit:10;" cx="17.598" cy="3.675" r="0.603"/>
		
			<polyline style="fill:none;stroke:#000000;stroke-width:0.5;stroke-linecap:round;stroke-linejoin:round;stroke-miterlimit:10;" points="
			7.005,3.675 11.436,3.675 11.436,6.006 		"/>
		<polyline style="fill:none;stroke:#000000;stroke-width:0.5;stroke-miterlimit:10;" points="12.623,6.006 12.623,3.675 
			16.995,3.675 		"/>
		
			<polyline style="fill:none;stroke:#000000;stroke-width:0.5;stroke-linecap:round;stroke-linejoin:round;stroke-miterlimit:10;" points="
			10.264,6.475 10.264,4.841 9.097,4.841 		"/>
		
			<polyline style="fill:none;stroke:#000000;stroke-width:0.5;stroke-linecap:round;stroke-linejoin:round;stroke-miterlimit:10;" points="
			13.748,6.475 13.748,4.841 14.94,4.841 		"/>
		<circle style="fill:none;stroke:#000000;stroke-width:0.5;stroke-miterlimit:10;" cx="6.402" cy="14.855" r="0.603"/>
		<circle style="fill:none;stroke:#000000;stroke-width:0.5;stroke-miterlimit:10;" cx="8.494" cy="13.689" r="0.603"/>
		<circle style="fill:none;stroke:#000000;stroke-width:0.5;stroke-miterlimit:10;" cx="15.543" cy="13.689" r="0.603"/>
		<circle style="fill:none;stroke:#000000;stroke-width:0.5;stroke-miterlimit:10;" cx="17.598" cy="14.855" r="0.603"/>
		<circle style="fill:none;stroke:#000000;stroke-width:0.5;stroke-miterlimit:10;" cx="17.422" cy="12.35" r="0.603"/>
		
			<polyline style="fill:none;stroke:#000000;stroke-width:0.5;stroke-linecap:round;stroke-linejoin:round;stroke-miterlimit:10;" points="
			7.005,14.855 11.436,14.855 11.436,12.006 		"/>
		
			<polyline style="fill:none;stroke:#000000;stroke-width:0.5;stroke-linecap:round;stroke-linejoin:round;stroke-miterlimit:10;" points="
			12.623,12.006 12.623,14.855 16.995,14.855 		"/>
		
			<polyline style="fill:none;stroke:#000000;stroke-width:0.5;stroke-linecap:round;stroke-linejoin:round;stroke-miterlimit:10;" points="
			10.264,11.538 10.264,13.689 9.097,13.689 		"/>
		
			<polyline style="fill:none;stroke:#000000;stroke-width:0.5;stroke-linecap:round;stroke-linejoin:round;stroke-miterlimit:10;" points="
			13.748,11.538 13.748,13.689 14.94,13.689 		"/>
		
			<polyline style="fill:none;stroke:#000000;stroke-width:0.5;stroke-linecap:round;stroke-linejoin:round;stroke-miterlimit:10;" points="
			9.555,8.533 6.587,8.533 6.587,6.759 		"/>
		
			<polyline style="fill:none;stroke:#000000;stroke-width:0.5;stroke-linecap:round;stroke-linejoin:round;stroke-miterlimit:10;" points="
			9.105,9.881 6.574,9.881 6.574,11.786 		"/>
		<circle style="fill:none;stroke:#000000;stroke-width:0.5;stroke-miterlimit:10;" cx="17.422" cy="6.192" r="0.579"/>
		
			<polyline style="fill:none;stroke:#000000;stroke-width:0.5;stroke-linecap:round;stroke-linejoin:round;stroke-miterlimit:10;" points="
			13.868,8.472 17.422,8.472 17.422,6.771 		"/>
		
			<polyline style="fill:none;stroke:#000000;stroke-width:0.5;stroke-linecap:round;stroke-linejoin:round;stroke-miterlimit:10;" points="
			14.809,10.319 15.389,10.319 15.865,9.842 17.422,9.842 17.422,11.747 		"/>
		<path style="fill:none;stroke:#000000;stroke-width:0.5;stroke-linecap:round;stroke-linejoin:round;stroke-miterlimit:10;" d="
			M8.733,7.1h3.125l1.008,1.008c0,0,0.369,0.365,0.02,0.714c-0.286,0.286-0.637-0.034-0.637-0.034l-0.734-0.734"/>
		<path style="fill:none;stroke:#000000;stroke-width:0.5;stroke-linecap:round;stroke-linejoin:round;stroke-miterlimit:10;" d="
			M11.149,9.084l-1.244,1.244c-0.171,0.171-0.448,0.171-0.619,0v0c-0.171-0.171-0.171-0.448,0-0.619l1.492-1.492"/>
		<path style="fill:none;stroke:#000000;stroke-width:0.5;stroke-linecap:round;stroke-linejoin:round;stroke-miterlimit:10;" d="
			M11.968,9.454l-1.039,1.039c-0.171,0.171-0.448,0.171-0.619,0v0c-0.171-0.171-0.171-0.448,0-0.619l0.815-0.815"/>
		<path style="fill:none;stroke:#000000;stroke-width:0.5;stroke-linecap:round;stroke-linejoin:round;stroke-miterlimit:10;" d="
			M12.895,9.747l-1.024,1.024c-0.171,0.171-0.448,0.171-0.619,0h0c-0.171-0.171-0.171-0.448,0-0.619l0.65-0.65"/>
		<path style="fill:none;stroke:#000000;stroke-width:0.5;stroke-linecap:round;stroke-linejoin:round;stroke-miterlimit:10;" d="
			M12.875,9.727l-0.731,0.731c-0.171,0.171-0.171,0.448,0,0.619l0,0c0.171,0.171,0.448,0.171,0.619,0l0.621-0.621h0.739"/>
	</g>
</g>
</svg>
