<?xml version="1.0" encoding="iso-8859-1"?>
<!-- Generator: Adobe Illustrator 18.0.0, SVG Export Plug-In . SVG Version: 6.00 Build 0)  -->
<!DOCTYPE svg PUBLIC "-//W3C//DTD SVG 1.1//EN" "http://www.w3.org/Graphics/SVG/1.1/DTD/svg11.dtd">
<svg version="1.1" id="Layer_1" xmlns="http://www.w3.org/2000/svg" xmlns:xlink="http://www.w3.org/1999/xlink" x="0px" y="0px"
	 viewBox="0 0 24 24" style="enable-background:new 0 0 24 24;" xml:space="preserve">
<g>
	<g>
		<g>
			<circle style="fill:#DAE1E6;" cx="12" cy="12.894" r="7.979"/>
		</g>
	</g>
</g>
<path d="M16.205,10.822c-0.383,0-0.748,0.15-1.023,0.422c-0.275,0.275-0.428,0.633-0.428,1.016s0.15,0.741,0.428,1.016
	c0.278,0.272,0.639,0.422,1.023,0.422c0.786,0,1.425-0.645,1.425-1.438C17.63,11.468,16.991,10.822,16.205,10.822z M16.205,13.059
	c-0.441,0-0.812-0.364-0.812-0.799c0-0.435,0.371-0.799,0.812-0.799c0.435,0,0.786,0.358,0.786,0.799S16.639,13.059,16.205,13.059z
	 M16.575,6.032c-0.058-0.054-0.134-0.083-0.214-0.083h-1.639c-0.176,0-0.32,0.144-0.32,0.32v2.62c0,0.176,0.144,0.32,0.32,0.32
	h2.601c0.176,0,0.32-0.144,0.32-0.32V7.135c0-0.089-0.038-0.176-0.105-0.236L16.575,6.032z M17.004,8.57h-1.962V6.585h1.195
	l0.767,0.69V8.57z M8.402,10.822c-0.383,0-0.748,0.15-1.023,0.422c-0.275,0.275-0.428,0.633-0.428,1.016s0.15,0.741,0.428,1.016
	c0.278,0.272,0.639,0.422,1.023,0.422c0.786,0,1.425-0.645,1.425-1.438C9.827,11.468,9.188,10.822,8.402,10.822z M8.402,13.059
	c-0.441,0-0.812-0.364-0.812-0.799c0-0.435,0.371-0.799,0.812-0.799c0.435,0,0.786,0.358,0.786,0.799S8.836,13.059,8.402,13.059z
	 M6.27,11.215H5.628v-0.85c0-0.176-0.144-0.32-0.32-0.32c-0.176,0-0.32,0.144-0.32,0.32v1.17c0,0.176,0.144,0.32,0.32,0.32H6.27
	c0.176,0,0.32-0.144,0.32-0.32C6.59,11.359,6.446,11.215,6.27,11.215z M18.95,6.438L18.95,6.438l-2.288-1.895
	c-0.058-0.048-0.128-0.073-0.205-0.073h-2.691V3.32c0-0.176-0.144-0.32-0.32-0.32H5.308c-0.176,0-0.32,0.144-0.32,0.32v2.339
	c0,0.176,0.144,0.32,0.32,0.32c0.176,0,0.32-0.144,0.32-0.32v-2.02h7.503v7.576h-2.62c-0.176,0-0.32,0.144-0.32,0.32
	c0,0.176,0.144,0.32,0.32,0.32h3.902c0.176,0,0.32-0.144,0.32-0.32c0-0.176-0.144-0.32-0.32-0.32H13.77V5.109h2.576l2.083,1.726
	l-0.022,4.375h-0.332c-0.176,0-0.32,0.144-0.32,0.32s0.144,0.32,0.32,0.32h0.649c0.176,0,0.32-0.141,0.32-0.316l0.026-4.844
	C19.065,6.592,19.023,6.499,18.95,6.438z"/>
<g>
	<path d="M12.286,8.321c0.163,0,0.318,0,0.48,0c0,0.166,0,0.321,0,0.488c-1.161,0-2.323,0-3.497,0c0-0.155,0-0.314,0-0.49
		c0.16,0,0.319,0,0.478,0c0.03-0.166,0-0.285-0.097-0.417C9.226,7.328,9.118,6.694,9.442,6.046c0.326-0.652,0.885-1.004,1.619-0.987
		c0.699,0.017,1.231,0.37,1.536,0.996c0.314,0.645,0.208,1.274-0.212,1.844C12.289,8.029,12.254,8.149,12.286,8.321z M11.952,6.997
		c-0.202,0.198-0.4,0.391-0.596,0.586c-0.035,0.035-0.082,0.081-0.084,0.123c-0.009,0.201-0.004,0.403-0.004,0.603
		c0.177,0,0.332,0,0.501,0c0-0.048,0.004-0.089-0.001-0.129c-0.025-0.226,0.039-0.401,0.207-0.573
		c0.295-0.302,0.363-0.685,0.262-1.094c-0.128-0.515-0.52-0.873-1.031-0.949c-0.523-0.078-1.004,0.15-1.266,0.599
		c-0.274,0.468-0.263,1.009,0.087,1.403c0.183,0.207,0.269,0.409,0.238,0.673c-0.003,0.023,0.009,0.048,0.013,0.07
		c0.164,0,0.319,0,0.487,0c0-0.179,0.008-0.351-0.004-0.522c-0.005-0.069-0.037-0.151-0.085-0.201
		c-0.19-0.201-0.39-0.391-0.574-0.572c0.122-0.132,0.23-0.249,0.36-0.391c0.182,0.199,0.358,0.391,0.561,0.614
		c0.197-0.217,0.374-0.413,0.553-0.61C11.713,6.761,11.824,6.87,11.952,6.997z"/>
	<path d="M8.828,7.293c0,0.166,0,0.32,0,0.483c-0.915,0-1.822,0-2.743,0c0-0.155,0-0.313,0-0.483
		C6.993,7.293,7.904,7.293,8.828,7.293z"/>
	<path d="M8.322,8.782c-0.752,0-1.493,0-2.241,0c0-0.162,0-0.317,0-0.484c0.742,0,1.486,0,2.241,0
		C8.322,8.453,8.322,8.612,8.322,8.782z"/>
	<path d="M8.825,6.773c-0.418,0-0.824,0-1.237,0c0-0.162,0-0.317,0-0.484c0.408,0,0.817,0,1.237,0
		C8.825,6.445,8.825,6.604,8.825,6.773z"/>
	<path d="M6.553,6.194c0,0.166,0,0.321,0,0.484c-0.162,0-0.316,0-0.483,0c0-0.156,0-0.314,0-0.484
		C6.224,6.194,6.383,6.194,6.553,6.194z"/>
</g>
</svg>
