<?xml version="1.0" encoding="iso-8859-1"?>
<!-- Generator: Adobe Illustrator 18.0.0, SVG Export Plug-In . SVG Version: 6.00 Build 0)  -->
<!DOCTYPE svg PUBLIC "-//W3C//DTD SVG 1.1//EN" "http://www.w3.org/Graphics/SVG/1.1/DTD/svg11.dtd">
<svg version="1.1" id="Layer_1" xmlns="http://www.w3.org/2000/svg" xmlns:xlink="http://www.w3.org/1999/xlink" x="0px" y="0px"
	 viewBox="0 0 24 24" style="enable-background:new 0 0 24 24;" xml:space="preserve">
<g>
	<circle style="fill:#DAE1E6;" cx="12" cy="12.701" r="7.979"/>
	<g>
		<path d="M6.371,12.995c0.023-0.127,0.031-0.258,0.072-0.379c0.057-0.167,0.123-0.335,0.213-0.485
			c0.211-0.351,0.542-0.502,0.943-0.504c0.563-0.003,1.127-0.001,1.69-0.001c0.051,0,0.103,0,0.171,0c0-0.068,0-0.126,0-0.184
			c0-1.153,0-2.305,0-3.458c0-0.197,0.136-0.311,0.304-0.257c0.107,0.034,0.16,0.12,0.16,0.263c0.001,0.534,0,1.067,0,1.601
			c0,0.638,0,1.275,0,1.913c0,0.036,0,0.072,0,0.116c0.046,0.002,0.082,0.006,0.118,0.006c1.638,0,3.277,0,4.915,0.001
			c0.055,0,0.119-0.01,0.164,0.012c0.065,0.032,0.154,0.083,0.167,0.14c0.035,0.163,0.06,0.329-0.077,0.478
			c-0.661,0.718-0.18,1.662,0.439,1.91c0.597,0.239,1.634-0.081,1.637-1.13c0.003-1.219,0.001-2.439,0.001-3.658
			c0-1.927,0.001-3.855-0.002-5.782c0-0.14,0.064-0.221,0.181-0.275c0.037,0,0.074,0,0.111,0c0.059,0.059,0.119,0.119,0.178,0.178
			c0,3.232,0,6.465,0,9.697c-0.008,0.032-0.017,0.063-0.024,0.095c-0.144,0.689-0.542,1.151-1.22,1.36
			c-0.087,0.027-0.179,0.039-0.269,0.058c-0.082,0-0.163,0-0.245,0c-0.035-0.008-0.07-0.019-0.106-0.024
			c-0.934-0.14-1.603-0.941-1.408-1.943c0.042-0.217,0.139-0.424,0.212-0.64c-0.013-0.001-0.045-0.005-0.077-0.005
			c-0.615,0-1.23-0.001-1.846,0c-1.03,0.001-2.06,0.004-3.091,0.004c-0.697,0-1.393-0.006-2.09-0.001
			c-0.107,0.001-0.226,0.022-0.317,0.074c-0.3,0.172-0.415,0.465-0.439,0.79c-0.044,0.583,0.396,1.273,1.212,1.267
			c2.098-0.015,4.195-0.005,6.293-0.004c0.051,0,0.104,0.001,0.154,0.013c0.113,0.027,0.177,0.122,0.169,0.24
			c-0.007,0.109-0.083,0.193-0.195,0.208c-0.051,0.007-0.103,0.006-0.155,0.006c-2.101,0-4.203-0.01-6.304,0.006
			c-0.629,0.005-1.456-0.504-1.601-1.321c-0.013-0.076-0.027-0.152-0.041-0.228C6.371,13.099,6.371,13.047,6.371,12.995z"/>
		<path d="M11.575,6.879c0.046-0.039,0.07-0.061,0.096-0.081c0.894-0.692,1.787-1.384,2.681-2.075
			c0.401-0.31,0.446-0.802,0.107-1.176c-0.02-0.022-0.038-0.046-0.056-0.071c-0.009-0.006-0.017-0.013-0.025-0.02
			c-0.007-0.004-0.015-0.008-0.021-0.013c-0.003-0.001-0.005-0.002-0.008-0.003c-0.016-0.004-0.03-0.008-0.044-0.014
			c-0.013-0.003-0.027-0.007-0.04-0.012c-0.021-0.002-0.041-0.006-0.059-0.012C14.181,3.4,14.157,3.397,14.136,3.39
			c-0.009-0.001-0.018-0.003-0.028-0.005c-0.012-0.001-0.023-0.002-0.034-0.004c-0.004,0-0.009-0.001-0.013-0.001
			c-0.008,0.001-0.017,0.001-0.028-0.001c-0.243-0.035-0.445,0.049-0.635,0.2c-1.327,1.058-2.657,2.111-3.986,3.165
			C9.384,6.768,9.354,6.79,9.319,6.816C8.834,6.431,8.351,6.048,7.854,5.654c0.05-0.021,0.083-0.034,0.115-0.048
			c0.48-0.198,0.815-0.706,0.768-1.167C8.681,3.888,8.284,3.448,7.745,3.342C7.724,3.338,7.704,3.328,7.684,3.32H7.417
			C7.354,3.339,7.29,3.355,7.229,3.377C6.786,3.539,6.503,3.844,6.395,4.306c-0.005,0.021-0.016,0.04-0.024,0.06v0.267
			C6.39,4.7,6.407,4.768,6.427,4.834C6.513,5.11,6.691,5.323,6.909,5.498c0.648,0.523,1.304,1.037,1.956,1.554
			C8.888,7.07,8.909,7.09,8.939,7.116C8.899,7.15,8.864,7.181,8.827,7.211C8.241,7.675,7.657,8.143,7.069,8.604
			C6.736,8.864,6.455,9.157,6.371,9.592v0.267c0.007,0.017,0.018,0.032,0.021,0.05c0.04,0.233,0.148,0.433,0.308,0.605
			c0.46,0.498,1.168,0.524,1.655,0.061c0.497-0.473,0.519-1.18,0.033-1.66c-0.144-0.142-0.332-0.24-0.501-0.36
			c0.007-0.006,0.037-0.033,0.069-0.057c1.387-1.101,2.775-2.202,4.162-3.303c0.537-0.426,1.074-0.852,1.611-1.278
			c0.185-0.146,0.308-0.146,0.421,0c0.121,0.156,0.095,0.297-0.082,0.435c-0.012,0.009-0.023,0.018-0.035,0.027
			c-1.105,0.855-2.209,1.71-3.313,2.566c-0.03,0.023-0.069,0.057-0.072,0.088c-0.009,0.101-0.003,0.204-0.003,0.307h6.153V6.879
			H11.575z M6.84,4.494c0.006-0.42,0.305-0.71,0.724-0.705c0.429,0.005,0.714,0.299,0.707,0.73C8.263,4.952,7.978,5.226,7.54,5.219
			C7.135,5.214,6.834,4.925,6.84,4.494z M8.271,9.731c-0.003,0.431-0.29,0.712-0.725,0.709c-0.421-0.003-0.711-0.297-0.706-0.72
			c0.005-0.438,0.308-0.711,0.728-0.709C7.991,9.013,8.274,9.303,8.271,9.731z"/>
		<path d="M9.752,3.32C9.89,3.386,9.931,3.496,9.929,3.645c-0.006,0.67-0.002,1.34-0.003,2.011c0,0.146-0.071,0.244-0.186,0.265
			C9.583,5.949,9.463,5.845,9.462,5.673C9.46,5.18,9.461,4.688,9.461,4.195c0-0.189,0.007-0.378-0.002-0.566
			C9.453,3.481,9.504,3.378,9.641,3.32C9.678,3.32,9.715,3.32,9.752,3.32z"/>
		<path d="M10.877,9.018c0.001,0.231,0.001,0.231-0.226,0.231c-0.246,0-0.246,0-0.245-0.245c0.001-0.224,0.001-0.224,0.22-0.225
			c0.004,0,0.007,0,0.011,0C10.876,8.778,10.876,8.778,10.877,9.018z"/>
		<path d="M16.341,6.392c0-0.154,0-0.297,0-0.45c0.151,0,0.3,0,0.456,0c0,0.149,0,0.294,0,0.45
			C16.647,6.392,16.499,6.392,16.341,6.392z"/>
		<path d="M10.87,7.842c0,0.151,0,0.297,0,0.451c-0.15,0-0.296,0-0.453,0c0-0.146,0-0.294,0-0.451
			C10.563,7.842,10.709,7.842,10.87,7.842z"/>
		<path d="M16.342,8.787c0.154,0,0.303,0,0.456,0c0,0.154,0,0.301,0,0.454c-0.155,0-0.304,0-0.456,0
			C16.342,9.087,16.342,8.94,16.342,8.787z"/>
		<path d="M10.868,10.188c-0.162,0-0.304,0-0.455,0c0-0.152,0-0.298,0-0.452c0.151,0,0.3,0,0.455,0
			C10.868,9.887,10.868,10.036,10.868,10.188z"/>
		<path d="M10.869,11.142c-0.154,0-0.301,0-0.455,0c0-0.153,0-0.302,0-0.456c0.154,0,0.301,0,0.455,0
			C10.869,10.84,10.869,10.989,10.869,11.142z"/>
		<path d="M16.8,11.636c0,0.153,0,0.296,0,0.45c-0.152,0-0.3,0-0.455,0c0-0.148,0-0.294,0-0.45
			C16.492,11.636,16.64,11.636,16.8,11.636z"/>
		<path d="M16.341,4.492c0-0.155,0-0.298,0-0.449c0.152,0,0.3,0,0.456,0c0,0.149,0,0.294,0,0.449
			C16.647,4.492,16.499,4.492,16.341,4.492z"/>
		<path d="M16.345,4.993c0.15,0,0.296,0,0.45,0c0,0.151,0,0.299,0,0.454c-0.151,0-0.296,0-0.45,0
			C16.345,5.297,16.345,5.148,16.345,4.993z"/>
		<path d="M16.797,7.84c0,0.157,0,0.303,0,0.454c-0.153,0-0.298,0-0.452,0c0-0.151,0-0.299,0-0.454
			C16.496,7.84,16.641,7.84,16.797,7.84z"/>
		<path d="M16.797,10.188c-0.157,0-0.302,0-0.454,0c0-0.152,0-0.298,0-0.452c0.151,0,0.299,0,0.454,0
			C16.797,9.886,16.797,10.032,16.797,10.188z"/>
		<path d="M16.345,10.686c0.151,0,0.297,0,0.451,0c0,0.15,0,0.296,0,0.451c-0.146,0-0.295,0-0.451,0
			C16.345,10.992,16.345,10.847,16.345,10.686z"/>
		<path d="M16.798,12.582c0,0.152,0,0.298,0,0.451c-0.151,0-0.297,0-0.452,0c0-0.147,0-0.296,0-0.451
			C16.493,12.582,16.638,12.582,16.798,12.582z"/>
	</g>
</g>
</svg>
