<?xml version="1.0" encoding="iso-8859-1"?>
<!-- Generator: Adobe Illustrator 18.0.0, SVG Export Plug-In . SVG Version: 6.00 Build 0)  -->
<!DOCTYPE svg PUBLIC "-//W3C//DTD SVG 1.1//EN" "http://www.w3.org/Graphics/SVG/1.1/DTD/svg11.dtd">
<svg version="1.1" id="Layer_1" xmlns="http://www.w3.org/2000/svg" xmlns:xlink="http://www.w3.org/1999/xlink" x="0px" y="0px"
	 viewBox="0 0 24 24" style="enable-background:new 0 0 24 24;" xml:space="preserve">
<g>
	<circle style="fill:#DAE1E6;" cx="12" cy="13.036" r="7.979"/>
	<g>
		<path style="fill:none;stroke:#000000;stroke-width:0.5;stroke-miterlimit:10;" d="M11.491,10.694l-0.564-0.564
			c-1.316-1.316-1.316-3.45,0-4.766l0,0c1.316-1.316,3.45-1.316,4.766,0l0.564,0.564"/>
		<path style="fill:none;stroke:#000000;stroke-width:0.5;stroke-miterlimit:10;" d="M17.976,7.647l0.9,0.9
			c1.316,1.316,1.316,3.45,0,4.766l0,0c-1.316,1.316-3.45,1.316-4.766,0l-0.884-0.884"/>
		<path style="fill:none;stroke:#000000;stroke-width:0.5;stroke-miterlimit:10;" d="M4.137,3.542l2.626,2.626
			C6.926,6.33,7.147,6.422,7.378,6.422h0.016c0.481,0,0.87-0.39,0.87-0.87v0c0-0.231-0.092-0.452-0.255-0.615L7.625,4.553
			c-0.167-0.167-0.261-0.394-0.261-0.63V3.876c0-0.492,0.399-0.891,0.891-0.891h0c0.236,0,0.463,0.094,0.63,0.261l2.079,2.079"/>
		<polygon style="fill:none;stroke:#000000;stroke-width:0.5;stroke-miterlimit:10;" points="18.76,6.631 11.403,13.988 
			9.942,12.526 17.298,5.169 19.673,4.257 		"/>
		<path style="fill:none;stroke:#000000;stroke-width:0.5;stroke-miterlimit:10;" d="M9.186,13.281l0.225-0.225l1.462,1.462
			l-0.225,0.225c-0.403,0.403-1.059,0.403-1.462,0c-0.2-0.2-0.303-0.468-0.3-0.731C8.883,13.749,8.985,13.481,9.186,13.281z"/>
		<line style="fill:none;stroke:#000000;stroke-width:0.5;stroke-miterlimit:10;" x1="11.232" y1="12.64" x2="17.795" y2="6.078"/>
	</g>
</g>
</svg>
