<?xml version="1.0" encoding="iso-8859-1"?>
<!-- Generator: Adobe Illustrator 18.0.0, SVG Export Plug-In . SVG Version: 6.00 Build 0)  -->
<!DOCTYPE svg PUBLIC "-//W3C//DTD SVG 1.1//EN" "http://www.w3.org/Graphics/SVG/1.1/DTD/svg11.dtd">
<svg version="1.1" id="Layer_1" xmlns="http://www.w3.org/2000/svg" xmlns:xlink="http://www.w3.org/1999/xlink" x="0px" y="0px"
	 viewBox="0 0 24 24" style="enable-background:new 0 0 24 24;" xml:space="preserve">
<g>
	<circle style="fill:#DAE1E6;" cx="12" cy="13.028" r="7.979"/>
	<g>
		<g>
			
				<polygon style="fill:none;stroke:#000000;stroke-width:0.5;stroke-linecap:round;stroke-linejoin:round;stroke-miterlimit:10;" points="
				12,5.879 12.628,7.813 14.662,7.813 13.017,9.008 13.645,10.943 12,9.747 10.355,10.943 10.983,9.008 9.338,7.813 11.372,7.813 
							"/>
		</g>
		<path d="M5.993,8.613c0.105-0.473,0.173-0.958,0.32-1.418C7.076,4.802,9.303,3.126,11.767,3c2.72-0.139,5.065,1.528,5.968,3.738
			c0.371,0.907,0.348,1.849,0.021,2.737c-0.971,2.638-2.767,4.473-5.494,5.284c-1.674,0.498-3.111-0.037-4.34-1.211
			c-1.101-1.052-1.742-2.333-1.89-3.855c-0.004-0.041-0.026-0.081-0.04-0.121C5.993,9.253,5.993,8.933,5.993,8.613z M6.724,9.08
			c0.022,0.238,0.034,0.478,0.069,0.714c0.286,1.926,1.31,3.323,3.06,4.163c0.915,0.438,1.557,0.207,2.045-0.685
			c0.238-0.435,0.451-0.886,0.633-1.346c0.572-1.448,1.576-2.413,3.078-2.856c0.321-0.095,0.634-0.226,0.94-0.366
			c0.296-0.135,0.513-0.365,0.562-0.697c0.056-0.38,0.043-0.757-0.119-1.121c-0.858-1.926-2.995-3.333-5.34-3.131
			C8.905,3.99,6.735,6.321,6.724,9.08z M12.421,13.932c1.703-0.352,4.451-3.123,4.564-4.582c-0.439,0.162-0.882,0.342-1.335,0.491
			c-1.081,0.357-1.849,1.043-2.304,2.092C13.056,12.606,12.732,13.264,12.421,13.932z"/>
	</g>
</g>
</svg>
