<?xml version="1.0" encoding="iso-8859-1"?>
<!-- Generator: Adobe Illustrator 18.0.0, SVG Export Plug-In . SVG Version: 6.00 Build 0)  -->
<!DOCTYPE svg PUBLIC "-//W3C//DTD SVG 1.1//EN" "http://www.w3.org/Graphics/SVG/1.1/DTD/svg11.dtd">
<svg version="1.1" id="Layer_1" xmlns="http://www.w3.org/2000/svg" xmlns:xlink="http://www.w3.org/1999/xlink" x="0px" y="0px"
	 viewBox="0 0 24 24" style="enable-background:new 0 0 24 24;" xml:space="preserve">
<g>
	<circle style="fill:#DAE1E6;" cx="12" cy="13.037" r="7.979"/>
	<g>
		<path d="M6.239,6.863C6.251,6.796,6.26,6.728,6.276,6.662C6.344,6.376,6.538,6.209,6.848,6.17C6.931,6.16,7.016,6.154,7.1,6.153
			c0.464-0.002,0.929-0.001,1.393-0.001c0.014,0,0.027,0.001,0.046,0.002c0,0.189,0,0.378,0,0.574c-0.025,0-0.05,0-0.075,0
			C8.081,6.73,7.699,6.724,7.317,6.733C6.989,6.742,6.83,6.91,6.816,7.238C6.815,7.27,6.815,7.301,6.815,7.332
			c0,1.998,0,3.997,0,5.995c0,0.07,0.004,0.141,0.012,0.211c0.024,0.225,0.146,0.35,0.372,0.377
			c0.074,0.009,0.148,0.013,0.223,0.013c3.053,0.001,6.105,0.001,9.158,0c0.084,0,0.169-0.005,0.251-0.02
			c0.212-0.041,0.318-0.16,0.342-0.375c0.007-0.068,0.012-0.137,0.012-0.205c0.001-1.998,0.001-3.997,0-5.995
			c0-0.072-0.003-0.145-0.015-0.216c-0.041-0.239-0.19-0.369-0.443-0.381c-0.188-0.009-0.376-0.005-0.564-0.006
			c-0.212-0.001-0.423,0-0.635,0c-0.021,0-0.042,0-0.067,0c0-0.193,0-0.38,0-0.571c0.011-0.002,0.022-0.004,0.033-0.004
			c0.502,0.001,1.003,0,1.505,0.004c0.08,0.001,0.16,0.013,0.238,0.029c0.288,0.061,0.452,0.244,0.5,0.531
			c0.017,0.104,0.025,0.21,0.025,0.316c0.001,2.196,0.001,4.393,0,6.589c0,0.109-0.007,0.22-0.028,0.327
			c-0.06,0.308-0.245,0.481-0.556,0.533c-0.048,0.008-0.096,0.016-0.144,0.024c-3.354,0-6.709,0-10.063,0
			c-0.048-0.008-0.096-0.016-0.144-0.024c-0.311-0.052-0.492-0.225-0.557-0.532c-0.011-0.053-0.018-0.107-0.027-0.161
			C6.239,11.479,6.239,9.171,6.239,6.863z"/>
		<path d="M12.188,2.984c0.116,0.016,0.233,0.026,0.348,0.048c0.679,0.126,1.249,0.436,1.66,1.005
			c0.277,0.384,0.398,0.819,0.397,1.291c-0.002,0.748,0,1.497-0.001,2.245c0,0.051,0.011,0.078,0.063,0.1
			c0.377,0.163,0.582,0.569,0.494,0.971c-0.088,0.402-0.449,0.684-0.867,0.677c-0.403-0.007-0.751-0.304-0.826-0.705
			c-0.074-0.396,0.136-0.792,0.508-0.948c0.038-0.016,0.054-0.032,0.054-0.075c-0.001-0.762,0-1.524-0.001-2.287
			c0-0.42-0.178-0.767-0.465-1.058c-0.442-0.449-0.976-0.699-1.612-0.683c-0.504,0.012-0.943,0.208-1.327,0.53
			c-0.271,0.227-0.481,0.5-0.574,0.847c-0.033,0.121-0.05,0.251-0.051,0.376C9.981,6.073,9.984,6.829,9.983,7.585
			c0,0.043,0.012,0.064,0.054,0.082c0.389,0.166,0.599,0.588,0.498,0.994c-0.103,0.413-0.484,0.69-0.904,0.657
			C9.231,9.288,8.912,8.994,8.841,8.591c-0.066-0.376,0.148-0.766,0.51-0.921c0.048-0.02,0.057-0.046,0.057-0.091
			c-0.001-0.75,0-1.501-0.001-2.251C9.406,4.983,9.47,4.653,9.622,4.343c0.23-0.47,0.588-0.811,1.049-1.049
			c0.344-0.177,0.711-0.274,1.096-0.301c0.015-0.001,0.03-0.006,0.045-0.01C11.937,2.984,12.062,2.984,12.188,2.984z"/>
		<path d="M13.436,6.156c0,0.19,0,0.377,0,0.569c-0.957,0-1.912,0-2.872,0c0-0.188,0-0.377,0-0.569
			C11.522,6.156,12.477,6.156,13.436,6.156z"/>
	</g>
</g>
</svg>
