<?xml version="1.0" encoding="iso-8859-1"?>
<!-- Generator: Adobe Illustrator 18.0.0, SVG Export Plug-In . SVG Version: 6.00 Build 0)  -->
<!DOCTYPE svg PUBLIC "-//W3C//DTD SVG 1.1//EN" "http://www.w3.org/Graphics/SVG/1.1/DTD/svg11.dtd">
<svg version="1.1" id="Layer_1" xmlns="http://www.w3.org/2000/svg" xmlns:xlink="http://www.w3.org/1999/xlink" x="0px" y="0px"
	 viewBox="0 0 24 24" style="enable-background:new 0 0 24 24;" xml:space="preserve">
<g>
	<circle style="fill:#DAE1E6;" cx="12" cy="13.028" r="7.979"/>
	<g>
		<path d="M14.217,12.44c0.027,0.52,0.236,0.93,0.603,1.274c0.168,0.157,0.338,0.264,0.575,0.219c0.03-0.006,0.062-0.002,0.093,0
			c0.14,0.009,0.242,0.115,0.242,0.249c-0.001,0.135-0.101,0.241-0.244,0.244c-0.206,0.004-0.412,0.002-0.618,0.002
			c-1.589,0-3.178,0-4.767,0c-0.05,0-0.102,0.002-0.151-0.008c-0.115-0.023-0.197-0.141-0.186-0.261
			c0.011-0.119,0.106-0.218,0.229-0.225c0.112-0.006,0.225,0.002,0.338-0.004c0.038-0.002,0.086-0.016,0.112-0.041
			c0.138-0.137,0.278-0.273,0.402-0.422c0.243-0.292,0.365-0.634,0.385-1.027c-0.053,0-0.099,0-0.145,0c-0.839,0-1.678,0-2.518,0
			c-0.477,0-0.79-0.311-0.791-0.785c-0.001-0.556-0.001-1.111,0-1.667c0-0.166,0.081-0.267,0.218-0.279
			c0.153-0.014,0.271,0.089,0.275,0.247c0.004,0.159,0.001,0.318,0.001,0.487c2.983,0,5.96,0,8.952,0c0-0.041,0-0.082,0-0.123
			c0-1.504,0-3.007,0-4.511c0-0.251-0.082-0.333-0.336-0.333c-0.21,0-0.42,0.001-0.629,0c-0.173-0.001-0.276-0.095-0.276-0.247
			c0-0.15,0.107-0.247,0.276-0.248c0.229-0.001,0.458-0.001,0.688,0c0.452,0.002,0.771,0.317,0.771,0.77
			c0.002,1.337,0.001,2.673,0.001,4.01c0,0.629,0.001,1.259,0,1.888c-0.001,0.484-0.311,0.792-0.795,0.792c-0.851,0-1.702,0-2.553,0
			C14.323,12.44,14.277,12.44,14.217,12.44z M8.281,10.953c-0.005,0.016-0.01,0.023-0.01,0.03C8.271,11.189,8.27,11.394,8.27,11.6
			c0,0.268,0.077,0.344,0.348,0.344c2.754,0,5.508,0,8.262-0.001c0.054,0,0.109-0.002,0.161-0.014
			c0.101-0.024,0.171-0.097,0.175-0.195c0.01-0.259,0.003-0.518,0.003-0.782C14.235,10.953,11.261,10.953,8.281,10.953z
			 M11.108,13.923c1.082,0,2.142,0,3.218,0c-0.386-0.427-0.584-0.916-0.61-1.475c-0.666,0-1.324,0-1.987,0
			C11.702,13.013,11.496,13.499,11.108,13.923z"/>
		<path d="M11.009,9.456c-1.469,0-2.937,0-4.406,0c-0.243,0-0.321-0.078-0.321-0.32c0-1.943,0-3.885,0-5.828
			c0-0.237,0.077-0.315,0.313-0.315c2.941,0,5.882,0,8.823,0c0.228,0,0.311,0.083,0.311,0.307c0,1.946,0,3.893,0,5.839
			c0,0.233-0.083,0.317-0.315,0.317C13.947,9.456,12.478,9.456,11.009,9.456z M15.229,3.496c-2.823,0-5.634,0-8.443,0
			c0,1.824,0,3.639,0,5.455c2.818,0,5.628,0,8.443,0C15.229,7.128,15.229,5.315,15.229,3.496z"/>
		<path d="M14.984,6.728c0,0.478,0,0.956,0,1.433c0,0.21-0.087,0.297-0.298,0.297c-0.959,0-1.919,0-2.878,0
			c-0.221,0-0.303-0.081-0.303-0.302c0-0.959,0-1.919,0-2.878c0-0.212,0.087-0.299,0.296-0.299c0.959,0,1.919,0,2.878,0
			c0.217,0,0.304,0.088,0.305,0.303C14.984,5.765,14.984,6.247,14.984,6.728z M12.004,7.956c0.832,0,1.653,0,2.476,0
			c0-0.828,0-1.649,0-2.473c-0.83,0-1.651,0-2.476,0C12.004,6.31,12.004,7.128,12.004,7.956z"/>
		<path d="M8.771,6.221c0.47,0,0.94,0,1.41,0.001c0.054,0,0.11,0.002,0.161,0.019c0.107,0.035,0.163,0.117,0.165,0.229
			c0.001,0.112-0.056,0.192-0.16,0.234c-0.028,0.011-0.06,0.018-0.091,0.018C9.265,6.722,8.274,6.724,7.284,6.721
			C7.108,6.72,7.001,6.578,7.034,6.416c0.025-0.121,0.127-0.194,0.28-0.195c0.455-0.001,0.909,0,1.364-0.001
			C8.709,6.221,8.74,6.221,8.771,6.221z"/>
		<path d="M8.764,5.475c-0.489,0-0.979,0.001-1.468-0.001C7.131,5.474,7.03,5.378,7.029,5.231C7.028,5.08,7.135,4.981,7.303,4.98
			C7.687,4.979,8.072,4.98,8.456,4.98c0.594,0,1.189-0.001,1.783,0.001c0.205,0.001,0.329,0.187,0.242,0.357
			c-0.051,0.101-0.138,0.138-0.249,0.138C9.743,5.474,9.253,5.475,8.764,5.475z"/>
		<path d="M8.025,7.468c0.233,0,0.466-0.001,0.699,0c0.18,0.001,0.291,0.094,0.292,0.244c0.001,0.15-0.112,0.251-0.287,0.251
			c-0.474,0.001-0.948,0.001-1.421,0c-0.17,0-0.277-0.097-0.278-0.246C7.028,7.566,7.13,7.47,7.302,7.469
			C7.543,7.467,7.784,7.468,8.025,7.468z"/>
		<path d="M7.525,4.484c-0.081,0-0.163,0.004-0.244-0.001C7.128,4.475,7.03,4.375,7.029,4.234c0-0.141,0.098-0.244,0.25-0.25
			c0.162-0.006,0.325-0.006,0.487,0C7.92,3.99,8.018,4.092,8.018,4.233c0,0.141-0.098,0.242-0.25,0.25
			C7.687,4.488,7.606,4.484,7.525,4.484z"/>
		<path d="M11.994,4.484c-0.081,0-0.163,0.004-0.244-0.001c-0.146-0.009-0.243-0.108-0.245-0.243
			c-0.003-0.141,0.094-0.249,0.245-0.255c0.166-0.007,0.333-0.006,0.499,0c0.146,0.006,0.243,0.108,0.245,0.243
			c0.003,0.142-0.094,0.245-0.245,0.255C12.165,4.488,12.079,4.484,11.994,4.484z"/>
		<path d="M13.242,4.484c-0.081,0-0.163,0.004-0.244-0.001c-0.151-0.009-0.253-0.112-0.252-0.25c0-0.138,0.102-0.243,0.254-0.248
			c0.162-0.006,0.325-0.006,0.488,0c0.149,0.005,0.254,0.114,0.254,0.25c0,0.136-0.105,0.241-0.255,0.249
			C13.405,4.488,13.324,4.484,13.242,4.484z"/>
		<path d="M14.491,3.984c0.081,0,0.163-0.004,0.244,0.001c0.15,0.01,0.251,0.115,0.248,0.254c-0.003,0.134-0.101,0.238-0.246,0.244
			c-0.166,0.007-0.333,0.007-0.499,0c-0.148-0.006-0.253-0.118-0.25-0.253c0.003-0.132,0.104-0.235,0.248-0.244
			C14.321,3.979,14.406,3.984,14.491,3.984z"/>
	</g>
</g>
</svg>
