<?xml version="1.0" encoding="utf-8"?>
<!-- Generator: Adobe Illustrator 18.0.0, SVG Export Plug-In . SVG Version: 6.00 Build 0)  -->
<!DOCTYPE svg PUBLIC "-//W3C//DTD SVG 1.1//EN" "http://www.w3.org/Graphics/SVG/1.1/DTD/svg11.dtd">
<svg version="1.1" id="Layer_1" xmlns="http://www.w3.org/2000/svg" xmlns:xlink="http://www.w3.org/1999/xlink" x="0px" y="0px"
	 viewBox="0 0 52 47" enable-background="new 0 0 52 47" xml:space="preserve">
<g>
	<g>
		<path fill="#141414" d="M48.9,0H3.1C1.4,0,0,1.4,0,3.2v32c0,1.8,1.4,3.2,3.1,3.2h15.7v2.3c0,2.1-1.7,3.9-3.8,3.9h-3.5
			c-0.7,0-1.2,0.5-1.2,1.2c0,0.7,0.5,1.2,1.2,1.2h28.9c0.7,0,1.2-0.5,1.2-1.2c0-0.7-0.5-1.2-1.2-1.2H37c-2.1,0-3.8-1.7-3.8-3.9v-2.3
			h15.7c1.7,0,3.1-1.4,3.1-3.2v-32C52,1.4,50.6,0,48.9,0z M19.9,44.6c0.8-1.1,1.3-2.4,1.3-3.9v-2.3h9.6v2.3c0,1.5,0.5,2.8,1.3,3.9
			H19.9z M49.6,35.2c0,0.4-0.3,0.8-0.7,0.8H3.1c-0.4,0-0.7-0.3-0.7-0.8v-6.4h47.2V35.2z M49.6,26.4H2.4V3.2c0-0.4,0.3-0.8,0.7-0.8
			h45.7c0.4,0,0.7,0.3,0.7,0.8V26.4z M26,33.7c0.7,0,1.3-0.6,1.3-1.3s-0.6-1.3-1.3-1.3c-0.7,0-1.3,0.6-1.3,1.3S25.3,33.7,26,33.7z
			 M28.1,8.4c-0.5-0.5-1.2-0.5-1.7,0L17.9,17c-0.5,0.5-0.5,1.2,0,1.7c0.2,0.2,0.5,0.4,0.8,0.4c0.3,0,0.6-0.1,0.8-0.4l8.5-8.6
			C28.5,9.6,28.5,8.9,28.1,8.4z M31.4,13.4L28,16.8c-0.5,0.5-0.5,1.2,0,1.7c0.2,0.2,0.5,0.4,0.8,0.4c0.3,0,0.6-0.1,0.8-0.4l3.4-3.4
			c0.5-0.5,0.5-1.2,0-1.7C32.6,12.9,31.8,12.9,31.4,13.4z"/>
	</g>
</g>
</svg>
