<?xml version="1.0" encoding="utf-8"?>
<!-- Generator: Adobe Illustrator 18.0.0, SVG Export Plug-In . SVG Version: 6.00 Build 0)  -->
<!DOCTYPE svg PUBLIC "-//W3C//DTD SVG 1.1//EN" "http://www.w3.org/Graphics/SVG/1.1/DTD/svg11.dtd">
<svg version="1.1" id="Layer_1" xmlns="http://www.w3.org/2000/svg" xmlns:xlink="http://www.w3.org/1999/xlink" x="0px" y="0px"
	 viewBox="0 0 61 46" enable-background="new 0 0 61 46" xml:space="preserve">
<g>
	<g>
		<path fill="#141414" d="M60,28.1l-2.4-0.6l1.3-2.2c0.3-0.5,0.2-1.1-0.2-1.6l-3.6-3.6c-0.4-0.4-1.1-0.5-1.6-0.2l-2.1,1.3l-0.6-2.4
			c-0.1-0.6-0.7-1-1.2-1h-1.3V5.1C48.3,2.3,46,0,43.2,0H5.1C2.3,0,0,2.3,0,5.1v25.6c0,2.8,2.3,5.1,5.1,5.1h29.1l2.3,0.6l-1.3,2.2
			c-0.3,0.5-0.2,1.1,0.2,1.6l3.6,3.6c0.4,0.4,1.1,0.5,1.6,0.2l2.1-1.3l0.6,2.4c0.1,0.6,0.7,1,1.2,1h5.1c0.6,0,1.1-0.4,1.2-1l0.6-2.4
			l2.1,1.3c0.5,0.3,1.1,0.2,1.6-0.2l3.6-3.6c0.4-0.4,0.5-1.1,0.2-1.6l-1.3-2.2l2.4-0.6c0.6-0.1,1-0.7,1-1.2v-5.1
			C61,28.8,60.6,28.3,60,28.1z M5.1,2.6h38.1c0.1,0,0.1,0,0.1,0l-18.1,15c-0.7,0.4-1.6,0.4-2,0.1L4.9,2.6C5,2.6,5,2.6,5.1,2.6z
			 M34,28.1c-0.6,0.1-1,0.7-1,1.2v3.8h-28c-1.4,0-2.5-1.1-2.5-2.6V5.1c0-0.4,0.1-0.7,0.2-1l18.9,15.6c0.7,0.5,1.6,0.7,2.5,0.7
			c0.9,0,1.7-0.3,2.6-0.8L45.5,4.1c0.1,0.3,0.2,0.7,0.2,1v12.8h-1.3c-0.6,0-1.1,0.4-1.2,1l-0.6,2.4L40.5,20
			c-0.5-0.3-1.1-0.2-1.6,0.2l-3.6,3.6c-0.4,0.4-0.5,1.1-0.2,1.6l1.3,2.2L34,28.1z M58.5,33.5l-2.2,0.5c-0.4,0.1-0.7,0.4-0.9,0.8
			c-0.1,0.3-0.2,0.6-0.4,1c-0.2,0.4-0.2,0.8,0.1,1.2l1.2,1.9L54,41.2L52.1,40c-0.4-0.2-0.8-0.2-1.2-0.1c-0.3,0.2-0.6,0.3-1,0.4
			c-0.4,0.1-0.7,0.5-0.8,0.9l-0.5,2.2h-3.1l-0.5-2.2c-0.1-0.4-0.4-0.8-0.8-0.9c-0.3-0.1-0.6-0.2-1-0.4c-0.4-0.2-0.8-0.2-1.2,0.1
			L40,41.2L37.8,39L39,37c0.2-0.4,0.2-0.8,0.1-1.2c-0.2-0.3-0.3-0.6-0.4-1c-0.1-0.4-0.5-0.7-0.9-0.8l-2.2-0.5v-3.1l2.2-0.5
			c0.4-0.1,0.7-0.4,0.9-0.8c0.1-0.3,0.2-0.6,0.4-1c0.2-0.4,0.2-0.8-0.1-1.2l-1.2-1.9l2.2-2.2l1.9,1.2c0.4,0.2,0.8,0.2,1.2,0.1
			c0.3-0.2,0.6-0.3,1-0.4c0.4-0.1,0.7-0.5,0.8-0.9l0.5-2.2h3.1l0.5,2.2c0.1,0.4,0.4,0.8,0.8,0.9c0.3,0.1,0.6,0.2,1,0.4
			c0.4,0.2,0.8,0.2,1.2-0.1l1.9-1.2l2.2,2.2l-1.2,1.9c-0.2,0.4-0.2,0.8-0.1,1.2c0.2,0.3,0.3,0.6,0.4,1c0.1,0.4,0.5,0.7,0.9,0.8
			l2.2,0.5V33.5z M47,25.6c-3.5,0-6.4,2.9-6.4,6.4c0,3.5,2.8,6.4,6.4,6.4c3.5,0,6.4-2.9,6.4-6.4C53.4,28.4,50.5,25.6,47,25.6z
			 M47,35.8c-2.1,0-3.8-1.7-3.8-3.8c0-2.1,1.7-3.8,3.8-3.8c2.1,0,3.8,1.7,3.8,3.8C50.8,34.1,49.1,35.8,47,35.8z"/>
	</g>
</g>
</svg>
