<?xml version="1.0" encoding="utf-8"?>
<!-- Generator: Adobe Illustrator 18.0.0, SVG Export Plug-In . SVG Version: 6.00 Build 0)  -->
<!DOCTYPE svg PUBLIC "-//W3C//DTD SVG 1.1//EN" "http://www.w3.org/Graphics/SVG/1.1/DTD/svg11.dtd">
<svg version="1.1" id="Layer_1" xmlns="http://www.w3.org/2000/svg" xmlns:xlink="http://www.w3.org/1999/xlink" x="0px" y="0px"
	 viewBox="0 0 768 800" enable-background="new 0 0 768 800" xml:space="preserve">
<g>
	<g>
		<path fill="#141414" d="M768,699.7l-0.1-16.8c-0.4-68-48-126.2-113-141.1V346.1c0-121.5-80.4-224.5-190.8-258.8v-7.2
			C464.1,35.9,428.2,0,384,0c-44.2,0-80.1,35.9-80.1,80.1v7.2c-110.4,34.2-190.7,137.3-190.7,258.8v195.6
			c-65,14.9-112.7,73.1-113,141.1L0,699.7h250C267.1,758.4,321.7,800,383.8,800c62.6,0,116.8-41.4,133.8-100.3H768z M384,33.4
			c25.5,0,46.2,20.5,46.7,45.8c-15.2-2.6-30.8-4-46.7-4c-15.9,0-31.5,1.4-46.7,4C337.8,53.9,358.5,33.4,384,33.4z M131,572.5h60.5
			V539h-44.9V346.1c0-130.9,106.5-237.4,237.4-237.4c130.9,0,237.4,106.5,237.4,237.4V539H287.8v33.4h349.1
			c49.7,6.5,88.6,45.3,96.2,93.7H34.9C42.5,617.9,81.3,579,131,572.5z M383.8,766.6c-43.9,0-82.8-27.3-98.5-66.9h197
			C466.6,739.4,427.9,766.6,383.8,766.6z"/>
	</g>
</g>
</svg>
