<?xml version="1.0" encoding="utf-8"?>
<!-- Generator: Adobe Illustrator 18.0.0, SVG Export Plug-In . SVG Version: 6.00 Build 0)  -->
<!DOCTYPE svg PUBLIC "-//W3C//DTD SVG 1.1//EN" "http://www.w3.org/Graphics/SVG/1.1/DTD/svg11.dtd">
<svg version="1.1" id="Layer_1" xmlns="http://www.w3.org/2000/svg" xmlns:xlink="http://www.w3.org/1999/xlink" x="0px" y="0px"
	 viewBox="-201.5 29 293.7 360" enable-background="new -201.5 29 293.7 360" xml:space="preserve">
<path fill="#DAE1E6" d="M-54.6,95.3c81,0,146.9,65.9,146.9,146.9S26.4,389-54.6,389s-146.9-65.9-146.9-146.9S-135.6,95.3-54.6,95.3z
	"/>
<g>
	<g>
		<path fill="none" stroke="#DB213C" stroke-width="6" stroke-miterlimit="10" d="M-157.8,160.9c0.9,1.5,3,1.5,3.9,0l16.6-28.7
			c0.9-1.5-0.2-3.4-2-3.4h-9v-17.7c0-11.5,9.3-20.8,20.8-20.8h21.8v-15h-21.8c-19.7,0-35.8,16.1-35.8,35.8v17.8h-9.1
			c-1.7,0-2.8,1.9-2,3.4L-157.8,160.9z M-97.5,203.3c-13.4,0-24.2,10.8-24.2,24.2c0,13.4,10.8,24.2,24.2,24.2s24.2-10.8,24.2-24.2
			C-73.3,214.1-84.2,203.3-97.5,203.3z M-141.8,220.9c-4.5,0-8.2,3.7-8.2,8.2s3.7,8.2,8.2,8.2c4.5,0,8.2-3.7,8.2-8.2
			S-137.3,220.9-141.8,220.9z M-55.9,220.9c-4.5,0-8.2,3.7-8.2,8.2s3.7,8.2,8.2,8.2c4.5,0,8.2-3.7,8.2-8.2S-51.4,220.9-55.9,220.9z
			 M-33.7,179.7h-127.6c-7.4,0-13.4,6-13.4,13.4v68.8c0,7.4,6,13.4,13.4,13.4h127.6c7.4,0,13.4-6,13.4-13.4v-68.8
			C-20.3,185.7-26.3,179.7-33.7,179.7z M-31.8,248c-0.8-0.1-1.5-0.2-2.3-0.2c-7.5,0-13.5,6.1-13.5,13.5c0,0.8,0.1,1.7,0.2,2.5h-99.4
			c0.2-1.1,0.4-2.1,0.4-3.3c0-7.5-6.1-13.5-13.5-13.5c-1.2,0-2.3,0.1-3.4,0.4v-41.5c1.1,0.3,2.2,0.4,3.4,0.4
			c7.5,0,13.5-6.1,13.5-13.5c0-0.6,0-1.1-0.1-1.7h99c-0.1,0.8-0.2,1.7-0.2,2.5c0,7.5,6.1,13.5,13.5,13.5c0.8,0,1.6-0.1,2.4-0.2V248z
			 M61.7,180.2l-16.6-28.7c-0.9-1.5-3-1.5-3.9,0l-16.6,28.7c-0.9,1.5,0.2,3.4,2,3.4h9.1v17.7c0,11.5-9.3,20.8-20.8,20.8H-7v15h21.8
			c19.7,0,35.8-16.1,35.8-35.8v-17.7h9.1C61.5,183.5,62.6,181.7,61.7,180.2z M-15.1,109.1C-1.8,109.1,9,98.3,9,84.9
			C9,71.5-1.8,60.7-15.1,60.7c-13.4,0-24.2,10.8-24.2,24.2C-39.3,98.3-28.5,109.1-15.1,109.1z M-57.7,93c4.5,0,8.1-3.6,8.1-8.1
			c0-4.5-3.6-8.1-8.1-8.1c-4.5,0-8.1,3.6-8.1,8.1C-65.9,89.4-62.2,93-57.7,93z M27.5,93c4.5,0,8.1-3.6,8.1-8.1
			c0-4.5-3.6-8.1-8.1-8.1c-4.5,0-8.1,3.6-8.1,8.1C19.3,89.4,23,93,27.5,93z M-78.9,132.7H48.6c7.4,0,13.4-6,13.4-13.4V50.5
			c0-7.4-6-13.3-13.3-13.3H-78.9c-7.4,0-13.4,6-13.4,13.4v68.8C-92.3,126.7-86.3,132.7-78.9,132.7z M-81,63.3
			c1.1,0.3,2.2,0.4,3.4,0.4c7.5,0,13.5-6.1,13.5-13.5c0-0.6,0-1.1-0.1-1.7h99c-0.1,0.8-0.2,1.7-0.2,2.5c0,7.5,6.1,13.5,13.5,13.5
			c0.8,0,1.6-0.1,2.4-0.2v41c-0.8-0.1-1.5-0.2-2.3-0.2c-7.5,0-13.5,6.1-13.5,13.5c0,0.8,0.1,1.7,0.2,2.5h-99.4
			c0.2-1.1,0.4-2.1,0.4-3.3c0-7.5-6.1-13.5-13.5-13.5c-1.2,0-2.3,0.1-3.4,0.4V63.3z"/>
	</g>
</g>
</svg>
