<?xml version="1.0" encoding="utf-8"?>
<!-- Generator: Adobe Illustrator 18.0.0, SVG Export Plug-In . SVG Version: 6.00 Build 0)  -->
<!DOCTYPE svg PUBLIC "-//W3C//DTD SVG 1.1//EN" "http://www.w3.org/Graphics/SVG/1.1/DTD/svg11.dtd">
<svg version="1.1" id="Layer_1" xmlns="http://www.w3.org/2000/svg" xmlns:xlink="http://www.w3.org/1999/xlink" x="0px" y="0px"
	 viewBox="0 0 472.9 376.6" enable-background="new 0 0 472.9 376.6" xml:space="preserve">
<path fill="#676868" d="M210.2,87.3h-26c-1.5,0-2.8-1.2-2.8-2.8l0,0c0-1.5,1.2-2.8,2.8-2.8h26c1.5,0,2.8,1.2,2.8,2.8l0,0
	C213,86,211.8,87.3,210.2,87.3z"/>
<g>
	<path fill="#CB2035" d="M370.5,111.1v138.7c0,1.3-0.2,2.7-0.5,3.9c-1.7,6.5-7.7,11.3-14.7,11.3H185.6V265h-42.8
		c-7.7,0-15-3.5-19.2-8.6c-1-2-1.5-4.2-1.5-6.6V111.1c0-8.4,6.9-15.3,15.3-15.3h11.4v-0.1c0-6.2,5.1-11.3,11.3-11.3h41.4v11.3h153.8
		C363.6,95.8,370.5,102.7,370.5,111.1z"/>
	<path fill="#B52029" d="M370.5,118.5v131.3c0,1.3-0.2,2.7-0.5,3.9c-1.7,6.5-7.7,11.3-14.7,11.3H185.6V265h-42.8
		c-7.7,0-15-3.5-19.2-8.6c-1-2-1.5-4.2-1.5-6.6V118.5H370.5z"/>
	<rect x="176" y="51.5" fill="#D8D8D8" width="136.6" height="157.6"/>
	<path fill="#EE2C46" d="M349.8,265H142.9c-7.7,0-15-3.5-19.2-8.6c-1.7-2.1-2.9-4.5-3.3-7l-2.8-15.9l-15-85.3
		c-1.5-8.6,6.2-15.6,17-15.6h206.9c10.9,0,21,7,22.5,15.6l17.8,101.2C368.3,258,360.7,265,349.8,265z"/>
	<path fill="#676868" d="M280.2,124h-89.8c-1.5,0-2.8-1.2-2.8-2.8v0c0-1.5,1.2-2.8,2.8-2.8h89.8c1.5,0,2.8,1.2,2.8,2.8v0
		C283,122.8,281.7,124,280.2,124z"/>
	<path fill="#676868" d="M280.2,112.7h-89.8c-1.5,0-2.8-1.2-2.8-2.8v0c0-1.5,1.2-2.8,2.8-2.8h89.8c1.5,0,2.8,1.2,2.8,2.8v0
		C283,111.5,281.7,112.7,280.2,112.7z"/>
	<path fill="#676868" d="M280.2,101.4h-89.8c-1.5,0-2.8-1.2-2.8-2.8v0c0-1.5,1.2-2.8,2.8-2.8h89.8c1.5,0,2.8,1.2,2.8,2.8v0
		C283,100.1,281.7,101.4,280.2,101.4z"/>
	<path fill="#676868" d="M213.1,78.9h-23.2c-1.4,0-2.5-1.1-2.5-2.5v0c0-1.4,1.1-2.5,2.5-2.5h23.2c1.4,0,2.5,1.1,2.5,2.5v0
		C215.5,77.8,214.4,78.9,213.1,78.9z"/>
</g>
<path fill="#EE2C46" d="M-1167.6,443.6h-74c-6.6,0-12-5.4-12-12v-74c0-6.6,5.4-12,12-12h74c6.6,0,12,5.4,12,12v74
	C-1155.6,438.2-1161,443.6-1167.6,443.6z"/>
<path fill="#CB2035" d="M-1170.1,587.1h-63.5c-6.6,0-12-5.4-12-12v-63.5c0-6.6,5.4-12,12-12h63.5c6.6,0,12,5.4,12,12v63.5
	C-1158.1,581.7-1163.5,587.1-1170.1,587.1z"/>
</svg>
