<?xml version="1.0" encoding="utf-8"?>
<!-- Generator: Adobe Illustrator 18.0.0, SVG Export Plug-In . SVG Version: 6.00 Build 0)  -->
<!DOCTYPE svg PUBLIC "-//W3C//DTD SVG 1.1 Tiny//EN" "http://www.w3.org/Graphics/SVG/1.1/DTD/svg11-tiny.dtd">
<svg version="1.1" baseProfile="tiny" id="Layer_1" xmlns="http://www.w3.org/2000/svg" xmlns:xlink="http://www.w3.org/1999/xlink"
	 x="0px" y="0px" viewBox="0 0 21 20.5" xml:space="preserve">
<g display="none">
	<path display="inline" fill-rule="evenodd" fill="#DB213C" d="M0,0.5v2h20v-2H0z M5,7.5h15v-2H5V7.5z M9,12.5h11v-2H9V12.5z
		 M6,17.5h14v-2H6V17.5z"/>
</g>
<g display="none">
	<path display="inline" fill="#A0A0A0" d="M20,16.8c-1.2-1.2-2.3-2.3-3.5-3.5c-0.3-0.3-0.6-0.5-1.1-0.5c-0.2,0-0.5,0.1-0.7,0.1
		c-0.2-0.2-0.4-0.4-0.7-0.6c2.7-3.5,1.9-8.2-1.1-10.6c-3-2.5-7.4-2.3-10.3,0.5c-2.7,2.7-3.1,7.1-0.6,10.2c1.2,1.4,2.7,2.3,4.5,2.7
		c2.3,0.4,4.4-0.1,6.2-1.5c0.2,0.2,0.5,0.4,0.7,0.7c-0.3,0.6-0.2,1.2,0.3,1.7c1.2,1.2,2.4,2.4,3.5,3.5c0.6,0.6,1.5,0.6,2.1,0
		c0.2-0.2,0.4-0.4,0.6-0.6C20.6,18.3,20.6,17.5,20,16.8z M8.1,13.9c-3.4,0-6.3-2.8-6.3-6.2c0-3.4,2.8-6.2,6.3-6.2
		c3.4,0,6.2,2.8,6.3,6.2C14.3,11.1,11.5,13.9,8.1,13.9z M8.8,3.8H7.3v3.1H4.2v1.6h3.1v3.1h1.6V8.4H12V6.9H8.8V3.8z"/>
</g>
<g>
	<path fill="#A0A0A0" d="M20.5,17.3c-1.2-1.2-2.3-2.3-3.5-3.5c-0.3-0.3-0.6-0.5-1.1-0.5c-0.2,0-0.5,0.1-0.7,0.1
		c-0.2-0.2-0.4-0.4-0.7-0.6c2.7-3.5,1.9-8.2-1.1-10.6C10.4-0.2,6-0.1,3.2,2.7C0.4,5.4,0,9.8,2.6,12.9c1.2,1.4,2.7,2.3,4.5,2.7
		c2.3,0.4,4.4-0.1,6.2-1.5c0.2,0.2,0.5,0.4,0.7,0.7c-0.3,0.6-0.2,1.2,0.3,1.7c1.2,1.2,2.4,2.4,3.5,3.5c0.6,0.6,1.5,0.6,2.1,0
		c0.2-0.2,0.4-0.4,0.6-0.6C21.1,18.8,21.1,18,20.5,17.3z M8.6,14.4c-3.4,0-6.3-2.8-6.3-6.2c0-3.4,2.8-6.2,6.3-6.2
		c3.4,0,6.2,2.8,6.3,6.2C14.8,11.6,12,14.3,8.6,14.4z M4.7,8.9l7.8,0V7.4l-7.8,0V8.9z"/>
</g>
</svg>
