<?xml version="1.0" encoding="utf-8"?>
<!-- Generator: Adobe Illustrator 18.0.0, SVG Export Plug-In . SVG Version: 6.00 Build 0)  -->
<!DOCTYPE svg PUBLIC "-//W3C//DTD SVG 1.1 Tiny//EN" "http://www.w3.org/Graphics/SVG/1.1/DTD/svg11-tiny.dtd">
<svg version="1.1" baseProfile="tiny" id="Layer_1" xmlns="http://www.w3.org/2000/svg" xmlns:xlink="http://www.w3.org/1999/xlink"
	 x="0px" y="0px" viewBox="0 0 20.1 20" xml:space="preserve">
<g display="none">
	<path display="inline" fill-rule="evenodd" fill="#DB213C" d="M-0.4,0.5v2h20v-2H-0.4z M4.6,7.5h15v-2h-15V7.5z M8.6,12.5h11v-2
		h-11V12.5z M5.6,17.5h14v-2h-14V17.5z"/>
</g>
<g>
	<path fill="#A0A0A0" d="M19.6,16.8c-1.2-1.2-2.3-2.3-3.5-3.5c-0.3-0.3-0.6-0.5-1.1-0.5c-0.2,0-0.5,0.1-0.7,0.1
		c-0.2-0.2-0.4-0.4-0.7-0.6c2.7-3.5,1.9-8.2-1.1-10.6c-3-2.5-7.4-2.3-10.3,0.5c-2.7,2.7-3.1,7.1-0.6,10.2c1.2,1.4,2.7,2.3,4.5,2.7
		c2.3,0.4,4.4-0.1,6.2-1.5c0.2,0.2,0.5,0.4,0.7,0.7c-0.3,0.6-0.2,1.2,0.3,1.7c1.2,1.2,2.4,2.4,3.5,3.5c0.6,0.6,1.5,0.6,2.1,0
		c0.2-0.2,0.4-0.4,0.6-0.6C20.3,18.3,20.3,17.5,19.6,16.8z M7.7,13.9c-3.4,0-6.3-2.8-6.3-6.2c0-3.4,2.8-6.2,6.3-6.2
		c3.4,0,6.2,2.8,6.3,6.2C14,11.1,11.2,13.9,7.7,13.9z M8.5,3.8H6.9v3.1H3.8v1.6h3.1v3.1h1.6V8.4h3.1V6.9H8.5V3.8z"/>
</g>
</svg>
