<?xml version="1.0" encoding="utf-8"?>
<!-- Generator: Adobe Illustrator 18.0.0, SVG Export Plug-In . SVG Version: 6.00 Build 0)  -->
<!DOCTYPE svg PUBLIC "-//W3C//DTD SVG 1.1//EN" "http://www.w3.org/Graphics/SVG/1.1/DTD/svg11.dtd">
<svg version="1.1" id="Layer_1" xmlns="http://www.w3.org/2000/svg" xmlns:xlink="http://www.w3.org/1999/xlink" x="0px" y="0px"
	 viewBox="0 0 16 16" enable-background="new 0 0 16 16" xml:space="preserve">
<g>
	<g>
		<path fill="#FFFFFF" d="M8,0C3.6,0,0,3.6,0,8c0,4.4,3.6,8,8,8c4.4,0,8-3.6,8-8C16,3.6,12.4,0,8,0z M8,15c-3.8,0-7-3.1-7-7
			c0-3.8,3.1-7,7-7c3.8,0,7,3.1,7,7C15,11.8,11.8,15,8,15z M11.2,7.5H8.5V4.8c0-0.3-0.2-0.5-0.5-0.5c-0.3,0-0.5,0.2-0.5,0.5v2.7H4.8
			C4.5,7.5,4.3,7.7,4.3,8c0,0.3,0.2,0.5,0.5,0.5h2.7v2.7c0,0.3,0.2,0.5,0.5,0.5c0.3,0,0.5-0.2,0.5-0.5V8.5h2.7
			c0.3,0,0.5-0.2,0.5-0.5C11.7,7.7,11.5,7.5,11.2,7.5z"/>
	</g>
</g>
</svg>
