<?xml version="1.0" encoding="utf-8"?>
<!-- Generator: Adobe Illustrator 18.0.0, SVG Export Plug-In . SVG Version: 6.00 Build 0)  -->
<!DOCTYPE svg PUBLIC "-//W3C//DTD SVG 1.1 Tiny//EN" "http://www.w3.org/Graphics/SVG/1.1/DTD/svg11-tiny.dtd">
<svg version="1.1" baseProfile="tiny" id="Layer_1" xmlns="http://www.w3.org/2000/svg" xmlns:xlink="http://www.w3.org/1999/xlink"
	 x="0px" y="0px" viewBox="0 0 24.8 22.2" xml:space="preserve">
<path display="none" d="M21,1.1c-3.6,0-10.1,0-11.2,0L8.2-0.5C7.9-0.9,7.4-1.1,7-1.1H3.6c-1.1,0-1.9,0.9-1.9,1.9v2.8H0.9
	C-0.2,3.7-1,4.6-1,5.6v13.5c0,1.1,0.9,1.9,1.9,1.9h16.4c1.1,0,1.9-0.9,1.9-1.9v-0.8H21c1.1,0,1.9-0.9,1.9-1.9V3.1
	C22.9,2,22,1.1,21,1.1z M17.3,5.9H7.1L5.5,4.2C5.2,3.9,4.7,3.7,4.3,3.7H3.6V0.9c0,0,0,0,0,0h3.3l1.6,1.7C8.8,2.8,9.2,3,9.6,3H21
	c0,0,0,0,0,0v13.4c0,0,0,0,0,0h-1.7V7.8C19.2,6.7,18.4,5.9,17.3,5.9z M6.9,7.8h10.4c0,0,0,0,0,0v11.4c0,0,0,0,0,0H0.9c0,0,0,0,0,0
	V5.6c0,0,0,0,0,0h3.3l1.6,1.7C6.1,7.6,6.5,7.8,6.9,7.8z"/>
<g display="none">
	<path display="inline" d="M17.6,12.3c-1-1.1-2.3-2-3.8-2.6c0-0.1,0-0.1,0-0.1c0.1-0.1,0.1-0.1,0.2-0.2c2.1-2,2.6-4.4,1.6-7
		c-1.1-3-4.4-4.5-7.5-3.7C5.1-0.4,3.1,2.8,3.8,5.9c0.3,1.5,1,2.7,2.3,3.7C5.9,9.7,5.8,9.7,5.7,9.8C2.8,11.1,1,13.2,0,16
		c-0.6,1.7-0.5,3.4-0.5,5.1c0,0.6,0.2,1,0.8,1.3h19.3c0.6-0.3,0.8-0.7,0.8-1.3c0-0.8,0-1.6,0-2.4C20.2,16.3,19.3,14.2,17.6,12.3z
		 M6.8,1.9c1.6-1.8,4.3-1.9,6-0.2C14,2.9,14.4,4.4,13.9,6c-0.5,1.5-1.5,2.5-3.2,2.8c-0.3,0.1-0.6,0.1-0.7,0.1
		c-1.3,0-2.3-0.5-3.1-1.2C5.4,6.1,5.3,3.6,6.8,1.9z M18.2,20.3H1.6c-0.1-1.1,0-2.2,0.3-3.3c0.6-2.1,1.9-3.8,3.9-5
		c2.8-1.6,6.4-1.5,9,0.5C17.5,14.6,18.4,17.2,18.2,20.3z M24.5,16.4c-0.1-2-0.8-3.9-2.3-5.4c-0.6-0.6-1.4-1.2-2.1-1.8
		c1.6-2.1,1.8-4.4,0.2-6.6c-1-1.3-2.4-2.1-4.3-2c0.2,0.4,0.5,0.6,0.6,0.9c0.3,0.8,0.9,1.3,1.6,1.9c1.9,1.4,1.5,4.1-0.7,5.2
		c-0.5,0.3-0.8,0.6-0.7,1.1c0.1,0.5,0.4,0.8,0.9,0.9c2.1,0.6,3.5,1.9,4.3,3.8c0.4,0.9,0.5,1.9,0.4,2.9c-0.3,0-0.6,0-0.9,0
		c0.1,0.7,0.1,1.3,0.2,2c0.6,0,1.1,0,1.6,0c0.8,0,1.2-0.4,1.3-1.1C24.5,17.6,24.5,17,24.5,16.4z"/>
</g>
<path display="none" d="M11.7,14.9c-0.5,0.6-1.1,1.1-1.6,1.6c-1.5,1.5-3.1,3.1-4.6,4.6c-1,1-2.4,1.1-3.5,0.4
	c-1.2-0.8-1.8-2.2-1.3-3.5c0.2-0.4,0.4-0.8,0.7-1.1c1.7-1.8,3.5-3.5,5.2-5.3c0.1-0.1,0.2-0.2,0.2-0.3c-0.6-0.1-1.2-0.2-1.7-0.4
	c-1.4-0.5-2.5-1.5-3.3-2.7C0.7,6.7,0.1,5,0.3,3C0.4,2,0.7,1,1.5,0.2c0.4-0.4,0.8-0.4,1.2,0c0.8,0.8,1.9,1.2,3,1.3
	c0.6,0,1.3,0.1,1.9,0.2C9,1.8,9.8,2.7,10.5,3.9c0.5,0.9,0.7,1.8,0.7,2.8c0,0.1,0,0.2,0,0.4c0.1-0.1,0.2-0.2,0.3-0.3
	c1.4-1.4,2.9-2.9,4.3-4.3C16,2.3,16.2,2.1,16.4,2c1.5-0.6,3-1.1,4.5-1.7c0.3-0.1,0.7-0.1,0.9,0.1c0.3,0.3,0.3,0.6,0.1,1
	c-0.6,1.5-1.1,3-1.7,4.6c-0.1,0.2-0.2,0.4-0.4,0.6c-1.5,1.6-3.1,3.1-4.6,4.7c-0.1,0.1-0.2,0.2-0.3,0.3c0.8,0.8,1.5,1.6,2.2,2.3
	c1.5,1.6,3.1,3.3,4.6,4.9c0.8,0.9,0.9,2.2,0.1,3c-0.8,0.8-2.1,0.8-3,0c-2.3-2.2-4.5-4.3-6.8-6.5C11.9,15.1,11.8,15,11.7,14.9z
	 M2.2,1.8C2.1,2.1,2,2.3,1.9,2.5c-0.3,1-0.2,2,0.1,2.9c0.6,1.8,1.7,3.3,3.5,4.1c1.7,0.8,3.6-0.3,4-2.1c0.2-1.1,0-2.2-0.7-3.2
	c-0.4-0.6-1-1-1.8-1C6.4,3.1,5.7,3,5.1,3C4,2.8,3.1,2.5,2.2,1.8z M9.3,10.5c0.1,0.1,0.2,0.2,0.3,0.2c3.4,3.2,6.8,6.5,10.1,9.7
	c0.1,0.1,0.2,0.2,0.3,0.3c0.2,0.1,0.4,0.1,0.6,0c0.2-0.2,0.2-0.4,0.1-0.7c-0.1-0.1-0.1-0.1-0.2-0.2c-3.3-3.5-6.5-7-9.8-10.4
	c-0.1-0.1-0.1-0.1-0.2-0.2c0,0.1,0.1,0.1,0.1,0.2C10.2,9.7,9.8,10.1,9.3,10.5z M13.9,10.4c1.5-1.5,3-3,4.5-4.5
	c-0.6-0.6-1.3-1.3-1.8-1.9c-1.5,1.5-3,3-4.4,4.5C12.7,9.1,13.3,9.8,13.9,10.4z M10.5,13.8c-0.7-0.6-1.3-1.2-1.9-1.8
	c-1.3,1.3-2.6,2.6-3.8,3.9c0.6,0.6,1.2,1.3,1.8,1.9C7.9,16.5,9.2,15.1,10.5,13.8z M3.5,17c-0.4,0.4-0.8,0.8-1.2,1.2
	c-0.4,0.5-0.4,1.2,0.1,1.7c0.6,0.6,1.3,0.7,1.8,0.3c0.4-0.4,0.8-0.9,1.2-1.3C4.8,18.3,4.2,17.7,3.5,17z M19.3,4.4
	c0.2-0.7,0.5-1.3,0.7-2.1c-0.7,0.3-1.4,0.5-2,0.8C18.4,3.6,18.8,4,19.3,4.4z"/>
<g display="none">
	<path display="inline" fill="#020202" d="M19.1,17.9c-0.3-0.3-0.6-0.6-1-1c2.3-3.6,1.2-7.4-1.2-9.4c-1.2-0.9-2.6-1.5-4.1-1.5
		c-1.7,0-3.3,0.7-4.6,1.8c-2.4,2.3-2.8,6-0.9,8.8c1.3,1.8,3,2.8,5,2.8h0c1.3,0,2.8-0.4,4.4-1.2c0,0,0,0,0,0.1
		c0.1,0.1,0.2,0.3,0.3,0.4l0.1,0.1c1.2,1.2,2.4,2.5,3.6,3.7c0.3,0.3,0.6,0.4,0.9,0.4c0.4,0,0.7-0.3,0.8-0.7c0.1-0.4-0.1-0.9-0.4-1.2
		C21.2,20,20.1,18.9,19.1,17.9z M12.8,17.6c-1.3,0-2.4-0.5-3.3-1.4c-0.9-0.9-1.4-2.1-1.4-3.4c0-2.6,2.1-4.7,4.7-4.7V7.9l0,0.2
		c2.6,0,4.7,2.1,4.7,4.8C17.5,15.5,15.4,17.6,12.8,17.6z M1.5,8.9c0.6,0,1.1,0,1.7,0c0.7,0,1.4,0,2.2,0c0.2,0,0.5-0.1,0.7-0.3
		C6.3,8.3,6.5,8,6.8,7.6C6.8,7.5,7,7.3,7.1,7.2l0.2-0.3l-3,0c-0.6,0-1.2,0-1.8,0C1.8,6.9,1.6,6.7,1.6,6c0-1.3,0-2.8,0-4.5
		c0-0.7,0.2-0.9,0.9-0.9c0.5,0,1.1,0,1.6,0l2.3,0c1.2,0,1.3,0.1,1.3,1.3v4.5L8,6.4c0.1-0.1,0.3-0.2,0.4-0.2C8.7,6,9,5.8,9.3,5.6
		c0.2-0.2,0.4-0.5,0.4-0.8c0-1.2,0-2.6,0-4.3c0-1.1-0.7-1.9-1.8-1.9c-1,0-2.1,0-3.2,0c-1.1,0-2.1,0-3.3,0c-1,0-1.8,0.8-1.8,1.8
		c0,2.1,0,4.2,0,6.5C-0.3,8.1,0.4,8.9,1.5,8.9z M22.7,0.5c0-1-0.7-1.8-1.7-1.8c-1,0-2.1,0-3.2,0c-1.1,0-2.2,0-3.3,0
		c-0.9,0-1.7,0.7-1.7,1.5c0,1,0,2.1,0,3.1c0,0.4,0,0.9,0,1.3v0.2l1.9,0.2l0-3.5c0-0.5,0.2-0.8,0.7-0.8c1.6,0,3.1,0,4.7,0
		c0.5,0,0.8,0.2,0.8,0.8c0,1.6,0,3.2,0,4.7c0,0.5-0.2,0.7-0.8,0.7c-0.2,0-0.3,0-0.5,0l-1.2,0l0.2,0.3c0.1,0.2,0.3,0.4,0.4,0.6
		c0.3,0.4,0.5,0.8,0.9,1C20,9,20.3,9.1,20.6,9.1c1,0,2-0.8,2.1-2C22.7,5.2,22.7,3.1,22.7,0.5z M8.1,19.5c-0.2,0.1-0.3,0.2-0.5,0.3
		c-0.3,0.2-0.5,0.3-0.7,0.3c-0.6,0-1.3,0-2.1,0h0c-0.5,0-1.1,0-1.6,0c-0.3,0-0.5,0-0.8,0c-0.6,0-0.8-0.2-0.8-0.8c0-1.4,0-2.9,0-4.5
		c0-0.7,0.2-0.9,0.8-0.9c0.5,0,1,0,1.5,0c0.2,0,0.5,0,0.7,0h0.2v-2H4.7c-0.3,0-0.7,0-1,0c-0.3,0-0.6,0-1,0c-0.5,0-0.9,0-1.2,0
		c-1.1,0-1.8,0.8-1.8,1.9c0,2.2,0,4.3,0,6.4c0,1.2,0.7,1.9,1.8,1.9c1,0,2.1,0,3.1,0c1,0,2.1,0,3.2,0c1,0,1.6-0.6,1.8-1.7l0-0.1
		L8.1,19.5L8.1,19.5z"/>
</g>
<g display="none">
	<path display="inline" fill="#020202" d="M18.6,0.5H7.5c-2.1,0-3.9,1.8-3.9,3.9H3.3c-2.1,0-3.9,1.8-3.9,3.9v8.1
		c0,2.2,1.7,3.9,3.9,3.9h15.3c2.1,0,3.9-1.8,3.9-3.9v-12C22.5,2.3,20.8,0.5,18.6,0.5z M3.7,18.6H3.3c-1.2,0-2.1-1-2.1-2.1V8.4
		c0-1.2,0.9-2.1,2.1-2.1h0.3V18.6z M20.7,16.5c0,1.2-0.9,2.1-2.1,2.1H5.4V4.4c0-1.2,0.9-2.1,2.1-2.1h11.1c1.2,0,2.1,1,2.1,2.1V16.5z
		 M8.3,8.2H11c0.5,0,0.9-0.4,0.9-0.9c0-0.5-0.4-0.9-0.9-0.9H8.3c-0.5,0-0.9,0.4-0.9,0.9C7.4,7.8,7.8,8.2,8.3,8.2z M17.9,6.5h-3.9
		c-0.5,0-0.9,0.4-0.9,0.9c0,0.5,0.4,0.9,0.9,0.9h3.9c0.5,0,0.9-0.4,0.9-0.9C18.7,6.8,18.4,6.5,17.9,6.5z M17.9,9.6H8.3
		c-0.5,0-0.9,0.4-0.9,0.9s0.4,0.9,0.9,0.9h9.6c0.5,0,0.9-0.4,0.9-0.9S18.4,9.6,17.9,9.6z M17.9,12.4H8.3c-0.5,0-0.9,0.4-0.9,0.9
		c0,0.5,0.4,0.9,0.9,0.9h9.6c0.5,0,0.9-0.4,0.9-0.9C18.7,12.8,18.4,12.4,17.9,12.4z"/>
</g>
<path fill="#020202" d="M21,9.5c-0.4,0-0.9,0.1-1.3,0.2l-2.4-2.5c0.4-0.7,0.6-1.5,0.6-2.3c0-2.7-2.2-5-4.9-5S7.9,2.2,7.9,5
	c0,0.7,0.2,1.4,0.5,2.1L5.6,9.9C5,9.6,4.4,9.5,3.8,9.5C1.7,9.5,0,11.2,0,13.4c0,2.1,1.7,3.9,3.8,3.9c2.1,0,3.8-1.7,3.8-3.9
	c0-0.8-0.3-1.6-0.7-2.3l2.5-2.5C10.1,9.2,11,9.7,12,9.9v4.6c-1.7,0.4-2.9,2-2.9,3.8c0,2.1,1.7,3.9,3.8,3.9s3.8-1.7,3.8-3.9
	c0-1.8-1.2-3.4-2.9-3.8V9.9c0.9-0.2,1.7-0.6,2.4-1.2l2,2c-0.7,0.7-1,1.6-1,2.6c0,2.1,1.7,3.9,3.8,3.9s3.8-1.7,3.8-3.9
	C24.8,11.2,23.1,9.5,21,9.5z M12.9,8.2c-1.7,0-3.1-1.4-3.1-3.2s1.4-3.2,3.1-3.2C14.6,1.8,16,3.2,16,5S14.6,8.2,12.9,8.2z M12.9,20.4
	c-1.1,0-2.1-0.9-2.1-2.1c0-1.1,0.9-2.1,2.1-2.1s2.1,0.9,2.1,2.1C14.9,19.4,14,20.4,12.9,20.4z M21,15.5c-1.1,0-2.1-0.9-2.1-2.1
	c0-1.1,0.9-2.1,2.1-2.1c1.1,0,2.1,0.9,2.1,2.1C23,14.5,22.1,15.5,21,15.5z M3.8,15.5c-1.1,0-2.1-0.9-2.1-2.1c0-1.1,0.9-2.1,2.1-2.1
	s2.1,0.9,2.1,2.1C5.9,14.5,5,15.5,3.8,15.5z"/>
</svg>
