<?xml version="1.0" encoding="utf-8"?>
<!-- Generator: Adobe Illustrator 18.0.0, SVG Export Plug-In . SVG Version: 6.00 Build 0)  -->
<!DOCTYPE svg PUBLIC "-//W3C//DTD SVG 1.1 Tiny//EN" "http://www.w3.org/Graphics/SVG/1.1/DTD/svg11-tiny.dtd">
<svg version="1.1" baseProfile="tiny" id="Layer_1" xmlns="http://www.w3.org/2000/svg" xmlns:xlink="http://www.w3.org/1999/xlink"
	 x="0px" y="0px" viewBox="0 0 25.5 24" xml:space="preserve">
<path display="none" d="M22,2.6c-3.6,0-10.1,0-11.2,0L9.2,1C8.9,0.7,8.5,0.5,8,0.5H4.6c-1.1,0-1.9,0.9-1.9,1.9v2.8H1.9
	C0.9,5.2,0,6.1,0,7.2v13.5c0,1.1,0.9,1.9,1.9,1.9h16.4c1.1,0,1.9-0.9,1.9-1.9v-0.8H22c1.1,0,1.9-0.9,1.9-1.9V4.6
	C23.9,3.5,23,2.6,22,2.6z M18.3,7.4H8.1L6.6,5.8C6.2,5.4,5.8,5.2,5.3,5.2H4.6V2.4c0,0,0,0,0,0h3.3l1.6,1.7c0.3,0.3,0.7,0.5,1.1,0.5
	H22c0,0,0,0,0,0V18c0,0,0,0,0,0h-1.7V9.3C20.3,8.3,19.4,7.4,18.3,7.4z M8,9.3h10.4c0,0,0,0,0,0v11.4c0,0,0,0,0,0H1.9c0,0,0,0,0,0
	V7.2c0,0,0,0,0,0h3.3l1.6,1.7C7.1,9.1,7.5,9.3,8,9.3z"/>
<g display="none">
	<path display="inline" d="M18.6,13.8c-1-1.1-2.3-2-3.8-2.6c0-0.1,0-0.1,0-0.1c0.1-0.1,0.1-0.1,0.2-0.2c2.1-2,2.6-4.4,1.6-7
		c-1.1-3-4.4-4.5-7.5-3.7C6.1,1.1,4.1,4.4,4.8,7.4c0.3,1.5,1,2.7,2.3,3.7c-0.1,0.1-0.2,0.1-0.3,0.2C3.8,12.6,2,14.8,1,17.5
		c-0.6,1.7-0.5,3.4-0.5,5.1c0,0.6,0.2,1,0.8,1.3h19.3c0.6-0.3,0.8-0.7,0.8-1.3c0-0.8,0-1.6,0-2.4C21.2,17.9,20.3,15.7,18.6,13.8z
		 M7.8,3.5c1.6-1.8,4.3-1.9,6-0.2c1.2,1.2,1.6,2.7,1.1,4.3c-0.5,1.5-1.5,2.5-3.2,2.8c-0.3,0.1-0.6,0.1-0.7,0.1
		c-1.3,0-2.3-0.5-3.1-1.2C6.4,7.6,6.3,5.1,7.8,3.5z M19.3,21.9H2.6c-0.1-1.1,0-2.2,0.3-3.3c0.6-2.1,1.9-3.8,3.9-5
		c2.8-1.6,6.4-1.5,9,0.5C18.5,16.1,19.4,18.8,19.3,21.9z M25.5,17.9c-0.1-2-0.8-3.9-2.3-5.4c-0.6-0.6-1.4-1.2-2.1-1.8
		c1.6-2.1,1.8-4.4,0.2-6.6c-1-1.3-2.4-2.1-4.3-2c0.2,0.4,0.5,0.6,0.6,0.9c0.3,0.8,0.9,1.3,1.6,1.9c1.9,1.4,1.5,4.1-0.7,5.2
		c-0.5,0.3-0.8,0.6-0.7,1.1c0.1,0.5,0.4,0.8,0.9,0.9c2.1,0.6,3.5,1.9,4.3,3.8c0.4,0.9,0.5,1.9,0.4,2.9c-0.3,0-0.6,0-0.9,0
		c0.1,0.7,0.1,1.3,0.2,2c0.6,0,1.1,0,1.6,0c0.8,0,1.2-0.4,1.3-1.1C25.5,19.1,25.5,18.5,25.5,17.9z"/>
</g>
<path d="M12.7,16.5c-0.5,0.6-1.1,1.1-1.6,1.6c-1.5,1.5-3.1,3.1-4.6,4.6c-1,1-2.4,1.1-3.5,0.4c-1.2-0.8-1.8-2.2-1.3-3.5
	c0.2-0.4,0.4-0.8,0.7-1.1c1.7-1.8,3.5-3.5,5.2-5.3c0.1-0.1,0.2-0.2,0.2-0.3c-0.6-0.1-1.2-0.2-1.7-0.4C4.8,12.1,3.7,11,2.9,9.8
	C1.7,8.3,1.1,6.5,1.3,4.6c0.1-1.1,0.5-2,1.2-2.8c0.4-0.4,0.8-0.4,1.2,0c0.8,0.8,1.9,1.2,3,1.3C7.3,3,8,3.1,8.6,3.2
	c1.4,0.2,2.3,1.1,2.9,2.2c0.5,0.9,0.7,1.8,0.7,2.8c0,0.1,0,0.2,0,0.4c0.1-0.1,0.2-0.2,0.3-0.3c1.4-1.4,2.9-2.9,4.3-4.3
	c0.2-0.2,0.4-0.3,0.7-0.4c1.5-0.6,3-1.1,4.5-1.7c0.3-0.1,0.7-0.1,0.9,0.1c0.3,0.3,0.3,0.6,0.1,1c-0.6,1.5-1.1,3-1.7,4.6
	C21.3,7.8,21.1,8,21,8.1c-1.5,1.6-3.1,3.1-4.6,4.7c-0.1,0.1-0.2,0.2-0.3,0.3c0.8,0.8,1.5,1.6,2.2,2.3c1.5,1.6,3.1,3.3,4.6,4.9
	c0.8,0.9,0.9,2.2,0.1,3c-0.8,0.8-2.1,0.8-3,0c-2.3-2.2-4.5-4.3-6.8-6.5C12.9,16.7,12.8,16.6,12.7,16.5z M3.2,3.4C3.1,3.6,3,3.8,3,4
	C2.7,5,2.8,6,3.1,6.9c0.6,1.8,1.7,3.3,3.5,4.1c1.7,0.8,3.6-0.3,4-2.1c0.2-1.1,0-2.2-0.7-3.2c-0.4-0.6-1-1-1.8-1
	c-0.7,0-1.3-0.1-2-0.2C5.1,4.4,4.1,4,3.2,3.4z M10.3,12c0.1,0.1,0.2,0.2,0.3,0.2c3.4,3.2,6.8,6.5,10.1,9.7c0.1,0.1,0.2,0.2,0.3,0.3
	c0.2,0.1,0.4,0.1,0.6-0.1c0.2-0.2,0.2-0.4,0.1-0.7c-0.1-0.1-0.1-0.1-0.2-0.2c-3.3-3.5-6.5-7-9.8-10.4c-0.1-0.1-0.1-0.1-0.2-0.2
	c0,0.1,0.1,0.1,0.1,0.2C11.2,11.2,10.8,11.6,10.3,12z M14.9,12c1.5-1.5,3-3,4.5-4.5c-0.6-0.6-1.3-1.3-1.8-1.9c-1.5,1.5-3,3-4.4,4.5
	C13.7,10.7,14.3,11.3,14.9,12z M11.6,15.3c-0.7-0.6-1.3-1.2-1.9-1.8c-1.3,1.3-2.6,2.6-3.8,3.9C6.4,18,7,18.7,7.6,19.3
	C8.9,18,10.2,16.7,11.6,15.3z M4.6,18.5c-0.4,0.4-0.8,0.8-1.2,1.2c-0.4,0.5-0.4,1.2,0.1,1.7C4,22,4.7,22.2,5.3,21.7
	c0.4-0.4,0.8-0.9,1.2-1.3C5.9,19.8,5.2,19.2,4.6,18.5z M20.3,6c0.2-0.7,0.5-1.3,0.7-2.1c-0.7,0.3-1.4,0.5-2,0.8
	C19.4,5.1,19.8,5.5,20.3,6z"/>
</svg>
