<?xml version="1.0" encoding="utf-8"?>
<!-- Generator: Adobe Illustrator 18.0.0, SVG Export Plug-In . SVG Version: 6.00 Build 0)  -->
<!DOCTYPE svg PUBLIC "-//W3C//DTD SVG 1.1 Tiny//EN" "http://www.w3.org/Graphics/SVG/1.1/DTD/svg11-tiny.dtd">
<svg version="1.1" baseProfile="tiny" id="Layer_1" xmlns="http://www.w3.org/2000/svg" xmlns:xlink="http://www.w3.org/1999/xlink"
	 x="0px" y="0px" viewBox="0 0 512 512" xml:space="preserve">
<rect fill="#0F3148" width="512" height="512"/>
<path fill="#FFFFFF" d="M260.5,183.5v122.1c0,54.5-29.4,79.6-82.3,79.6c-27.8,0-54.8-6.8-72-20.2l16.9-30.5
	c12.5,10.1,33,16.6,51.8,16.6c30,0,43.1-13.6,43.1-40.1v-6.3c-11.2,12.3-27.3,18.3-46.3,18.3c-40.6,0-73.3-28.1-73.3-70.9
	c0-42.8,32.7-70.9,73.3-70.9c20.4,0,37.4,6.8,48.5,21v-18.8H260.5z M218.5,252.2c0-21.5-16.1-36-38.4-36c-22.4,0-38.7,14.5-38.7,36
	c0,21.5,16.4,36,38.7,36C202.5,288.2,218.5,273.8,218.5,252.2"/>
<polygon fill="#99A7B0" points="413.7,328.1 284.9,328.1 284.9,302.9 358.4,215.9 286.8,215.9 286.8,183.7 411.3,183.7 411.3,209 
	337.8,295.9 413.7,295.9 "/>
<rect x="98.3" y="119.7" fill="#EF4A5F" width="54.2" height="32.2"/>
<rect x="206.4" y="119.7" fill="#BB202E" width="54.2" height="32.2"/>
<rect x="152.5" y="119.7" fill="#DB213C" width="54.2" height="32.2"/>
</svg>
