<?xml version="1.0" encoding="utf-8"?>
<!-- Generator: Adobe Illustrator 18.0.0, SVG Export Plug-In . SVG Version: 6.00 Build 0)  -->
<!DOCTYPE svg PUBLIC "-//W3C//DTD SVG 1.1//EN" "http://www.w3.org/Graphics/SVG/1.1/DTD/svg11.dtd">
<svg version="1.1" id="Layer_1" xmlns="http://www.w3.org/2000/svg" xmlns:xlink="http://www.w3.org/1999/xlink" x="0px" y="0px"
	 viewBox="0 0 24.5 17.6" enable-background="new 0 0 24.5 17.6" xml:space="preserve">
<path fill="#FFFFFF" d="M24.2,0.3c-0.4-0.4-1-0.4-1.3,0L7.6,15.4l-6-5.9c-0.4-0.4-1-0.4-1.3,0c-0.4,0.4-0.4,1,0,1.3L7,17.4
	c0.4,0.4,1,0.4,1.3,0l16-15.8C24.6,1.2,24.6,0.6,24.2,0.3z"/>
</svg>
