<?xml version="1.0" encoding="utf-8"?>
<!-- Generator: Adobe Illustrator 18.0.0, SVG Export Plug-In . SVG Version: 6.00 Build 0)  -->
<!DOCTYPE svg PUBLIC "-//W3C//DTD SVG 1.1 Tiny//EN" "http://www.w3.org/Graphics/SVG/1.1/DTD/svg11-tiny.dtd">
<svg version="1.1" baseProfile="tiny" id="Layer_1" xmlns="http://www.w3.org/2000/svg" xmlns:xlink="http://www.w3.org/1999/xlink"
	 x="0px" y="0px" viewBox="0 0 23.1 19.9" xml:space="preserve">
<path display="none" d="M21.5,0.6c-3.6,0-10.1,0-11.2,0L8.8-1C8.5-1.3,8-1.5,7.5-1.5H4.2c-1.1,0-1.9,0.9-1.9,1.9v2.8H1.5
	c-1.1,0-1.9,0.9-1.9,1.9v13.5c0,1.1,0.9,1.9,1.9,1.9h16.4c1.1,0,1.9-0.9,1.9-1.9v-0.8h1.7c1.1,0,1.9-0.9,1.9-1.9V2.6
	C23.5,1.5,22.6,0.6,21.5,0.6z M17.9,5.4H7.7L6.1,3.8C5.8,3.4,5.3,3.2,4.8,3.2H4.1V0.4c0,0,0,0,0,0h3.3l1.6,1.7
	c0.3,0.3,0.7,0.5,1.1,0.5h11.3c0,0,0,0,0,0V16c0,0,0,0,0,0h-1.7V7.3C19.8,6.2,19,5.4,17.9,5.4z M7.5,7.3h10.4c0,0,0,0,0,0v11.4
	c0,0,0,0,0,0H1.5c0,0,0,0,0,0V5.2c0,0,0,0,0,0h3.3l1.6,1.7C6.7,7.1,7.1,7.3,7.5,7.3z"/>
<g display="none">
	<path display="inline" d="M18.1,11.8c-1-1.1-2.3-2-3.8-2.6c0-0.1,0-0.1,0-0.1c0.1-0.1,0.1-0.1,0.2-0.2c2.1-2,2.6-4.4,1.6-7
		c-1.1-3-4.4-4.5-7.5-3.7C5.7-0.9,3.7,2.4,4.3,5.4c0.3,1.5,1,2.7,2.3,3.7C6.5,9.2,6.4,9.3,6.3,9.3c-2.9,1.3-4.7,3.5-5.7,6.2
		c-0.6,1.7-0.5,3.4-0.5,5.1c0,0.6,0.2,1,0.8,1.3h19.3c0.6-0.3,0.8-0.7,0.8-1.3c0-0.8,0-1.6,0-2.4C20.7,15.9,19.8,13.7,18.1,11.8z
		 M7.3,1.5c1.6-1.8,4.3-1.9,6-0.2c1.2,1.2,1.6,2.7,1.1,4.3C14,6.9,13,7.9,11.3,8.3c-0.3,0.1-0.6,0.1-0.7,0.1C9.2,8.4,8.3,8,7.5,7.2
		C5.9,5.6,5.9,3.1,7.3,1.5z M18.8,19.9H2.1c-0.1-1.1,0-2.2,0.3-3.3c0.6-2.1,1.9-3.8,3.9-5c2.8-1.6,6.4-1.5,9,0.5
		C18.1,14.1,19,16.8,18.8,19.9z M25,15.9c-0.1-2-0.8-3.9-2.3-5.4c-0.6-0.6-1.4-1.2-2.1-1.8c1.6-2.1,1.8-4.4,0.2-6.6
		c-1-1.3-2.4-2.1-4.3-2C16.7,0.5,17,0.7,17.1,1c0.3,0.8,0.9,1.3,1.6,1.9C20.5,4.3,20.2,7,18,8.1c-0.5,0.3-0.8,0.6-0.7,1.1
		c0.1,0.5,0.4,0.8,0.9,0.9c2.1,0.6,3.5,1.9,4.3,3.8c0.4,0.9,0.5,1.9,0.4,2.9c-0.3,0-0.6,0-0.9,0c0.1,0.7,0.1,1.3,0.2,2
		c0.6,0,1.1,0,1.6,0c0.8,0,1.2-0.4,1.3-1.1C25.1,17.1,25.1,16.5,25,15.9z"/>
</g>
<path display="none" d="M12.3,14.4c-0.5,0.6-1.1,1.1-1.6,1.6c-1.5,1.5-3.1,3.1-4.6,4.6c-1,1-2.4,1.1-3.5,0.4
	c-1.2-0.8-1.8-2.2-1.3-3.5c0.2-0.4,0.4-0.8,0.7-1.1c1.7-1.8,3.5-3.5,5.2-5.3C7.3,11,7.4,11,7.5,10.9c-0.6-0.1-1.2-0.2-1.7-0.4
	C4.3,10,3.3,9,2.4,7.8C1.3,6.3,0.7,4.5,0.8,2.5c0.1-1.1,0.5-2,1.2-2.8c0.4-0.4,0.8-0.4,1.2,0c0.8,0.8,1.9,1.2,3,1.3
	c0.6,0,1.3,0.1,1.9,0.2c1.4,0.2,2.3,1.1,2.9,2.2c0.5,0.9,0.7,1.8,0.7,2.8c0,0.1,0,0.2,0,0.4c0.1-0.1,0.2-0.2,0.3-0.3
	c1.4-1.4,2.9-2.9,4.3-4.3c0.2-0.2,0.4-0.3,0.7-0.4c1.5-0.6,3-1.1,4.5-1.7c0.3-0.1,0.7-0.1,0.9,0.1c0.3,0.3,0.3,0.6,0.1,1
	c-0.6,1.5-1.1,3-1.7,4.6c-0.1,0.2-0.2,0.4-0.4,0.6c-1.5,1.6-3.1,3.1-4.6,4.7c-0.1,0.1-0.2,0.2-0.3,0.3c0.8,0.8,1.5,1.6,2.2,2.3
	c1.5,1.6,3.1,3.3,4.6,4.9c0.8,0.9,0.9,2.2,0.1,3c-0.8,0.8-2.1,0.8-3,0c-2.3-2.2-4.5-4.3-6.8-6.5C12.5,14.6,12.4,14.6,12.3,14.4z
	 M2.8,1.3C2.7,1.6,2.6,1.8,2.5,2C2.2,3,2.3,4,2.6,4.9C3.3,6.7,4.4,8.2,6.1,9c1.7,0.8,3.6-0.3,4-2.1c0.2-1.1,0-2.2-0.7-3.2
	c-0.4-0.6-1-1-1.8-1c-0.7,0-1.3-0.1-2-0.2C4.6,2.4,3.7,2,2.8,1.3z M9.9,10c0.1,0.1,0.2,0.2,0.3,0.2c3.4,3.2,6.8,6.5,10.1,9.7
	c0.1,0.1,0.2,0.2,0.3,0.3c0.2,0.1,0.4,0.1,0.6,0c0.2-0.2,0.2-0.4,0.1-0.7c-0.1-0.1-0.1-0.1-0.2-0.2c-3.3-3.5-6.5-7-9.8-10.4
	c-0.1-0.1-0.1-0.1-0.2-0.2c0,0.1,0.1,0.1,0.1,0.2C10.8,9.2,10.4,9.6,9.9,10z M14.5,9.9c1.5-1.5,3-3,4.5-4.5
	c-0.6-0.6-1.3-1.3-1.8-1.9c-1.5,1.5-3,3-4.4,4.5C13.2,8.6,13.9,9.3,14.5,9.9z M11.1,13.3c-0.7-0.6-1.3-1.2-1.9-1.8
	c-1.3,1.3-2.6,2.6-3.8,3.9C6,16,6.6,16.6,7.2,17.3C8.5,16,9.8,14.7,11.1,13.3z M4.1,16.5c-0.4,0.4-0.8,0.8-1.2,1.2
	c-0.4,0.5-0.4,1.2,0.1,1.7c0.6,0.6,1.3,0.7,1.8,0.3c0.4-0.4,0.8-0.9,1.2-1.3C5.4,17.8,4.8,17.2,4.1,16.5z M19.8,3.9
	c0.2-0.7,0.5-1.3,0.7-2.1c-0.7,0.3-1.4,0.5-2,0.8C19,3.1,19.4,3.5,19.8,3.9z"/>
<g display="none">
	<path display="inline" fill="#020202" d="M19.7,17.4c-0.3-0.3-0.6-0.6-1-1c2.3-3.6,1.2-7.4-1.2-9.4c-1.2-0.9-2.6-1.5-4.1-1.5
		c-1.7,0-3.3,0.7-4.6,1.8c-2.4,2.3-2.8,6-0.9,8.8c1.3,1.8,3,2.8,5,2.8h0c1.3,0,2.8-0.4,4.4-1.2c0,0,0,0,0,0.1
		c0.1,0.1,0.2,0.3,0.3,0.4l0.1,0.1c1.2,1.2,2.4,2.5,3.6,3.7c0.3,0.3,0.6,0.4,0.9,0.4c0.4,0,0.7-0.3,0.8-0.7c0.1-0.4-0.1-0.9-0.4-1.2
		C21.8,19.5,20.7,18.4,19.7,17.4z M13.4,17.2c-1.3,0-2.4-0.5-3.3-1.4c-0.9-0.9-1.4-2.1-1.4-3.4c0-2.6,2.1-4.7,4.7-4.7V7.4l0,0.2
		c2.6,0,4.7,2.1,4.7,4.8C18,15,15.9,17.2,13.4,17.2z M2.1,8.4c0.6,0,1.1,0,1.7,0c0.7,0,1.4,0,2.2,0c0.2,0,0.5-0.1,0.7-0.3
		c0.2-0.3,0.4-0.6,0.7-0.9C7.4,7,7.5,6.9,7.6,6.7l0.2-0.3l-3,0c-0.6,0-1.2,0-1.8,0c-0.6,0-0.8-0.2-0.8-0.9c0-1.3,0-2.8,0-4.5
		c0-0.7,0.2-0.9,0.9-0.9c0.5,0,1.1,0,1.6,0l2.3,0c1.2,0,1.3,0.1,1.3,1.3V6l0.3-0.1C8.7,5.8,8.9,5.7,9,5.6c0.3-0.2,0.6-0.3,0.8-0.5
		C10,5,10.3,4.7,10.3,4.4c0-1.2,0-2.6,0-4.3c0-1.1-0.7-1.9-1.8-1.9c-1,0-2.1,0-3.2,0c-1.1,0-2.1,0-3.3,0C1-1.8,0.2-1,0.2,0
		c0,2.1,0,4.2,0,6.5C0.2,7.7,1,8.4,2.1,8.4z M23.2,0c0-1-0.7-1.8-1.7-1.8c-1,0-2.1,0-3.2,0c-1.1,0-2.2,0-3.3,0
		c-0.9,0-1.7,0.7-1.7,1.5c0,1,0,2.1,0,3.1c0,0.4,0,0.9,0,1.3v0.2l1.9,0.2l0-3.5c0-0.5,0.2-0.8,0.7-0.8c1.6,0,3.1,0,4.7,0
		c0.5,0,0.8,0.2,0.8,0.8c0,1.6,0,3.2,0,4.7c0,0.5-0.2,0.7-0.8,0.7c-0.2,0-0.3,0-0.5,0l-1.2,0L19,6.7c0.1,0.2,0.3,0.4,0.4,0.6
		c0.3,0.4,0.5,0.8,0.9,1c0.2,0.1,0.5,0.2,0.8,0.2c1,0,2-0.8,2.1-2C23.3,4.7,23.3,2.7,23.2,0z M8.7,19c-0.2,0.1-0.3,0.2-0.5,0.3
		c-0.3,0.2-0.5,0.3-0.7,0.3c-0.6,0-1.3,0-2.1,0h0c-0.5,0-1.1,0-1.6,0c-0.3,0-0.5,0-0.8,0c-0.6,0-0.8-0.2-0.8-0.8c0-1.4,0-2.9,0-4.5
		c0-0.7,0.2-0.9,0.8-0.9c0.5,0,1,0,1.5,0c0.2,0,0.5,0,0.7,0h0.2v-2H5.2c-0.3,0-0.7,0-1,0c-0.3,0-0.6,0-1,0c-0.5,0-0.9,0-1.2,0
		c-1.1,0-1.8,0.8-1.8,1.9c0,2.2,0,4.3,0,6.4c0,1.2,0.7,1.9,1.8,1.9c1,0,2.1,0,3.1,0c1,0,2.1,0,3.2,0c1,0,1.6-0.6,1.8-1.7l0-0.1
		L8.7,19L8.7,19z"/>
</g>
<g>
	<path fill="#020202" d="M19.2,0H8.1C6,0,4.2,1.8,4.2,3.9H3.9C1.7,3.9,0,5.7,0,7.9V16c0,2.2,1.7,3.9,3.9,3.9h15.3
		c2.1,0,3.9-1.8,3.9-3.9v-12C23.1,1.8,21.3,0,19.2,0z M4.2,18.1H3.9c-1.2,0-2.1-1-2.1-2.1V7.9c0-1.2,0.9-2.1,2.1-2.1h0.3V18.1z
		 M21.3,16c0,1.2-0.9,2.1-2.1,2.1H6V3.9C6,2.8,7,1.8,8.1,1.8h11.1c1.2,0,2.1,1,2.1,2.1V16z M8.8,7.7h2.8c0.5,0,0.9-0.4,0.9-0.9
		c0-0.5-0.4-0.9-0.9-0.9H8.8C8.4,6,8,6.4,8,6.8C8,7.3,8.4,7.7,8.8,7.7z M18.5,6h-3.9c-0.5,0-0.9,0.4-0.9,0.9c0,0.5,0.4,0.9,0.9,0.9
		h3.9c0.5,0,0.9-0.4,0.9-0.9C19.3,6.4,18.9,6,18.5,6z M18.5,9.1H8.8C8.4,9.1,8,9.5,8,10s0.4,0.9,0.9,0.9h9.6c0.5,0,0.9-0.4,0.9-0.9
		S18.9,9.1,18.5,9.1z M18.5,11.9H8.8c-0.5,0-0.9,0.4-0.9,0.9c0,0.5,0.4,0.9,0.9,0.9h9.6c0.5,0,0.9-0.4,0.9-0.9
		C19.3,12.3,18.9,11.9,18.5,11.9z"/>
</g>
</svg>
