<?xml version="1.0" encoding="utf-8"?>
<!-- Generator: Adobe Illustrator 18.0.0, SVG Export Plug-In . SVG Version: 6.00 Build 0)  -->
<!DOCTYPE svg PUBLIC "-//W3C//DTD SVG 1.1//EN" "http://www.w3.org/Graphics/SVG/1.1/DTD/svg11.dtd">
<svg version="1.1" id="Layer_1" xmlns="http://www.w3.org/2000/svg" xmlns:xlink="http://www.w3.org/1999/xlink" x="0px" y="0px"
	 viewBox="0 0 24.5 24.5" enable-background="new 0 0 24.5 24.5" xml:space="preserve">
<g>
	<g>
		<path fill="#FFFFFF" d="M12.8,11.3H8.6c-0.3,0-0.5,0.3-0.5,0.5V24c0,0.3,0.3,0.5,0.5,0.5h4.1c0.3,0,0.5-0.2,0.5-0.5V11.8
			C13.3,11.5,13,11.3,12.8,11.3z M12.2,23.5H9.2V12.4h3.1V23.5z M4.6,13.1H0.5c-0.3,0-0.5,0.3-0.5,0.5V24c0,0.3,0.3,0.5,0.5,0.5h4.1
			c0.3,0,0.5-0.2,0.5-0.5V13.6C5.2,13.3,4.9,13.1,4.6,13.1z M4.1,23.5H1v-9.3h3.1V23.5z M24.4,7.3l-5.1-7.1c-0.2-0.3-0.6-0.3-0.8,0
			l-5.2,7.1c-0.2,0.3-0.1,0.8,0.4,0.8h2.6V24c0,0.3,0.3,0.5,0.5,0.5h4.1c0.3,0,0.5-0.2,0.6-0.5V8.1H24C24.5,8.1,24.6,7.6,24.4,7.3z
			 M20.9,7.1c-0.3,0-0.5,0.3-0.5,0.5v15.9h-3.1V7.6c0-0.3-0.3-0.5-0.5-0.5h-2.1l4.2-5.7l4.2,5.7H20.9z"/>
	</g>
</g>
</svg>
