<?xml version="1.0" encoding="utf-8"?>
<!-- Generator: Adobe Illustrator 18.0.0, SVG Export Plug-In . SVG Version: 6.00 Build 0)  -->
<!DOCTYPE svg PUBLIC "-//W3C//DTD SVG 1.1//EN" "http://www.w3.org/Graphics/SVG/1.1/DTD/svg11.dtd">
<svg version="1.1" id="Layer_1" xmlns="http://www.w3.org/2000/svg" xmlns:xlink="http://www.w3.org/1999/xlink" x="0px" y="0px"
	 viewBox="0 0 22 29" enable-background="new 0 0 22 29" xml:space="preserve">
<path fill="none" d="M11.5,20.8V7.2"/>
<g>
	<g>
		<path d="M22,1.3c0-0.5-0.1-1-0.5-1.3h-21C0.1,0.3,0,0.8,0,1.3c0,8.8,0,17.6,0,26.4c0,0.5,0.1,1,0.5,1.3h21
			c0.4-0.3,0.5-0.8,0.5-1.3C22,18.9,22,10.1,22,1.3z M6.7,27.3H5.1v-1.7h1.6V27.3z M10.1,27.3H8.5v-1.7h1.6V27.3z M13.5,27.3h-1.6
			v-1.7h1.6V27.3z M16.9,27.3h-1.6v-1.7h1.6V27.3z M20.3,27.3h-1.6c0-0.7,0-1.5,0-2.2c0-1-0.2-1.2-1.2-1.2c-4.2,0-8.5,0-12.7,0
			c-1,0-1.2,0.2-1.2,1.3c0,0.6,0,1.3,0,1.9c0,0.1,0,0.1,0,0.2H1.7V1.7h18.5V27.3z M4.6,12c4.3,0,8.6,0,12.8,0c0.9,0,1.2-0.3,1.2-1.2
			c0-2.1,0-4.1,0-6.2c0-0.9-0.3-1.2-1.1-1.2c-2.2,0-4.3,0-6.5,0c-2.1,0-4.3,0-6.4,0c-0.9,0-1.2,0.2-1.2,1.2c0,2.1,0,4.1,0,6.2
			C3.4,11.7,3.6,12,4.6,12z M5.1,5.2h11.8c0,1.6,0,3.1,0,4.7c0,0.4-0.2,0.4-0.5,0.4c-1.4,0-2.9,0-4.3,0h-7V5.2z M11,13.7
			c-2.3,0-4.2,1.9-4.2,4.2c0,2.3,1.9,4.2,4.2,4.2c2.3,0,4.2-1.9,4.2-4.2C15.2,15.6,13.3,13.7,11,13.7z M13.5,18.4
			c-0.2,1.2-1.3,2.1-2.5,2.1c-1.2,0-2.3-0.9-2.5-2.1C8.3,17,9,15.9,10.2,15.6c0,0.7,0,1.4,0,2.1c0,0.7,0.3,1,0.8,1.1
			c0.6,0,0.9-0.4,0.9-1.1c0-0.7,0-1.4,0-2.1C13,15.9,13.7,17.1,13.5,18.4z M4.2,13.7c-0.5,0-0.8,0.4-0.8,0.8c0,0.5,0.4,0.9,0.8,0.8
			c0.5,0,0.8-0.4,0.8-0.8C5.1,14,4.7,13.7,4.2,13.7z M17.8,13.7c-0.5,0-0.9,0.3-0.9,0.8c0,0.5,0.3,0.8,0.8,0.8
			c0.5,0,0.9-0.3,0.9-0.8C18.6,14,18.3,13.7,17.8,13.7z M4.2,17.1c-0.5,0-0.8,0.3-0.8,0.8c0,0.5,0.3,0.9,0.8,0.9
			c0.5,0,0.8-0.3,0.8-0.8C5.1,17.4,4.7,17.1,4.2,17.1z M17.7,17.1c-0.5,0-0.8,0.4-0.8,0.8c0,0.5,0.4,0.9,0.8,0.8
			c0.5,0,0.8-0.4,0.8-0.8C18.6,17.4,18.2,17.1,17.7,17.1z M4.2,20.5c-0.5,0-0.8,0.4-0.8,0.9c0,0.5,0.4,0.8,0.9,0.8
			c0.5,0,0.8-0.4,0.8-0.9C5.1,20.8,4.7,20.5,4.2,20.5z M17.8,20.5c-0.5,0-0.8,0.4-0.8,0.9c0,0.5,0.4,0.8,0.9,0.8
			c0.5,0,0.8-0.4,0.8-0.9C18.6,20.8,18.2,20.5,17.8,20.5z"/>
	</g>
</g>
</svg>
