<svg aria-hidden="true" version="1.1" xmlns="http://www.w3.org/2000/svg" xmlns:xlink="http://www.w3.org/1999/xlink">
<defs>
<symbol id="icon-paint-palette" viewBox="0 0 32 32">
<path d="M21.745 14.75c0 0.345-0.28 0.625-0.625 0.625s-0.625-0.28-0.625-0.625c0-0.345 0.28-0.625 0.625-0.625s0.625 0.28 0.625 0.625z"></path>
<path d="M21.227 17.428c-0.341-0.051-0.659 0.185-0.71 0.527-0.171 1.153-1.146 2.11-2.608 2.559-1.563 0.48-3.732 0.319-5.056-1.122-0.233-0.254-0.629-0.271-0.883-0.038s-0.271 0.629-0.038 0.883c0.766 0.834 1.807 1.403 3.009 1.644 0.425 0.085 0.865 0.128 1.309 0.128 0.685 0 1.377-0.101 2.026-0.3 1.934-0.594 3.234-1.929 3.478-3.571 0.051-0.341-0.185-0.659-0.527-0.71z"></path>
<path d="M29.914 11.901c-1.136-1.317-2.704-2.171-4.591-2.514 1.807-1.219 3.365-2.433 4.477-3.492 1.694-1.614 2.262-2.749 1.788-3.57-0.528-0.915-2.052-0.908-4.796 0.020-2.319 0.784-5.207 2.147-8.133 3.836-0.505 0.292-1.006 0.591-1.496 0.892-0.363-1.026-0.124-2.198 0.678-3.214 0.6-0.761 0.735-1.728 0.35-2.523-0.403-0.834-1.288-1.333-2.368-1.335h-0.029c-3.813 0-7.542 1.504-10.501 4.236-2.963 2.735-4.776 6.356-5.107 10.195-0.398 4.624 1.080 9.020 4.162 12.378 3.027 3.299 7.319 5.191 11.774 5.191 2.399 0 4.651-0.439 6.693-1.305 1.867-0.792 3.526-1.922 4.929-3.36 1.301-1.333 2.327-2.868 3.049-4.561 0.687-1.611 1.063-3.319 1.086-4.939 0.034-2.355-0.645-4.407-1.963-5.936zM17.236 8.499c0.662-0.417 1.35-0.833 2.048-1.236 2.705-1.562 5.399-2.849 7.586-3.623 2.407-0.852 3.392-0.797 3.622-0.687-0.020 0.145-0.201 0.792-1.78 2.247-1.319 1.215-3.245 2.643-5.423 4.022-0.689 0.436-1.405 0.869-2.13 1.288-0.999 0.577-1.997 1.116-2.977 1.61-0.195-0.571-0.446-1.124-0.751-1.652-0.296-0.512-0.638-0.993-1.022-1.437 0.271-0.178 0.547-0.355 0.827-0.532zM17.049 12.675c-1.765 0.837-3.384 1.475-4.677 1.845-0.067-0.323-0.186-0.636-0.354-0.927-0.159-0.276-0.359-0.523-0.59-0.735 0.968-0.934 2.331-2.017 3.935-3.124 0.373 0.416 0.703 0.872 0.984 1.359 0.291 0.504 0.526 1.035 0.701 1.582zM30.628 17.818c-0.089 6.219-5.661 12.932-14.507 12.932-4.106 0-8.062-1.744-10.853-4.786-2.842-3.097-4.205-7.155-3.837-11.425 0.631-7.327 7.074-13.289 14.363-13.289h0.028c0.598 0.001 1.051 0.23 1.244 0.629 0.177 0.366 0.1 0.817-0.206 1.205-1.126 1.428-1.409 3.185-0.773 4.665-0.335 0.216-0.664 0.433-0.983 0.648-0.002 0.001-0.003 0.002-0.004 0.003-1.987 1.341-3.666 2.675-4.782 3.798-0.847-0.289-1.777-0.205-2.568 0.251-1.298 0.75-3.003 4.245-3.332 4.938-0.088 0.186-0.079 0.402 0.023 0.58s0.286 0.294 0.491 0.311c0.345 0.028 1.326 0.099 2.418 0.099 1.325 0 2.813-0.104 3.525-0.515 0.771-0.445 1.306-1.189 1.491-2.044 1.533-0.402 3.535-1.189 5.704-2.246 1.215-0.591 2.465-1.257 3.715-1.978 0.634-0.366 1.261-0.744 1.87-1.124 0.004 0 0.007 0.001 0.011 0.001 5.209 0.149 7.012 3.894 6.963 7.348zM11.184 15.273c-0.040 0.629-0.389 1.192-0.934 1.506-0.591 0.341-2.622 0.387-4.289 0.311 0.767-1.482 1.822-3.217 2.414-3.559 0.559-0.322 1.234-0.337 1.807-0.038 0.315 0.164 0.576 0.414 0.754 0.724 0.186 0.322 0.271 0.687 0.248 1.055z"></path>
<path d="M11.12 3.865c-1.379 0-2.5 1.122-2.5 2.5s1.121 2.5 2.5 2.5c1.379 0 2.5-1.122 2.5-2.5s-1.121-2.5-2.5-2.5zM11.12 7.615c-0.689 0-1.25-0.561-1.25-1.25s0.561-1.25 1.25-1.25 1.25 0.561 1.25 1.25c0 0.689-0.561 1.25-1.25 1.25z"></path>
<path d="M7.995 20.659c-1.378 0-2.5 1.122-2.5 2.5s1.122 2.5 2.5 2.5c1.379 0 2.5-1.122 2.5-2.5s-1.121-2.5-2.5-2.5zM7.995 24.409c-0.689 0-1.25-0.561-1.25-1.25s0.561-1.25 1.25-1.25 1.25 0.561 1.25 1.25-0.561 1.25-1.25 1.25z"></path>
<path d="M14.245 24.409c-1.379 0-2.5 1.122-2.5 2.5s1.121 2.5 2.5 2.5c1.379 0 2.5-1.122 2.5-2.5s-1.121-2.5-2.5-2.5zM14.245 28.159c-0.689 0-1.25-0.561-1.25-1.25s0.561-1.25 1.25-1.25 1.25 0.561 1.25 1.25-0.561 1.25-1.25 1.25z"></path>
<path d="M21.745 23.159c-1.378 0-2.5 1.122-2.5 2.5s1.122 2.5 2.5 2.5c1.378 0 2.5-1.122 2.5-2.5s-1.122-2.5-2.5-2.5zM21.745 26.909c-0.689 0-1.25-0.561-1.25-1.25s0.561-1.25 1.25-1.25 1.25 0.561 1.25 1.25-0.561 1.25-1.25 1.25z"></path>
<path d="M26.745 16.909c-1.378 0-2.5 1.122-2.5 2.5s1.122 2.5 2.5 2.5c1.378 0 2.5-1.122 2.5-2.5s-1.122-2.5-2.5-2.5zM26.745 20.659c-0.689 0-1.25-0.561-1.25-1.25s0.561-1.25 1.25-1.25 1.25 0.561 1.25 1.25-0.561 1.25-1.25 1.25z"></path>
</symbol>
<symbol id="icon-briefing" viewBox="0 0 32 32">
<path d="M11.333 22.667h1.333v2.667h-1.333v-2.667z"></path>
<path d="M18 22.667h1.333v2.667h-1.333v-2.667z"></path>
<path d="M4.667 22.667h1.333v2.667h-1.333v-2.667z"></path>
<path d="M24.667 20.667v-1.333h-23.333c-0.736-0-1.333 0.597-1.333 1.333v4c0 0.736 0.597 1.333 1.333 1.333h23.333v-1.333h-23.333v-4h23.333z"></path>
<path d="M14.667 22h1.333v3.333h-1.333v-3.333z"></path>
<path d="M21.333 22h1.333v3.333h-1.333v-3.333z"></path>
<path d="M8 22h1.333v3.333h-1.333v-3.333z"></path>
<path d="M15.333 10h-8c-0.368 0-0.667 0.299-0.667 0.667v6.667c0 0.368 0.298 0.667 0.667 0.667h8c0.368 0 0.667-0.299 0.667-0.667v-6.667c0-0.368-0.299-0.667-0.667-0.667zM14.667 16.667h-6.667v-5.333h6.667v5.333z"></path>
<path d="M24.667 11.333v-1.333h-6.667c-0.368 0-0.667 0.299-0.667 0.667v6.667c0 0.368 0.299 0.667 0.667 0.667h6.667v-1.333h-6v-5.333h6z"></path>
<path d="M6.667 4h6.667v1.333h-6.667v-1.333z"></path>
<path d="M6.667 6.667h1.333v1.333h-1.333v-1.333z"></path>
<path d="M9.333 6.667h1.333v1.333h-1.333v-1.333z"></path>
<path d="M22.471 0.195c-0.125-0.125-0.295-0.195-0.471-0.195h-17.333c-1.105 0-2 0.895-2 2v16h1.333v-16c0-0.368 0.298-0.667 0.667-0.667h17.057l1.805 1.806 0.942-0.944-2-2z"></path>
<path d="M4.667 30.667c-0.368 0-0.667-0.299-0.667-0.667v-2.667h-1.333v2.667c0 1.105 0.895 2 2 2h19.333v-1.333h-19.333z"></path>
<path d="M23.333 5.333c-0.368 0-0.667-0.298-0.667-0.667v-4h-1.333v4c0 1.105 0.895 2 2 2h0.667v-1.333h-0.667z"></path>
<path d="M26.667 26h2.667v1.333h-2.667v-1.333z"></path>
<path d="M29.888 3.63l-1.333-2c-0.040-0.053-0.087-0.1-0.14-0.14-0.306-0.229-0.74-0.167-0.97 0.14l-1.333 2c-0.073 0.11-0.112 0.238-0.112 0.37v27.333c0 0.368 0.299 0.667 0.667 0.667h2.667c0.368 0 0.667-0.299 0.667-0.667v-27.333c-0-0.132-0.039-0.26-0.112-0.37zM28.667 30.667h-1.333v-26.467l0.667-1 0.667 1v26.467z"></path>
<path d="M30.667 16.667v11.333h-1.333v1.333h2c0.368 0 0.667-0.299 0.667-0.667v-12h-1.333z"></path>
</symbol>
<symbol id="icon-menu-grid" viewBox="0 0 32 32">
<path d="M0 24.276h7.724v7.724h-7.724v-7.724z"></path>
<path d="M0 12.138h7.724v7.724h-7.724v-7.724z"></path>
<path d="M0 0h7.724v7.724h-7.724v-7.724z"></path>
<path d="M12.138 24.276h7.724v7.724h-7.724v-7.724z"></path>
<path d="M12.138 12.138h7.724v7.724h-7.724v-7.724z"></path>
<path d="M12.138 0h7.724v7.724h-7.724v-7.724z"></path>
<path d="M24.276 24.276h7.724v7.724h-7.724v-7.724z"></path>
<path d="M24.276 12.138h7.724v7.724h-7.724v-7.724z"></path>
<path d="M24.276 0h7.724v7.724h-7.724v-7.724z"></path>
</symbol>
<symbol id="icon-menu-list" viewBox="0 0 32 32">
<path d="M32 4c0-0.8-0.533-1.333-1.333-1.333h-29.333c-0.8 0-1.333 0.533-1.333 1.333v2.667c0 0.8 0.533 1.333 1.333 1.333h29.333c0.8 0 1.333-0.533 1.333-1.333v-2.667z"></path>
<path d="M32 14.667c0-0.8-0.533-1.333-1.333-1.333h-29.333c-0.8 0-1.333 0.533-1.333 1.333v2.667c0 0.8 0.533 1.333 1.333 1.333h29.333c0.8 0 1.333-0.533 1.333-1.333v-2.667z"></path>
<path d="M32 25.333c0-0.8-0.533-1.333-1.333-1.333h-29.333c-0.8 0-1.333 0.533-1.333 1.333v2.667c0 0.8 0.533 1.333 1.333 1.333h29.333c0.8 0 1.333-0.533 1.333-1.333v-2.667z"></path>
</symbol>
<symbol id="icon-content" viewBox="0 0 32 32">
<path d="M31 0h-30c-0.552 0-1 0.448-1 1v24c0 0.552 0.448 1 1 1h10v4h-3v2h16v-2h-3v-4h10c0.552 0 1-0.448 1-1v-24c0-0.552-0.448-1-1-1zM19 30h-6v-4h6v4zM30 24h-28v-4h28v4zM19 12h5v6h-16v-12h10v5c0 0.552 0.448 1 1 1zM20 10v-2.586l2.586 2.586h-2.586zM30 18h-4v-7c0-0.265-0.105-0.52-0.293-0.707l-6-6c-0.187-0.188-0.442-0.293-0.707-0.293h-12c-0.552 0-1 0.448-1 1v13h-4v-16h28v16z"></path>
<path d="M10 8h2v2h-2v-2z"></path>
<path d="M10 11h6v2h-6v-2z"></path>
<path d="M10 14h6v2h-6v-2z"></path>
</symbol>
<symbol id="icon-users" viewBox="0 0 32 32">
<path d="M29.341 24.207l-5.095-2.547c-0.481-0.241-0.779-0.724-0.779-1.261v-1.803c0.122-0.149 0.251-0.319 0.383-0.507 0.661-0.933 1.19-1.972 1.575-3.093 0.753-0.345 1.241-1.089 1.241-1.929v-2.133c0-0.514-0.192-1.011-0.533-1.4v-2.837c0.030-0.293 0.147-2.039-1.116-3.48-1.095-1.25-2.873-1.883-5.284-1.883s-4.189 0.634-5.284 1.883c-0.765 0.873-1.023 1.857-1.101 2.563-0.914-0.473-1.991-0.712-3.215-0.712-5.541 0-5.863 4.723-5.867 4.8v2.442c-0.346 0.377-0.533 0.811-0.533 1.243v1.842c0 0.575 0.258 1.112 0.699 1.475 0.44 1.659 1.522 2.912 1.943 3.352v1.463c0 0.42-0.228 0.805-0.625 1.021l-3.548 2.226c-1.359 0.741-2.203 2.164-2.203 3.711v2.025h32v-2.156c0-1.834-1.019-3.483-2.659-4.303zM7.467 28.406v1.194h-6.4v-0.958c0-1.157 0.631-2.221 1.675-2.791l3.548-2.226c0.711-0.388 1.153-1.131 1.153-1.942v-1.915l-0.17-0.158c-0.014-0.013-1.431-1.351-1.85-3.176l-0.049-0.211-0.182-0.117c-0.245-0.159-0.392-0.425-0.392-0.711v-1.842c0-0.192 0.131-0.42 0.358-0.626l0.175-0.158-0.001-2.869c0.010-0.153 0.287-3.764 4.801-3.764 1.276 0 2.351 0.295 3.2 0.877v2.523c-0.341 0.389-0.533 0.886-0.533 1.4v2.133c0 0.162 0.019 0.322 0.054 0.476 0.014 0.062 0.043 0.118 0.063 0.178 0.029 0.090 0.053 0.182 0.094 0.267 0.001 0.001 0.001 0.002 0.002 0.003 0.137 0.282 0.335 0.533 0.586 0.734 0.003 0.010 0.006 0.019 0.009 0.029 0.032 0.122 0.066 0.244 0.102 0.363l0.043 0.139c0.007 0.025 0.017 0.050 0.025 0.074 0.019 0.058 0.037 0.115 0.056 0.171 0.032 0.093 0.066 0.19 0.105 0.295 0.017 0.044 0.035 0.083 0.052 0.126 0.044 0.111 0.087 0.219 0.133 0.326 0.011 0.026 0.021 0.053 0.032 0.078l0.030 0.067c0.014 0.031 0.028 0.059 0.042 0.089 0.052 0.114 0.103 0.225 0.157 0.331 0.009 0.017 0.017 0.036 0.025 0.053 0.034 0.067 0.067 0.13 0.101 0.194 0.058 0.11 0.114 0.213 0.171 0.314 0.028 0.049 0.055 0.097 0.082 0.143 0.077 0.131 0.15 0.252 0.221 0.364 0.015 0.024 0.030 0.049 0.045 0.072 0.129 0.2 0.241 0.362 0.334 0.489 0.025 0.034 0.046 0.062 0.067 0.091 0.012 0.015 0.028 0.038 0.038 0.052v1.765c0 0.516-0.282 0.99-0.734 1.237l-1.411 0.77-0.246-0.022-0.1 0.211-3.001 1.637c-1.547 0.845-2.507 2.463-2.507 4.225zM30.933 29.6h-22.4v-1.194c0-1.371 0.748-2.631 1.951-3.287l4.758-2.595c0.796-0.435 1.291-1.268 1.291-2.174v-2.143l-0.103-0.124-0.020-0.024c-0.001-0.002-0.034-0.042-0.088-0.112-0.003-0.004-0.006-0.009-0.010-0.013-0.028-0.037-0.061-0.081-0.099-0.134-0.001-0.001-0.001-0.002-0.002-0.003-0.079-0.11-0.179-0.254-0.29-0.427-0.003-0.004-0.005-0.008-0.007-0.012-0.052-0.082-0.108-0.171-0.164-0.265-0.004-0.007-0.009-0.014-0.013-0.021-0.121-0.202-0.249-0.431-0.376-0.684 0 0-0.001-0.001-0.001-0.001-0.068-0.136-0.135-0.279-0.202-0.428v0c-0.009-0.021-0.019-0.041-0.028-0.062v0c-0.029-0.067-0.059-0.137-0.089-0.209-0.011-0.026-0.021-0.053-0.032-0.080-0.028-0.070-0.056-0.14-0.086-0.221-0.054-0.145-0.106-0.297-0.155-0.453l-0.029-0.095c-0.003-0.011-0.007-0.021-0.010-0.033-0.050-0.169-0.098-0.341-0.139-0.518l-0.049-0.211-0.182-0.117c-0.309-0.199-0.494-0.534-0.494-0.894v-2.133c0-0.299 0.127-0.578 0.357-0.787l0.176-0.158v-3.51l-0.014-0.011c-0.018-0.385 0.005-1.565 0.866-2.547 0.884-1.009 2.392-1.519 4.482-1.519 2.083 0 3.588 0.507 4.473 1.508 1.038 1.174 0.867 2.676 0.866 2.689l-0.005 3.391 0.176 0.159c0.23 0.208 0.357 0.487 0.357 0.786v2.133c0 0.466-0.305 0.873-0.758 1.013l-0.266 0.082-0.085 0.264c-0.357 1.11-0.865 2.135-1.511 3.047-0.158 0.225-0.313 0.423-0.446 0.575l-0.133 0.151v2.2c0 0.944 0.524 1.793 1.369 2.215l5.095 2.547c1.277 0.638 2.070 1.922 2.070 3.349v1.090z"></path>
</symbol>
<symbol id="icon-qa" viewBox="0 0 32 32">
<path d="M31.499 0.267h-30.998c-0.277 0-0.501 0.224-0.501 0.501v30.463c0 0.277 0.224 0.501 0.501 0.501h30.998c0.277 0 0.501-0.224 0.501-0.501v-30.463c0-0.277-0.224-0.501-0.501-0.501zM30.998 30.731h-29.996v-23.048h29.996v23.048zM30.998 6.681h-29.996v-5.411h29.996v5.411z"></path>
<path d="M26.689 2.405h-5.879c-0.277 0-0.501 0.224-0.501 0.501s0.224 0.501 0.501 0.501h5.879c0.277 0 0.501-0.224 0.501-0.501s-0.224-0.501-0.501-0.501z"></path>
<path d="M29.361 2.405h-1.069c-0.277 0-0.501 0.224-0.501 0.501s0.224 0.501 0.501 0.501h1.069c0.277 0 0.501-0.224 0.501-0.501s-0.224-0.501-0.501-0.501z"></path>
<path d="M16.534 1.871c-0.24 0-0.476 0.040-0.701 0.12-0.001 0-0.001 0-0.002 0.001-0.838 0.297-1.401 1.094-1.401 1.984s0.563 1.686 1.401 1.984c0.001 0 0.001 0 0.002 0.001 0.226 0.080 0.462 0.12 0.701 0.12 1.16 0 2.104-0.944 2.104-2.104s-0.944-2.105-2.104-2.105zM16.534 5.077c-0.126 0-0.249-0.021-0.367-0.063-0 0-0-0-0-0-0.439-0.155-0.735-0.573-0.735-1.039s0.295-0.884 0.735-1.039c0 0 0 0 0-0 0.118-0.042 0.242-0.063 0.367-0.063 0.608 0 1.102 0.494 1.102 1.102s-0.495 1.102-1.102 1.102z"></path>
<path d="M10.656 1.871c-1.16 0-2.104 0.944-2.104 2.104s0.944 2.104 2.104 2.104 2.104-0.944 2.104-2.104-0.944-2.104-2.104-2.104zM10.656 5.077c-0.608 0-1.102-0.495-1.102-1.102s0.495-1.102 1.102-1.102 1.102 0.494 1.102 1.102-0.495 1.102-1.102 1.102z"></path>
<path d="M4.777 1.871c-1.16 0-2.104 0.944-2.104 2.104s0.944 2.104 2.104 2.104 2.104-0.944 2.104-2.104-0.944-2.104-2.104-2.104zM4.777 5.077c-0.608 0-1.102-0.495-1.102-1.102s0.495-1.102 1.102-1.102 1.102 0.494 1.102 1.102-0.495 1.102-1.102 1.102z"></path>
<path d="M30.028 13.409l-5.291-5.291c-0.196-0.196-0.513-0.196-0.709 0l-3.373 3.373h-16.147c-0.277 0-0.501 0.224-0.501 0.501s0.224 0.501 0.501 0.501h15.145l-7.549 7.549h-7.596c-0.277 0-0.501 0.224-0.501 0.501s0.224 0.501 0.501 0.501h6.594l-1.080 1.080c-0.001 0.001-0.001 0.001-0.002 0.002l-0.001 0.001c-0.002 0.002-0.003 0.003-0.004 0.005-0.010 0.010-0.020 0.021-0.029 0.032-0.003 0.004-0.006 0.008-0.010 0.013-0.007 0.009-0.014 0.017-0.020 0.027-0.004 0.006-0.008 0.012-0.011 0.019-0.005 0.008-0.009 0.015-0.014 0.023s-0.008 0.016-0.012 0.024c-0.003 0.007-0.006 0.013-0.009 0.020-0.004 0.010-0.008 0.021-0.011 0.031-0.002 0.005-0.004 0.010-0.005 0.015-0.004 0.013-0.007 0.027-0.010 0.040-0.001 0.003-0.001 0.005-0.002 0.008l-0 0.002c-0 0.001-0 0.001-0 0.002l-1.241 6.207h-4.132c-0.277 0-0.501 0.224-0.501 0.501s0.224 0.501 0.501 0.501h4.54c0.001 0 0.001 0 0.002 0s0 0 0.001 0 0 0 0.001 0 0.002-0 0.002-0h0.392c0.134 0 0.255-0.053 0.345-0.138l2.19-0.438c0-0 0.001-0 0.001-0l0.002-0 3.776-0.755c0-0 0.001-0 0.001-0l0.002-0c0.003-0.001 0.006-0.002 0.009-0.002 0.013-0.003 0.026-0.006 0.039-0.010 0.005-0.002 0.011-0.004 0.016-0.006 0.010-0.003 0.020-0.007 0.030-0.011 0.007-0.003 0.014-0.006 0.021-0.010 0.008-0.004 0.016-0.007 0.024-0.011s0.016-0.009 0.024-0.014c0.006-0.004 0.012-0.007 0.018-0.011 0.009-0.006 0.018-0.013 0.027-0.020 0.004-0.003 0.008-0.006 0.013-0.009 0.011-0.009 0.021-0.019 0.031-0.028 0.002-0.002 0.004-0.003 0.005-0.005l0.001-0.001c0.001-0.001 0.001-0.001 0.002-0.002l14.006-14.006c0.196-0.196 0.196-0.513 0-0.709zM12.667 20.897c0-0 0-0 0-0l7.937-7.937 0.992 0.992-9.521 9.521-0.992-0.992 1.583-1.583zM22.305 14.66l1.181 1.181-9.521 9.521-1.181-1.181 9.521-9.521zM9.691 28.455l0.236-1.179 0.943 0.943-1.179 0.236zM12.051 27.983l-1.888-1.888 0.52-2.598 3.967 3.967-2.598 0.52zM22.54 20.189l-6.874 6.874-0.992-0.992 9.521-9.521 0.992 0.992-2.647 2.647zM25.895 16.833l-4.582-4.582 3.071-3.071 4.582 4.582-3.071 3.071z"></path>
<path d="M24.638 10.569c-0.196-0.196-0.513-0.196-0.709 0l-1.203 1.203c-0.196 0.196-0.196 0.513 0 0.709 0.098 0.098 0.226 0.147 0.354 0.147s0.256-0.049 0.354-0.147l1.203-1.203c0.196-0.196 0.196-0.513 0-0.709z"></path>
</symbol>
<symbol id="icon-loading" viewBox="0 0 32 32">
<path d="M20.492 3.743c0 2.067-1.676 3.743-3.743 3.743s-3.743-1.676-3.743-3.743c0-2.067 1.676-3.743 3.743-3.743s3.743 1.676 3.743 3.743z"></path>
<path d="M18.995 29.755c0 1.24-1.005 2.245-2.245 2.245s-2.245-1.005-2.245-2.245c0-1.24 1.005-2.245 2.245-2.245s2.245 1.005 2.245 2.245z"></path>
<path d="M10.921 7.551c0 1.861-1.508 3.369-3.369 3.369s-3.369-1.508-3.369-3.369c0-1.861 1.508-3.369 3.369-3.369s3.369 1.508 3.369 3.369z"></path>
<path d="M27.818 25.944c0 1.034-0.838 1.871-1.871 1.871s-1.871-0.838-1.871-1.871c0-1.034 0.838-1.871 1.871-1.871s1.871 0.838 1.871 1.871z"></path>
<path d="M6.736 16.749c0 1.653-1.34 2.994-2.994 2.994s-2.994-1.34-2.994-2.994c0-1.653 1.34-2.994 2.994-2.994s2.994 1.34 2.994 2.994z"></path>
<path d="M31.251 16.748c0 0.826-0.67 1.496-1.496 1.496s-1.496-0.67-1.496-1.496c0-0.826 0.67-1.496 1.496-1.496s1.496 0.67 1.496 1.496z"></path>
<path d="M5.7 24.094c-1.024 1.024-1.024 2.68 0 3.704 1.023 1.024 2.681 1.024 3.704 0 1.024-1.024 1.024-2.68 0-3.704-1.023-1.025-2.68-1.035-3.704 0z"></path>
<path d="M27.067 7.551c0 0.62-0.502 1.122-1.122 1.122s-1.122-0.502-1.122-1.122c0-0.62 0.502-1.122 1.122-1.122s1.122 0.502 1.122 1.122z"></path>
</symbol>
<symbol id="icon-notification-bell" viewBox="0 0 32 32">
<path d="M29.81 26.157c-3.401-1.536-3.53-8.128-3.532-8.294v-4.422c0-4.256-2.601-7.916-6.297-9.475-0.008-2.188-1.79-3.966-3.98-3.966s-3.972 1.778-3.98 3.966c-3.696 1.558-6.297 5.218-6.297 9.475v4.422c-0.002 0.166-0.132 6.758-3.533 8.294-0.387 0.175-0.6 0.597-0.511 1.012s0.457 0.712 0.882 0.712h8.621c0.177 0.972 0.636 1.877 1.34 2.609 0.934 0.973 2.169 1.509 3.477 1.509s2.543-0.536 3.477-1.509c0.703-0.733 1.163-1.637 1.34-2.609h8.621c0.425 0 0.793-0.297 0.882-0.712s-0.123-0.837-0.511-1.012zM25.33 22.999c0.358 1.084 0.864 2.172 1.581 3.078h-21.823c0.718-0.906 1.224-1.994 1.581-3.078h18.66zM16 1.805c0.991 0 1.828 0.666 2.090 1.573-0.675-0.14-1.374-0.214-2.090-0.214s-1.415 0.074-2.090 0.214c0.262-0.907 1.1-1.573 2.090-1.573zM7.528 17.869v-4.428c0-4.672 3.801-8.472 8.472-8.472s8.472 3.801 8.472 8.472v4.435c0.001 0.136 0.022 1.562 0.382 3.318h-17.708c0.36-1.758 0.381-3.187 0.382-3.326zM16 30.195c-1.377 0-2.579-0.993-2.965-2.314h5.93c-0.386 1.32-1.588 2.314-2.965 2.314z"></path>
<path d="M16 6.235c-3.882 0-7.041 3.158-7.041 7.041 0 0.498 0.404 0.902 0.902 0.902s0.902-0.404 0.902-0.902c0-2.887 2.349-5.236 5.236-5.236 0.498 0 0.902-0.404 0.902-0.902s-0.404-0.902-0.902-0.902z"></path>
</symbol>
<symbol id="icon-settings" viewBox="0 0 32 32">
<path d="M30.362 12.641l-2.246-0.381c-0.234-0.755-0.535-1.484-0.902-2.179l1.324-1.852c0.562-0.789 0.475-1.865-0.214-2.547l-1.992-1.992c-0.374-0.374-0.869-0.582-1.397-0.582-0.414 0-0.809 0.127-1.143 0.368l-1.858 1.324c-0.722-0.381-1.477-0.695-2.259-0.929l-0.374-2.219c-0.16-0.956-0.983-1.651-1.952-1.651h-2.814c-0.969 0-1.791 0.695-1.952 1.651l-0.388 2.273c-0.749 0.234-1.477 0.541-2.173 0.916l-1.838-1.324c-0.334-0.241-0.735-0.368-1.15-0.368-0.528 0-1.029 0.207-1.397 0.582l-1.999 1.992c-0.682 0.682-0.775 1.758-0.214 2.547l1.337 1.878c-0.368 0.702-0.662 1.431-0.889 2.186l-2.219 0.374c-0.956 0.16-1.651 0.983-1.651 1.952v2.814c0 0.969 0.695 1.791 1.651 1.952l2.273 0.388c0.234 0.749 0.541 1.477 0.916 2.173l-1.317 1.832c-0.562 0.789-0.475 1.865 0.214 2.547l1.992 1.992c0.374 0.374 0.869 0.582 1.397 0.582 0.414 0 0.809-0.127 1.143-0.368l1.878-1.337c0.675 0.354 1.384 0.642 2.112 0.869l0.374 2.246c0.16 0.956 0.983 1.651 1.952 1.651h2.821c0.969 0 1.791-0.695 1.952-1.651l0.381-2.246c0.755-0.234 1.484-0.535 2.179-0.902l1.852 1.324c0.334 0.241 0.735 0.368 1.15 0.368v0c0.528 0 1.023-0.207 1.397-0.582l1.992-1.992c0.682-0.682 0.775-1.758 0.214-2.547l-1.324-1.858c0.368-0.702 0.675-1.431 0.902-2.179l2.246-0.374c0.956-0.16 1.651-0.983 1.651-1.952v-2.814c0.013-0.969-0.682-1.791-1.638-1.952zM30.208 17.407c0 0.087-0.060 0.16-0.147 0.174l-2.808 0.468c-0.354 0.060-0.635 0.321-0.722 0.662-0.254 0.983-0.642 1.925-1.163 2.801-0.18 0.308-0.167 0.689 0.040 0.983l1.651 2.326c0.047 0.067 0.040 0.167-0.020 0.227l-1.992 1.992c-0.047 0.047-0.094 0.053-0.127 0.053-0.040 0-0.074-0.013-0.1-0.033l-2.32-1.651c-0.287-0.207-0.675-0.221-0.983-0.040-0.876 0.521-1.818 0.909-2.801 1.163-0.348 0.087-0.608 0.374-0.662 0.722l-0.475 2.808c-0.013 0.087-0.087 0.147-0.174 0.147h-2.814c-0.087 0-0.16-0.060-0.174-0.147l-0.468-2.808c-0.060-0.354-0.321-0.635-0.662-0.722-0.956-0.247-1.878-0.628-2.741-1.123-0.14-0.080-0.301-0.12-0.455-0.12-0.181 0-0.368 0.053-0.521 0.167l-2.34 1.665c-0.033 0.020-0.067 0.033-0.1 0.033-0.027 0-0.080-0.007-0.127-0.053l-1.992-1.992c-0.060-0.060-0.067-0.154-0.020-0.227l1.644-2.306c0.207-0.294 0.221-0.682 0.040-0.989-0.521-0.869-0.923-1.812-1.176-2.794-0.094-0.341-0.374-0.602-0.722-0.662l-2.828-0.481c-0.087-0.013-0.147-0.087-0.147-0.174v-2.814c0-0.087 0.060-0.16 0.147-0.174l2.788-0.468c0.354-0.060 0.642-0.321 0.729-0.668 0.247-0.983 0.628-1.932 1.143-2.808 0.181-0.307 0.16-0.689-0.047-0.976l-1.665-2.34c-0.047-0.067-0.040-0.167 0.020-0.227l1.992-1.992c0.047-0.047 0.094-0.053 0.127-0.053 0.040 0 0.074 0.013 0.1 0.033l2.306 1.644c0.294 0.207 0.682 0.221 0.989 0.040 0.869-0.521 1.812-0.923 2.794-1.176 0.341-0.094 0.602-0.374 0.662-0.722l0.481-2.828c0.013-0.087 0.087-0.147 0.174-0.147h2.814c0.087 0 0.16 0.060 0.174 0.147l0.468 2.788c0.060 0.354 0.321 0.642 0.668 0.729 1.009 0.254 1.972 0.648 2.868 1.176 0.308 0.181 0.689 0.167 0.983-0.040l2.306-1.658c0.033-0.020 0.067-0.033 0.1-0.033 0.027 0 0.080 0.007 0.127 0.053l1.992 1.992c0.060 0.060 0.067 0.154 0.020 0.227l-1.651 2.32c-0.207 0.287-0.221 0.675-0.040 0.983 0.521 0.876 0.909 1.818 1.163 2.801 0.087 0.348 0.374 0.608 0.722 0.662l2.808 0.475c0.087 0.013 0.147 0.087 0.147 0.174v2.814h-0.007z"></path>
<path d="M16.003 9.091c-3.81 0-6.905 3.095-6.905 6.905s3.095 6.905 6.905 6.905 6.905-3.095 6.905-6.905-3.095-6.905-6.905-6.905zM16.003 21.097c-2.814 0-5.1-2.286-5.1-5.1s2.286-5.1 5.1-5.1 5.1 2.286 5.1 5.1-2.286 5.1-5.1 5.1z"></path>
</symbol>
<symbol id="icon-magnifying-glass" viewBox="0 0 32 32">
<path d="M31.72 30.368l-7.776-7.776c2.086-2.398 3.349-5.527 3.349-8.947 0-7.528-6.123-13.644-13.644-13.644-7.528 0-13.644 6.123-13.644 13.644s6.123 13.644 13.644 13.644c3.42 0 6.549-1.263 8.947-3.349l7.776 7.777c0.184 0.184 0.433 0.284 0.674 0.284s0.49-0.092 0.674-0.284c0.369-0.369 0.369-0.979 0-1.348zM1.912 13.644c0-6.471 5.265-11.729 11.729-11.729 6.471 0 11.729 5.265 11.729 11.729s-5.258 11.736-11.729 11.736c-6.464 0-11.729-5.265-11.729-11.736z"></path>
</symbol>
<symbol id="icon-menu-grid" viewBox="0 0 32 32">
<path d="M0 24.276h7.724v7.724h-7.724v-7.724z"></path>
<path d="M0 12.138h7.724v7.724h-7.724v-7.724z"></path>
<path d="M0 0h7.724v7.724h-7.724v-7.724z"></path>
<path d="M12.138 24.276h7.724v7.724h-7.724v-7.724z"></path>
<path d="M12.138 12.138h7.724v7.724h-7.724v-7.724z"></path>
<path d="M12.138 0h7.724v7.724h-7.724v-7.724z"></path>
<path d="M24.276 24.276h7.724v7.724h-7.724v-7.724z"></path>
<path d="M24.276 12.138h7.724v7.724h-7.724v-7.724z"></path>
<path d="M24.276 0h7.724v7.724h-7.724v-7.724z"></path>
</symbol>
<symbol id="icon-menu-list" viewBox="0 0 32 32">
<path d="M32 4c0-0.8-0.533-1.333-1.333-1.333h-29.333c-0.8 0-1.333 0.533-1.333 1.333v2.667c0 0.8 0.533 1.333 1.333 1.333h29.333c0.8 0 1.333-0.533 1.333-1.333v-2.667z"></path>
<path d="M32 14.667c0-0.8-0.533-1.333-1.333-1.333h-29.333c-0.8 0-1.333 0.533-1.333 1.333v2.667c0 0.8 0.533 1.333 1.333 1.333h29.333c0.8 0 1.333-0.533 1.333-1.333v-2.667z"></path>
<path d="M32 25.333c0-0.8-0.533-1.333-1.333-1.333h-29.333c-0.8 0-1.333 0.533-1.333 1.333v2.667c0 0.8 0.533 1.333 1.333 1.333h29.333c0.8 0 1.333-0.533 1.333-1.333v-2.667z"></path>
</symbol>
</defs>
</svg>
