<?xml version="1.0" encoding="utf-8"?>
<!-- Generator: Adobe Illustrator 18.0.0, SVG Export Plug-In . SVG Version: 6.00 Build 0)  -->
<!DOCTYPE svg PUBLIC "-//W3C//DTD SVG 1.1//EN" "http://www.w3.org/Graphics/SVG/1.1/DTD/svg11.dtd">
<svg version="1.1" id="Layer_1" xmlns="http://www.w3.org/2000/svg" xmlns:xlink="http://www.w3.org/1999/xlink" x="0px" y="0px"
	 viewBox="0 0 12 15" enable-background="new 0 0 12 15" xml:space="preserve">
<g>
	<g>
		<path fill="#FFFFFF" d="M5.3,11.4C5.3,11.5,5.4,11.5,5.3,11.4c0.5,0.4,1,0.4,1.4,0c0.9-1,1.8-2,2.7-3c0,0,0.1-0.1,0.1-0.1
			c0.2-0.3,0.3-0.6,0.2-1c-0.2-0.7-1.1-1-1.6-0.4C7.8,7.3,7.4,7.7,7,8.2c0,0,0,0-0.1,0.1V8.1c0-2.3,0-4.7,0-7C7,1.1,7,1,7,1
			c0-0.4-0.2-0.7-0.6-0.9C6.3,0,6.2,0,6.1,0H5.9C5.8,0,5.6,0.1,5.5,0.2C5.2,0.4,5,0.7,5,1.1c0,2.3,0,4.7,0,7v0.1c0,0,0,0,0,0
			c0,0,0,0,0-0.1C4.6,7.7,4.2,7.3,3.8,6.9C3.5,6.6,3.1,6.5,2.7,6.7C2.1,7,2,7.9,2.5,8.4C3.4,9.4,4.4,10.4,5.3,11.4z M12,10.5
			c0-0.6-0.6-1.1-1.2-1c-0.4,0.1-0.7,0.5-0.7,1c0,0.7,0,1.5,0,2.2v0.1H1.9v-0.1c0-0.7,0-1.5,0-2.2c0,0,0-0.1,0-0.1
			c0-0.5-0.4-1-0.9-1c-0.6,0-1,0.4-1,1c0,1.1,0,2.3,0,3.4c0,0.1,0,0.1,0,0.2C0.1,14.7,0.5,15,1,15c3.3,0,6.7,0,10,0
			c0.6,0,1-0.4,1-1.1C12,12.8,12,11.7,12,10.5C12,10.6,12,10.5,12,10.5z"/>
	</g>
</g>
</svg>
