<?xml version="1.0" encoding="utf-8"?>
<!-- Generator: Adobe Illustrator 18.0.0, SVG Export Plug-In . SVG Version: 6.00 Build 0)  -->
<!DOCTYPE svg PUBLIC "-//W3C//DTD SVG 1.1//EN" "http://www.w3.org/Graphics/SVG/1.1/DTD/svg11.dtd">
<svg version="1.1" id="Layer_3" xmlns="http://www.w3.org/2000/svg" xmlns:xlink="http://www.w3.org/1999/xlink" x="0px" y="0px"
	 viewBox="0 0 512 512" enable-background="new 0 0 512 512" xml:space="preserve">
<g>
	<path fill="#FFFFFF" d="M496,168h-40v-32c4,0,7.4-2.9,7.9-6.9l16-112c0.3-2.3-0.4-4.6-1.9-6.4S474.3,8,472,8h-80
		c-2.3,0-4.5,1-6,2.8s-2.2,4.1-1.9,6.4l16,112c0.6,3.9,3.9,6.9,7.9,6.9v32H16c-4.4,0-8,3.6-8,8v320c0,4.4,3.6,8,8,8h480
		c4.4,0,8-3.6,8-8V176C504,171.6,500.4,168,496,168z M460.5,40H440V24h22.8L460.5,40z M424,24v16h-20.5l-2.3-16H424z M405.8,56h52.4
		l-9.1,64H448h-8v-16h-16v16h-8h-1.1L405.8,56z M440,136v40c0,4.4-3.6,8-8,8s-8-3.6-8-8v-40H440z M409.5,184
		c3.3,9.3,12.1,16,22.5,16s19.2-6.7,22.5-16H488v32H24v-32H409.5z M24,488V232h464v256H24z"/>
	<path fill="#FFFFFF" d="M240,248H48c-4.4,0-8,3.6-8,8v208c0,4.4,3.6,8,8,8h32h128h32c4.4,0,8-3.6,8-8V256
		C248,251.6,244.4,248,240,248z M88,456v-24c0-30.9,25.1-56,56-56s56,25.1,56,56v24H88z M112,328c0-17.6,14.4-32,32-32
		s32,14.4,32,32s-14.4,32-32,32S112,345.6,112,328z M232,456h-16v-24c0-29.4-17.7-54.7-43-65.8c11.5-8.8,19-22.6,19-38.2
		c0-26.5-21.5-48-48-48s-48,21.5-48,48c0,15.6,7.5,29.4,19,38.2c-25.3,11.2-43,36.5-43,65.8v24H56V264h176V456z"/>
	<path fill="#FFFFFF" d="M448,360h-16v16c-13.2,0-24,10.8-24,24s10.8,24,24,24h16c4.4,0,8,3.6,8,8s-3.6,8-8,8h-40v16h24v16h16v-16
		c13.2,0,24-10.8,24-24s-10.8-24-24-24h-16c-4.4,0-8-3.6-8-8s3.6-8,8-8h40v-16h-24V360z"/>
	<path fill="#FFFFFF" d="M440,248c-5.6,0-11.1,1.5-16,4.4c-4.9-2.8-10.4-4.4-16-4.4c-17.6,0-32,14.4-32,32s14.4,32,32,32
		c5.6,0,11.1-1.5,16-4.4c4.9,2.8,10.4,4.4,16,4.4c17.6,0,32-14.4,32-32S457.6,248,440,248z M440,296c-5,0-8.5-2.3-10.6-4.2
		c-1.5-1.4-3.4-2.1-5.4-2.1s-3.8,0.7-5.4,2.1c-2.1,1.9-5.7,4.2-10.6,4.2c-8.8,0-16-7.2-16-16s7.2-16,16-16c5,0,8.5,2.3,10.6,4.2
		c3,2.7,7.7,2.7,10.7,0c2.1-1.9,5.7-4.2,10.6-4.2c8.8,0,16,7.2,16,16S448.8,296,440,296z"/>
	<rect x="376" y="328" fill="#FFFFFF" width="96" height="16"/>
	<rect x="264" y="248" fill="#FFFFFF" width="96" height="16"/>
	<rect x="264" y="280" fill="#FFFFFF" width="96" height="16"/>
	<rect x="264" y="312" fill="#FFFFFF" width="96" height="16"/>
	<rect x="264" y="456" fill="#FFFFFF" width="128" height="16"/>
</g>
</svg>
