<?xml version="1.0" encoding="utf-8"?>
<!-- Generator: Adobe Illustrator 18.0.0, SVG Export Plug-In . SVG Version: 6.00 Build 0)  -->
<!DOCTYPE svg PUBLIC "-//W3C//DTD SVG 1.1 Tiny//EN" "http://www.w3.org/Graphics/SVG/1.1/DTD/svg11-tiny.dtd">
<svg version="1.1" baseProfile="tiny" id="Layer_1" xmlns="http://www.w3.org/2000/svg" xmlns:xlink="http://www.w3.org/1999/xlink"
	 x="0px" y="0px" viewBox="0 0 48 48" xml:space="preserve">
<path fill-rule="evenodd" fill="#DAE1E6" d="M24,0c13.3,0,24,10.7,24,24S37.3,48,24,48C10.7,48,0,37.3,0,24S10.7,0,24,0z"/>
<g>
	<path fill="#0F3148" d="M37.2,1.7c-0.7-0.9-1.6-1.2-3-0.8l0,0C29.2,2.2,24,3.6,19,5C13.9,6.3,8.7,7.7,3.7,9l0,0
		c-1.3,0.4-2,1-2.2,2.2l5.7,21.1c0.7,0.9,1.6,1.2,3,0.8l0,0c5.1-1.4,10.2-2.8,15.3-4.1c5.1-1.4,10.2-2.7,15.3-4.1l0,0
		c1.3-0.4,2-1,2.2-2.2L37.2,1.7z M3.2,11l32.4-8.7l0.8,2.8L3.9,13.8L3.2,11z M4.4,15.5l32.4-8.7l0.8,2.8L5.1,18.3L4.4,15.5z
		 M8.8,31.8L5.6,19.9L38,11.3l3.2,11.9L8.8,31.8z M18,21.3c-0.3-0.9-0.9-1.3-1.8-1c-0.4,0.1-0.8,0.2-1.2,0.3
		c-0.3,0.1-0.6,0.2-0.9,0.3c-0.3,0.1-0.6,0.2-0.9,0.3c-0.3,0.1-0.6,0.2-0.9,0.2c-0.3,0.1-0.6,0.2-0.9,0.2c-0.4,0.1-0.8,0.2-1.2,0.3
		c-1,0.3-1.3,0.9-1.1,1.8c0.3,1.2,0.6,2.4,1,3.8c0.3,0.9,0.9,1.3,1.8,1.1c1-0.3,2-0.5,3-0.8c1-0.3,2-0.6,3.1-0.8
		c0.9-0.3,1.3-0.9,1.1-1.8C18.7,23.8,18.4,22.5,18,21.3z M11.7,26.7l-0.9-3.4l5.7-1.5l0.9,3.4L11.7,26.7z M24.1,20.6l0.4,1.5
		l11.7-3.1l-0.4-1.5L24.1,20.6z"/>
</g>
</svg>
