<?xml version="1.0" encoding="utf-8"?>
<!-- Generator: Adobe Illustrator 18.0.0, SVG Export Plug-In . SVG Version: 6.00 Build 0)  -->
<!DOCTYPE svg PUBLIC "-//W3C//DTD SVG 1.1//EN" "http://www.w3.org/Graphics/SVG/1.1/DTD/svg11.dtd">
<svg version="1.1" id="Layer_1" xmlns="http://www.w3.org/2000/svg" xmlns:xlink="http://www.w3.org/1999/xlink" x="0px" y="0px"
	 viewBox="0 0 500 500" enable-background="new 0 0 500 500" xml:space="preserve">
<g id="Text-files">
	<path d="M427.8,428.7h-31.6c-0.6,0-1.2-0.2-1.8-0.4v32.6c0,21.6-18.4,39.2-40.9,39.2H78.9c-22.6,0-40.9-17.6-40.9-39.2V94.7
		c0-21.6,18.4-39.2,40.9-39.2h48.2V37.8c0-20.9,17.7-37.8,39.4-37.8h261.4c21.7,0,39.4,17,39.4,37.8v352.9
		C467.2,411.7,449.6,428.7,427.8,428.7z M54.2,94.7v366.1c0,12.9,11.1,23.4,24.8,23.4h274.4c13.7,0,24.8-10.5,24.8-23.4V94.7
		c0-12.9-11.1-23.4-24.8-23.4H78.9C65.2,71.3,54.2,81.8,54.2,94.7z M451,37.7c0-12.1-10.4-22-23.2-22H166.5
		c-12.8,0-23.2,9.9-23.2,22v17.7h210.1c22.6,0,40.9,17.6,40.9,39.2v318.5c0.6-0.1,1.2-0.4,1.8-0.4h31.6c12.8,0,23.2-9.9,23.2-22
		V37.7z"/>
</g>
</svg>
