<?xml version="1.0" encoding="utf-8"?>
<!-- Generator: Adobe Illustrator 18.0.0, SVG Export Plug-In . SVG Version: 6.00 Build 0)  -->
<!DOCTYPE svg PUBLIC "-//W3C//DTD SVG 1.1//EN" "http://www.w3.org/Graphics/SVG/1.1/DTD/svg11.dtd">
<svg version="1.1" id="Capa_1" xmlns="http://www.w3.org/2000/svg" xmlns:xlink="http://www.w3.org/1999/xlink" x="0px" y="0px"
	 viewBox="0 0 500 500" enable-background="new 0 0 500 500" xml:space="preserve">
<g>
	<g>
		<path fill="#6B6B6B" d="M426.8,73.2C379.6,26,316.8,0,250,0S120.4,26,73.2,73.2C26,120.4,0,183.2,0,250s26,129.6,73.2,176.8
			C120.4,474,183.2,500,250,500s129.6-26,176.8-73.2C474,379.6,500,316.8,500,250S474,120.4,426.8,73.2z M250,470.2
			c-121.4,0-220.2-98.8-220.2-220.2S128.6,29.8,250,29.8S470.2,128.6,470.2,250S371.4,470.2,250,470.2z"/>
	</g>
</g>
<g>
	<g>
		<path fill="#6B6B6B" d="M195.9,184c-24.4-24.4-64-24.4-88.4,0c-5.8,5.8-5.8,15.2,0,21c5.8,5.8,15.2,5.8,21,0
			c12.8-12.8,33.5-12.8,46.3,0c2.9,2.9,6.7,4.4,10.5,4.4c3.8,0,7.6-1.5,10.5-4.4C201.7,199.2,201.7,189.8,195.9,184z"/>
	</g>
</g>
<g>
	<g>
		<path fill="#6B6B6B" d="M392.5,184c-24.4-24.4-64-24.4-88.4,0c-5.8,5.8-5.8,15.2,0,21c5.8,5.8,15.2,5.8,21,0
			c12.8-12.8,33.5-12.8,46.3,0c2.9,2.9,6.7,4.4,10.5,4.4c3.8,0,7.6-1.5,10.5-4.4C398.3,199.2,398.3,189.8,392.5,184z"/>
	</g>
</g>
<g>
	<g>
		<path fill="#6B6B6B" d="M381.9,260.9H118.1c-8.2,0-14.9,6.7-14.9,14.9c0,81,65.9,146.8,146.8,146.8s146.8-65.9,146.8-146.8
			C396.8,267.6,390.2,260.9,381.9,260.9z M250,392.9c-59.5,0-108.8-44.6-116.1-102.2h232.2C358.8,348.2,309.5,392.9,250,392.9z"/>
	</g>
</g>
</svg>
