<?xml version="1.0" encoding="utf-8"?>
<!-- Generator: Adobe Illustrator 18.0.0, SVG Export Plug-In . SVG Version: 6.00 Build 0)  -->
<!DOCTYPE svg PUBLIC "-//W3C//DTD SVG 1.1//EN" "http://www.w3.org/Graphics/SVG/1.1/DTD/svg11.dtd">
<svg version="1.1" id="Capa_1" xmlns="http://www.w3.org/2000/svg" xmlns:xlink="http://www.w3.org/1999/xlink" x="0px" y="0px"
	 viewBox="0 0 500 500" enable-background="new 0 0 500 500" xml:space="preserve">
<g>
	<path fill="#6B6B6B" d="M250,0C112.2,0,0,112.2,0,250s112.2,250,250,250s250-112.2,250-250S387.9,0,250,0z M250,473
		c-61.2,0-116.8-24.8-157.1-64.9c-16.1-16-29.8-34.5-40.4-54.8C36.2,322.4,27,287.2,27,250c0-122.9,100-223,223-223
		c58.3,0,111.5,22.5,151.2,59.3c20.6,19.1,37.7,42,49.9,67.6c14,29.1,21.8,61.7,21.8,96.1C473,372.9,372.9,473,250,473z"/>
	<circle fill="#6B6B6B" cx="168.4" cy="194.3" r="27"/>
	<circle fill="#6B6B6B" cx="335.6" cy="194.3" r="27"/>
	<path fill="#6B6B6B" d="M249.5,388.5c52.3,0,102.4-26.7,131.1-71.1l-22.7-14.7c-26.3,40.8-74.5,63.5-122.8,58
		c-37.6-4.3-72.4-26-93-58l-22.7,14.7c25,38.7,67.1,64.9,112.6,70.1C237.9,388.2,243.7,388.5,249.5,388.5z"/>
</g>
</svg>
