<?xml version="1.0" encoding="utf-8"?>
<!-- Generator: Adobe Illustrator 18.0.0, SVG Export Plug-In . SVG Version: 6.00 Build 0)  -->
<!DOCTYPE svg PUBLIC "-//W3C//DTD SVG 1.1//EN" "http://www.w3.org/Graphics/SVG/1.1/DTD/svg11.dtd">
<svg version="1.1" id="Layer_1" xmlns="http://www.w3.org/2000/svg" xmlns:xlink="http://www.w3.org/1999/xlink" x="0px" y="0px"
	 viewBox="0 0 512 512" enable-background="new 0 0 512 512" xml:space="preserve">
<path fill="#1A3148" d="M427,127.6v49.9l29.8,22.2L427,221.9l-40,29.8l-131,97.4l-131-97.4l-40-29.8l-29.8-22.2L85,177.5v-49.9
	L0,191v261c0,33.1,26.9,60,60,60h392c33.1,0,60-26.9,60-60V191L427,127.6z M472,452c0,11-9,20-20,20H60c-11,0-20-9-20-20V238.3
	l216,160.7l216-160.7V452z"/>
<rect x="236" y="253" fill="#E42547" width="40" height="40"/>
<path fill="#E42547" d="M296.3,195.1c-3.1,3.1-5.9,5.8-8.4,8.1c-11.5,10.9-11.9,11.9-11.9,17.9v0.9h-40v-0.9
	c0-23.8,11.9-35.1,24.4-46.9c2.5-2.3,5-4.7,7.7-7.4c10.5-10.5,14.7-18.4,13.8-26.4c-1.3-11.5-10.8-20.9-22.6-22.2
	c-7.9-0.9-15.3,1.5-21,6.5c-5.3,4.8-8.2,11.2-8.2,18.3h-40c0-18.3,7.9-35.8,21.5-48.1c14.1-12.6,33-18.6,52.1-16.5
	c30.3,3.3,54.7,27.5,58,57.5C324.7,163.4,308.7,182.8,296.3,195.1z"/>
<polygon fill="#E42547" points="427,0 427,221.9 387,251.6 387,40 125,40 125,251.6 85,221.9 85,0 "/>
</svg>
