<?xml version="1.0" encoding="utf-8"?>
<!-- Generator: Adobe Illustrator 18.0.0, SVG Export Plug-In . SVG Version: 6.00 Build 0)  -->
<!DOCTYPE svg PUBLIC "-//W3C//DTD SVG 1.1//EN" "http://www.w3.org/Graphics/SVG/1.1/DTD/svg11.dtd">
<svg version="1.1" id="Capa_1" xmlns="http://www.w3.org/2000/svg" xmlns:xlink="http://www.w3.org/1999/xlink" x="0px" y="0px"
	 viewBox="0 0 80 80" enable-background="new 0 0 80 80" xml:space="preserve">
<g>
	<g>
		<path fill="#E42547" d="M76.4,58.7L76.4,58.7c-0.6-0.6-1.6-0.6-2.2,0c-0.6,0.6-0.6,1.6,0,2.2l0,0c0.3,0.3,0.7,0.5,1.1,0.5
			c0.4,0,0.8-0.2,1.1-0.5C77,60.2,77,59.3,76.4,58.7z"/>
	</g>
</g>
<g>
	<g>
		<path fill="#1A3148" d="M79.5,63.9c-0.2-0.8-1.1-1.3-1.9-1c-0.8,0.2-1.3,1.1-1,1.9c1,3.3,0.1,6.9-2.3,9.3c-3.6,3.7-9.6,3.7-13.2,0
			c-1.8-1.8-2.7-4.1-2.7-6.6c0-2.5,1-4.9,2.7-6.6c2.5-2.5,6.2-3.4,9.6-2.3c0.8,0.3,1.7-0.2,2-1c0.3-0.8-0.2-1.7-1-2
			c-4.4-1.5-9.2-0.4-12.5,2.8H13.3v-1.1c0-0.6-0.4-1.2-1-1.4c-0.6-0.2-1.3-0.1-1.7,0.3L0.5,66.4c-0.6,0.6-0.6,1.6,0,2.2l10.2,10.2
			c0.3,0.3,0.7,0.5,1.1,0.5c0.2,0,0.4,0,0.6-0.1c0.6-0.2,1-0.8,1-1.4v-1.1h45.6c2.4,2.3,5.5,3.4,8.6,3.4c3.2,0,6.4-1.2,8.8-3.6
			C79.6,73,80.8,68.3,79.5,63.9z M56.5,73.4H11.7c-0.6,0-1,0.3-1.3,0.7l-6.6-6.6l6.6-6.6c0.3,0.4,0.8,0.7,1.3,0.7h44.8
			c-1,1.8-1.5,3.8-1.5,5.9C55,69.6,55.6,71.6,56.5,73.4z"/>
	</g>
</g>
<g>
	<g>
		<path fill="#E42547" d="M76.3,31.2L76.3,31.2c-0.6-0.6-1.6-0.6-2.2,0c-0.6,0.6-0.6,1.6,0,2.2l0,0c0.3,0.3,0.7,0.5,1.1,0.5
			c0.4,0,0.8-0.2,1.1-0.5C76.9,32.8,76.9,31.8,76.3,31.2z"/>
	</g>
</g>
<g>
	<g>
		<path fill="#E42547" d="M76.3,3.7L76.3,3.7c-0.6-0.6-1.6-0.6-2.2,0s-0.6,1.6,0,2.2l0,0c0.3,0.3,0.7,0.5,1.1,0.5
			c0.4,0,0.8-0.2,1.1-0.5C76.9,5.3,76.9,4.3,76.3,3.7z"/>
	</g>
</g>
<g>
	<g>
		<path fill="#E42547" d="M68.9,6.1c-0.6-0.2-1.3,0-1.7,0.5l-3.2,4c-0.5,0.7-0.4,1.7,0.2,2.2c0.7,0.5,1.7,0.4,2.2-0.2l0.4-0.5v5.6
			c0,0.9,0.7,1.6,1.6,1.6c0.9,0,1.6-0.7,1.6-1.6v-10C69.9,6.9,69.5,6.3,68.9,6.1z"/>
	</g>
</g>
<g>
	<g>
		<path fill="#E42547" d="M71,42.4h-2.5c1.6-1.6,3.1-3.6,3.1-5.5c0-2.7-1.8-4.5-4.5-4.5c-2.5,0-4.5,2-4.5,4.5c0,0.9,0.7,1.6,1.6,1.6
			c0.9,0,1.6-0.7,1.6-1.6c0-0.7,0.6-1.3,1.3-1.3c1.2,0,1.3,0.7,1.3,1.3c0,1.4-3,4.3-5.2,5.8c-0.6,0.4-0.8,1.1-0.6,1.7
			c0.2,0.6,0.8,1.1,1.5,1.1H71c0.9,0,1.6-0.7,1.6-1.6S71.8,42.4,71,42.4z"/>
	</g>
</g>
<g>
	<g>
		<path fill="#E42547" d="M71.4,65c0-2.2-1.8-4.1-4.1-4.1h-1.9c-0.9,0-1.6,0.7-1.6,1.6s0.7,1.6,1.6,1.6h1.9c0.5,0,0.9,0.4,0.9,0.9
			c0,0.5-0.4,0.9-0.9,0.9h-1.9c-0.9,0-1.6,0.7-1.6,1.6c0,0.9,0.7,1.6,1.6,1.6h1.9c0.5,0,0.9,0.4,0.9,0.9c0,0.5-0.4,0.9-0.9,0.9h-1.9
			c-0.9,0-1.6,0.7-1.6,1.6s0.7,1.6,1.6,1.6h1.9c2.2,0,4.1-1.8,4.1-4.1c0-0.9-0.3-1.8-0.9-2.5C71,66.8,71.4,65.9,71.4,65z"/>
	</g>
</g>
<g>
	<g>
		<path fill="#1A3148" d="M79.4,36.4c-0.2-0.8-1.1-1.3-1.9-1c-0.8,0.2-1.3,1.1-1,1.9c1,3.3,0.1,6.9-2.3,9.3
			c-1.8,1.8-4.1,2.7-6.6,2.7s-4.9-1-6.6-2.7c-1.8-1.8-2.7-4.1-2.7-6.6c0-2.5,1-4.9,2.7-6.6c2.5-2.5,6.2-3.4,9.6-2.3
			c0.8,0.3,1.7-0.2,2-1c0.3-0.8-0.2-1.7-1-2c-4.4-1.5-9.2-0.4-12.5,2.8H26.6v-1.1c0-0.6-0.4-1.2-1-1.4c-0.6-0.2-1.3-0.1-1.7,0.3
			L13.8,38.9c-0.6,0.6-0.6,1.6,0,2.2l10.2,10.2c0.3,0.3,0.7,0.5,1.1,0.5c0.2,0,0.4,0,0.6-0.1c0.6-0.2,1-0.8,1-1.4V49h32.3
			c2.3,2.2,5.4,3.4,8.6,3.4c3.3,0,6.5-1.3,8.8-3.7C79.6,45.6,80.8,40.8,79.4,36.4z M56.5,45.9H25.1c-0.6,0-1,0.3-1.3,0.7L17.1,40
			l6.6-6.6c0.3,0.4,0.8,0.7,1.3,0.7h31.5c-1,1.8-1.5,3.8-1.5,5.9C55,42.1,55.5,44.1,56.5,45.9z"/>
	</g>
</g>
<g>
	<g>
		<path fill="#1A3148" d="M79.4,8.9c-0.2-0.8-1.1-1.3-1.9-1c-0.8,0.2-1.3,1.1-1,1.9c1,3.3,0.1,6.9-2.3,9.3c-1.8,1.8-4.1,2.7-6.6,2.7
			s-4.9-1-6.6-2.7c-1.8-1.8-2.7-4.1-2.7-6.6c0-2.5,1-4.9,2.7-6.6c2.5-2.5,6.2-3.4,9.6-2.3c0.8,0.3,1.7-0.2,2-1c0.3-0.8-0.2-1.7-1-2
			C67-0.8,62.2,0.3,58.9,3.5H43.7V2.4c0-0.6-0.4-1.2-1-1.4c-0.6-0.2-1.3-0.1-1.7,0.3L30.9,11.4c-0.3,0.3-0.5,0.7-0.5,1.1
			c0,0.4,0.2,0.8,0.5,1.1l10.2,10.2c0.3,0.3,0.7,0.5,1.1,0.5c0.2,0,0.4,0,0.6-0.1c0.6-0.2,1-0.8,1-1.4v-1.1h15.2
			c2.3,2.2,5.4,3.4,8.6,3.4c3.3,0,6.5-1.3,8.8-3.7C79.6,18.1,80.8,13.4,79.4,8.9z M42.2,18.5c-0.6,0-1,0.3-1.3,0.7l-6.6-6.6l6.6-6.6
			c0.3,0.4,0.8,0.7,1.3,0.7h14.4c-1,1.8-1.5,3.8-1.5,5.9c0,2.1,0.5,4.1,1.5,5.9C56.5,18.5,42.2,18.5,42.2,18.5z"/>
	</g>
</g>
</svg>
