<?xml version="1.0" encoding="utf-8"?>
<!-- Generator: Adobe Illustrator 18.0.0, SVG Export Plug-In . SVG Version: 6.00 Build 0)  -->
<!DOCTYPE svg PUBLIC "-//W3C//DTD SVG 1.1//EN" "http://www.w3.org/Graphics/SVG/1.1/DTD/svg11.dtd">
<svg version="1.1" id="Capa_1" xmlns="http://www.w3.org/2000/svg" xmlns:xlink="http://www.w3.org/1999/xlink" x="0px" y="0px"
	 viewBox="0 0 80 80" enable-background="new 0 0 80 80" xml:space="preserve">
<g>
	<g>
		<g>
			<path fill="#1A3148" d="M0,0.3v79.3h80V0.3H0z M73.4,73.1c-5.7,0-61.1,0-66.8,0c0-5.7,0-60.4,0-66.1c5.7,0,61.1,0,66.8,0
				C73.4,12.7,73.4,67.3,73.4,73.1z"/>
			<path fill="#E42547" d="M21.1,46.1c0.2,0.8,0.3,2.4,0.3,5c0,2.2,0.1,3.8,0.3,4.8c0.2,1,0.7,1.9,1.4,2.6c0.7,0.7,1.5,1.2,2.5,1.5
				c1,0.3,2.4,0.4,4.3,0.4h1.1v-5c-1.5,0-2.5-0.1-2.9-0.3c-0.4-0.2-0.8-0.5-1-0.8c-0.2-0.4-0.3-1-0.3-1.9c0-0.6-0.1-2.1-0.2-4.4
				c-0.1-1.5-0.3-2.7-0.5-3.6c-0.3-0.9-0.7-1.7-1.2-2.3c-0.5-0.6-1.2-1.2-2-1.7c0.9-0.6,1.6-1.2,2.1-1.7c0.5-0.5,0.8-1.3,1.1-2.1
				c0.3-0.9,0.5-2,0.5-3.3c0.1-2.4,0.2-4.1,0.2-5c0-0.9,0.1-1.5,0.3-1.8c0.2-0.3,0.5-0.6,1-0.8c0.4-0.2,1.4-0.3,3-0.3v-5H30
				c-1.8,0-3.2,0.1-4,0.4c-1.3,0.4-2.2,0.9-2.9,1.5c-0.7,0.6-1.1,1.5-1.4,2.6c-0.2,1.1-0.4,2.9-0.4,5.6c0,1.7-0.1,2.8-0.2,3.5
				c-0.1,0.9-0.4,1.6-0.8,2.2c-0.4,0.6-0.8,1-1.3,1.3c-0.5,0.2-1.3,0.4-2.3,0.5v5c1.3,0.1,2.2,0.3,2.8,0.8
				C20.3,44.2,20.8,45,21.1,46.1z"/>
			<path fill="#1A3148" d="M35.8,55.9l1.1,2.4c1.3-0.4,2.3-1.1,3.1-1.8c0.8-0.8,1.4-1.7,1.7-2.6c0.3-1,0.4-2.3,0.4-4v-4.2h-5.9v5.9
				h2.8c0,1.2-0.3,2.1-0.8,2.8C37.8,54.9,36.9,55.5,35.8,55.9z"/>
			<rect x="36.2" y="29.3" fill="#1A3148" width="5.9" height="5.9"/>
			<path fill="#E42547" d="M52.5,60.1c1.3-0.4,2.2-0.9,2.9-1.5c0.7-0.6,1.1-1.5,1.3-2.6c0.2-1.1,0.4-3,0.4-5.6
				c0-1.6,0.1-2.8,0.2-3.5c0.1-0.9,0.4-1.6,0.8-2.2c0.4-0.6,0.8-1,1.3-1.3c0.5-0.2,1.3-0.4,2.3-0.5h0v-5c-1.3-0.1-2.2-0.3-2.9-0.8
				c-0.6-0.5-1.1-1.3-1.4-2.4c-0.2-0.8-0.3-2.4-0.3-5c0-2.2-0.1-3.8-0.4-4.8c-0.2-1-0.7-1.9-1.4-2.6c-0.7-0.7-1.5-1.2-2.5-1.5
				c-1-0.3-2.4-0.4-4.3-0.4h-1.1v5c1.6,0,2.6,0.1,3,0.3c0.5,0.2,0.8,0.5,0.9,0.8c0.2,0.3,0.3,1,0.3,2.1c0.1,3.3,0.2,5.4,0.3,6.4
				c0.2,1.4,0.7,2.6,1.3,3.5c0.5,0.6,1.2,1.3,2.3,2c-0.8,0.5-1.4,1-1.9,1.6c-0.5,0.6-0.9,1.3-1.2,2.2c-0.3,0.9-0.5,2-0.6,3.5
				c-0.1,2.4-0.2,4-0.2,4.9c0,0.8-0.1,1.4-0.3,1.8c-0.2,0.4-0.6,0.6-1,0.8c-0.5,0.2-1.4,0.3-2.9,0.3v5h1.1
				C50.3,60.4,51.6,60.3,52.5,60.1z"/>
		</g>
	</g>
</g>
</svg>
