<?xml version="1.0" encoding="utf-8"?>
<!-- Generator: Adobe Illustrator 18.0.0, SVG Export Plug-In . SVG Version: 6.00 Build 0)  -->
<!DOCTYPE svg PUBLIC "-//W3C//DTD SVG 1.1//EN" "http://www.w3.org/Graphics/SVG/1.1/DTD/svg11.dtd">
<svg version="1.1" id="Layer_1" xmlns="http://www.w3.org/2000/svg" xmlns:xlink="http://www.w3.org/1999/xlink" x="0px" y="0px"
	 viewBox="0 0 80 80" enable-background="new 0 0 80 80" xml:space="preserve">
<path fill="#DAE1E6" d="M40,22c16,0,29,13,29,29S56,80,40,80S11,67,11,51S24,22,40,22z"/>
<path fill="none" stroke="#DB213C" stroke-width="3" stroke-miterlimit="10" d="M15.3,38.6c0.3-0.4,0.8-0.6,1.3-0.6c2,0,4,0,6,0
	c2.5,0,4.4-0.9,5.9-2.8c1.3-1.7,2.2-3.5,3.1-5.4c1.3-2.8,2.6-5.6,4-8.3c1.2-2.3,2.8-4.3,4.8-6c2.4-2,5.2-3,8.3-3.1
	c2.6-0.1,5.1,0,7.7,0c0.2,0,0.4,0,0.7,0c0-0.2,0-0.4,0-0.6c0-1.6,0-3.1,0-4.7c0-0.5,0.1-0.9,0.5-1.1c0.5-0.2,0.9,0,1.3,0.4
	c2.6,2.5,5.3,5.1,7.9,7.6c0.4,0.4,0.8,0.8,1.3,1.2c0.6,0.6,0.6,1.1,0,1.7c-2.5,2.4-5,4.8-7.4,7.2c-0.6,0.6-1.2,1.1-1.8,1.7
	c-0.3,0.3-0.7,0.5-1.2,0.3c-0.5-0.2-0.6-0.6-0.6-1.1c0-1.6,0-3.1,0-4.7c0-0.2,0-0.4,0-0.6c-0.1,0-0.2-0.1-0.3-0.1c-2.5,0-5,0-7.4,0
	c-2.6,0-4.4,1.2-5.8,3.2c-1.4,1.9-2.4,4.1-3.3,6.2c-1.5,3.3-2.9,6.6-5,9.5c-1.7,2.4-3.8,4.5-6.7,5.6c-1.9,0.7-3.8,1.1-5.8,1.1
	c-2.1,0-4.2,0-6.3,0c-0.5,0-0.9-0.1-1.2-0.6C15.3,42.7,15.3,40.6,15.3,38.6z"/>
<path fill="none" stroke="#DB213C" stroke-width="3" stroke-miterlimit="10" d="M16.1,13.7c0.3-0.4,0.7-0.6,1.2-0.6
	c2.1,0,4.2,0,6.2,0c4.6,0,8.3,1.7,11.2,5.1c0.3,0.4,0.6,0.7,0.9,1.1c0.1,0.1,0.1,0.4,0,0.5c-1.5,2.3-2.6,4.8-3.8,7.2
	c0,0.1-0.1,0.1-0.2,0.3c-0.1-0.2-0.2-0.3-0.3-0.5c-0.7-1.1-1.3-2.2-2-3.2c-1.4-2.1-3.5-3.1-6.1-3.1c-2,0-4.1,0-6.1,0
	c-0.5,0-1-0.1-1.3-0.6C16.1,17.8,16.1,15.8,16.1,13.7z"/>
<path fill="none" stroke="#DB213C" stroke-width="3" stroke-miterlimit="10" d="M56.4,44.6c-1.5,0-3,0-4.5,0c-2.4,0-4.8,0-7.2-0.6
	c-1.9-0.5-3.7-1.3-5.1-2.7c-1-0.9-1.8-1.9-2.7-2.9c-0.1-0.1-0.2-0.4-0.1-0.6c1.2-2.4,2.4-4.7,3.6-7c0.1-0.1,0.1-0.3,0.3-0.5
	c0.2,0.3,0.2,0.5,0.4,0.7c0.8,1.3,1.5,2.6,2.5,3.8c1.3,1.6,3.1,2.4,5.2,2.4c2.4,0,4.9,0,7.3,0c0.1,0,0.2,0,0.3,0c0-0.2,0-0.4,0-0.5
	c0-1.5,0-3.1,0-4.6c0-0.5,0-0.9,0.5-1.1c0.5-0.2,1,0,1.3,0.4c2.6,2.5,5.2,5,7.8,7.5c0.4,0.4,0.8,0.8,1.3,1.2c0.6,0.6,0.6,1.1,0,1.7
	c-2.5,2.4-5,4.8-7.4,7.2c-0.6,0.6-1.2,1.1-1.8,1.7c-0.3,0.3-0.7,0.4-1.1,0.3c-0.5-0.2-0.6-0.5-0.6-1c0-1.6,0-3.1,0-4.7
	C56.4,45,56.4,44.8,56.4,44.6z"/>
</svg>
