<?xml version="1.0" encoding="utf-8"?>
<!-- Generator: Adobe Illustrator 18.0.0, SVG Export Plug-In . SVG Version: 6.00 Build 0)  -->
<!DOCTYPE svg PUBLIC "-//W3C//DTD SVG 1.1 Tiny//EN" "http://www.w3.org/Graphics/SVG/1.1/DTD/svg11-tiny.dtd">
<svg version="1.1" baseProfile="tiny" id="Layer_1" xmlns="http://www.w3.org/2000/svg" xmlns:xlink="http://www.w3.org/1999/xlink"
	 x="0px" y="0px" viewBox="0 0 80 80" xml:space="preserve">
<path display="none" fill="#0E3148" d="M60.5,41.9c-0.3,0.5-0.7,0.6-1.2,0.6c-3.9,0-7.8,0-11.8,0c-0.3,0-0.4,0.1-0.6,0.4
	c-0.1,0.3-0.3,0.6-0.5,0.8c-0.8,1.1-1.6,2.1-2.4,3.2c-0.2,0.2-0.3,0.4-0.4,0.7c-0.8,2.1-1.8,4.1-3.6,5.6C40,53.2,40,53.3,40,53.4
	c0,1.2,0,2.4,0,3.6c0.3,0,0.6,0,0.8,0c0.6,0,0.9,0.4,0.9,0.9c0,1.6,0,3.3,0,4.9c0,0.1,0,0.1,0,0.2c-0.6,0-1.1,0-1.7,0
	c0-1.4,0-2.8,0-4.2c-6.3,0-12.5,0-18.8,0c0,1.4,0,2.8,0,4.2c-0.6,0-1.1,0-1.7,0c0-1.8,0-3.6,0-5.4c0.3-0.8,1.1-0.6,1.7-0.6
	c0-0.3,0-0.4,0-0.6c0-1.1,0-2.2,0.1-3.2c0.2-3.3,0.4-6.6,0.6-9.9c0.2-2.8,0.4-5.5,0.5-8.3c0.1-0.9,0.3-1.6,0.8-2.3
	c1.8-2.7,3.7-5.4,5.5-8.2c0.5-0.7,1-1.3,1.8-1.7c0.6-0.3,1.3-0.5,2-0.7c4.9,0,9.7,0,14.6,0c0.7,0.4,0.5,1.1,0.6,1.7
	c0.2,0,0.3,0,0.4,0c3.8,0,7.5,0,11.3,0c0.5,0,0.9,0.1,1.1,0.6C60.5,30.2,60.5,36.1,60.5,41.9z M23,52.7c0.1,0,0.3,0,0.4,0
	c4.4,0,8.9,0,13.3,0c0.7,0,1.3-0.1,1.8-0.5c0.5-0.3,0.9-0.7,1.3-1.1c1.2-1.2,1.8-2.8,2.4-4.3c0.1-0.3,0.3-0.6,0.4-0.8
	c0.8-1.1,1.7-2.3,2.6-3.4c0.8-1.1,0.8-2.2,0-3.2c-0.5-0.6-0.8-0.7-1.5-0.2c-1.4,1-2.9,2-4.3,3.1c-0.3,0.2-0.7,0.4-1.1,0.4
	c-1.3,0-2.6,0-3.9,0c-0.9,0-1.1-0.3-1.1-1.1c0-4.3,0-8.7,0-13c0-0.9,0.2-1.2,1.2-1.2c2.8,0,5.6,0,8.4,0c2.1,0,3.2-1.1,3.3-3
	c0-0.2,0-0.4-0.3-0.4c-4.2,0-8.4,0-12.6,0c-1.2,0-2.1,0.5-2.7,1.5c-1.9,2.8-3.8,5.6-5.7,8.4c-0.2,0.4-0.4,0.9-0.5,1.3
	c-0.2,2.1-0.3,4.2-0.4,6.2c-0.2,2.6-0.4,5.3-0.5,7.9C23.1,50.3,23.1,51.5,23,52.7z M47.4,40.8c0.2,0,0.3,0,0.4,0c3.5,0,7,0,10.6,0
	c0.4,0,0.5-0.1,0.5-0.5c0-4.8,0-9.7,0-14.5c0-0.1,0-0.2,0-0.4c-0.1,0-0.2,0-0.3,0c-3.6,0-7.2,0-10.7,0c-0.2,0-0.3,0.1-0.4,0.3
	c-0.5,1.3-1.4,2.2-2.6,2.7c-0.7,0.3-1.5,0.4-2.3,0.4c-2.3,0-4.7,0-7,0c-0.2,0-0.3,0-0.5,0c0,4,0,8,0,12c1,0,2,0,3,0
	c0.2,0,0.5-0.1,0.7-0.2c1.4-0.9,2.7-1.9,4.1-2.9c1.2-0.9,2.9-0.6,3.8,0.6C47,39,47.3,39.9,47.4,40.8z M38.3,57c0-0.8,0-1.5,0-2.3
	c0-0.2-0.1-0.3-0.3-0.3c-0.5,0-0.9,0-1.4,0c-4.4,0-8.8,0-13.2,0c-0.1,0-0.3,0-0.4,0c0,0.8,0,1.6,0,2.5C28.1,57,33.1,57,38.3,57z"/>
<g>
	<g>
		<g>
			<g>
				<g>
					<g>
						<path fill-rule="evenodd" fill="#DAE1E6" d="M42.5,19.8c13.3,0,24,10.7,24,24s-10.7,24-24,24s-24-10.7-24-24
							S29.2,19.8,42.5,19.8z"/>
						<g display="none">
							<path display="inline" fill="#0E3148" d="M28.9,22.3c-0.4-0.4-0.8-0.9-1.2-1.3c-0.6-0.7-0.6-1.6,0-2.2
								c0.3-0.3,0.7-0.5,1.2-0.5c0.4,0,0.7,0.1,1,0.4c2,2,4,4.1,6,6.1c0.7,0.7,1.4,1.4,2.1,2.1c-3.3,6.2-3,11.1,0.7,14.7l0.3,0.3
								l1.2-1.5l-0.2-0.2c-2.9-4.2-3-8.6-0.4-11.5c0.2,0.2,0.4,0.5,0.7,0.6c0.3,0.1,0.6,0.2,0.9,0.2c0.1,0,0.2,0,0.3,0l0.4,0.1
								l0-0.5c0-0.1,0-0.2,0-0.3c0-0.3,0-0.6-0.1-0.9c-0.2-0.3-0.4-0.6-0.6-0.8c1.5-1.2,3.1-1.8,4.8-1.8c1.9,0,4.1,0.8,6.6,2.3
								l0.3,0.2l1.3-1.4l-0.3-0.3c-2.1-2-4.4-3-6.9-3c-2.3,0-4.7,0.8-7.4,2.4c0,0-0.1-0.1-0.1-0.1c-0.2-0.2-0.4-0.4-0.7-0.6
								c-0.8-0.8-1.6-1.7-2.4-2.5c-1.5-1.5-3.1-3.1-4.6-4.7c-0.9-0.9-1.9-1.4-3-1.4c-0.9,0-1.8,0.4-2.6,1.1
								c-1.5,1.5-1.5,3.9,0.1,5.6c0.3,0.3,0.6,0.6,0.9,0.9c0.4,0.4,0.9,0.9,1.3,1.4c0.6,0.7,0.6,1.5,0,2.1c-0.6,0.7-1.3,0.7-2.1,0.2
								c-0.2-0.2-0.4-0.4-0.7-0.6c-0.1-0.1-0.1-0.1-0.2-0.2c-0.8-0.8-1.6-1.6-2.3-2.4c-2.5-2.5-5.1-5.2-7.6-7.7
								c-0.3-0.3-0.7-0.3-1-0.4c-0.1,0-0.3,0-0.4-0.1l-0.5-0.1l0.1,0.9c0.1,0.3,0.1,0.7,0.2,1c0,0.2,0.2,0.3,0.2,0.4c0,0,0,0,0,0
								c1,1,2,2,2.9,3c2.4,2.5,4.9,5,7.4,7.5c0.8,0.9,1.9,1.3,2.9,1.3c1,0,1.9-0.4,2.6-1.1c1.5-1.5,1.4-3.9-0.2-5.6
								C29.4,22.9,29.2,22.6,28.9,22.3z M64.8,21.8c-0.7,0.2-1.3,0.4-1.9,0.6c-1.5,0.5-3,0.9-4.5,1.4c-0.8,0.3-1.6,0.7-2.1,1.3
								c-2,2-4,4.1-6,6.1c-1.1,1.1-2.2,2.2-3.3,3.3c-2.7,2.8-5.4,5.5-8.1,8.3l-3.8,3.9l1.7,1.8l0.3-0.3c0.1-0.2,0.2-0.3,0.3-0.4
								c0.2-0.2,0.3-0.5,0.5-0.6l3.1-3.1c5.5-5.6,11.1-11.4,16.7-17c0.6-0.6,1.5-1,2.5-1.3l0.1,0c0,0,0,0,0.1,0
								c0.3,0,0.8,0.3,1.1,0.8c0.2,0.3,0.2,0.5,0.2,0.5l-0.1,0.2c-0.3,0.9-0.7,1.8-1.2,2.4C54.2,35.8,48,42.2,41.9,48.3l-1.3,1.3
								c-0.2,0.2-0.5,0.4-0.8,0.6c-0.2,0.1-0.3,0.2-0.5,0.3L39,50.8l1.8,1.7l0.2-0.2c0.1,0,0.1-0.1,0.2-0.1c0.1-0.1,0.2-0.2,0.3-0.3
								c7-7.1,13.9-14.2,20.9-21.3l0.1-0.1c0.2-0.2,0.4-0.4,0.5-0.7c0.6-1.9,1.2-3.8,1.8-5.9l0.7-2.4L64.8,21.8z M60.9,33.2
								l-1.4,1.5l0.2,0.3c3.5,4.6,3.7,9,0.6,12.6c-1.4,1.6-3.2,2.6-5.4,2.9c-2.8,0.4-5.3-0.6-7.6-2.8l-0.2-0.2l-1.6,1.4l0.3,0.3
								c2.4,2.4,5.1,3.6,7.9,3.6c1,0,2.1-0.2,3.2-0.5c4.2-1.3,6.9-4.3,7.6-8.8c0.7-3.9-0.5-7.3-3.3-10L60.9,33.2z M59.6,28.8
								l-1.1-1.1L37.3,49.1l1.1,1.1L59.6,28.8z M37.5,53.2c-0.3,0-0.5,0.1-0.8,0.2c-0.3,0.1-0.5,0.2-0.8,0.2c-0.5,0-0.9-0.2-1.1-0.6
								c-0.3-0.6-0.6-1.5-0.4-2.1c0.4-1.1,0-1.6-0.8-2.1l-0.3-0.2l-0.2,0.2c-0.8,0.9-1.2,2-1.1,3.2c0.1,1.1,0.6,2.1,1.4,2.8
								c0.7,0.6,1.7,1,2.6,1c1.1,0,2.1-0.5,2.8-1.3l0.2-0.2l-0.1-0.2C38.5,53.6,38.2,53.2,37.5,53.2z"/>
						</g>
					</g>
					<g display="none">
						<path display="inline" fill="#0E3148" d="M61.4,17c-3.8,0-7.5,0-11.3,0h-0.4c0-0.6,0.1-1.3-0.6-1.7H34.6
							c-0.7,0.2-1.3,0.4-2,0.7c-0.8,0.4-1.3,1-1.8,1.7c-1.8,2.7-3.7,5.4-5.5,8.2c-0.5,0.7-0.8,1.5-0.8,2.3c-0.2,2.8-0.4,5.5-0.5,8.3
							c-0.2,3.3-0.4,6.6-0.6,9.9c-0.1,1.1,0,2.2-0.1,3.2c0,0.2,0,0.4,0,0.6c-0.6,0.1-1.4-0.2-1.7,0.6v5.4h1.7V52H42v4.2h1.7
							c0-0.1,0-0.1,0-0.2c0-1.6,0-3.3,0-4.9c0-0.6-0.4-0.9-0.9-0.9c-0.3,0-0.5,0-0.8,0c0-1.2,0-2.4,0-3.6c0-0.1,0.1-0.2,0.1-0.2
							c1.8-1.5,2.8-3.5,3.6-5.6c0.1-0.2,0.2-0.5,0.4-0.7c0.8-1.1,1.6-2.1,2.4-3.2c0.2-0.3,0.4-0.5,0.5-0.8c0.1-0.3,0.3-0.4,0.6-0.4
							c3.9,0,7.8,0,11.8,0c0.5,0,0.9-0.1,1.2-0.6V17.6C62.3,17.1,61.9,17,61.4,17z M40.3,50.2H24.9v-2.5c0.2,0,0.3,0,0.4,0
							c4.4,0,8.8,0,13.2,0c0.5,0,0.9,0,1.4,0c0.2,0,0.3,0,0.3,0.3C40.3,48.7,40.3,49.5,40.3,50.2z M47.2,35.8
							c-0.8,1.1-1.7,2.3-2.6,3.4c-0.2,0.3-0.3,0.5-0.4,0.8c-0.6,1.6-1.2,3.1-2.4,4.3c-0.4,0.4-0.9,0.8-1.3,1.1
							c-0.5,0.4-1.1,0.5-1.8,0.5c-4.4,0-8.9,0-13.3,0c-0.1,0-0.2,0-0.4,0c0.1-1.2,0.2-2.4,0.2-3.6c0.2-2.6,0.4-5.3,0.5-7.9
							c0.1-2.1,0.3-4.2,0.4-6.2c0-0.4,0.2-0.9,0.5-1.3c1.9-2.8,3.8-5.6,5.7-8.4c0.7-1,1.6-1.5,2.7-1.5c4.2,0,8.4,0,12.6,0
							c0.3,0,0.3,0.2,0.3,0.4c-0.1,2-1.2,3-3.3,3c-2.8,0-5.6,0-8.4,0c-0.9,0-1.2,0.2-1.2,1.2c0,4.3,0,8.7,0,13
							c0,0.9,0.3,1.1,1.1,1.1c1.3,0,2.6,0,3.9,0c0.4,0,0.8-0.1,1.1-0.4c1.4-1,2.9-2,4.3-3.1c0.7-0.5,1-0.4,1.5,0.2
							C47.9,33.6,48,34.8,47.2,35.8z M60.3,34.1c-3.5,0-7,0-10.6,0h-0.4c-0.1-0.9-0.3-1.8-0.9-2.5c-0.9-1.2-2.6-1.5-3.8-0.6
							c-1.4,1-2.7,1.9-4.1,2.9c-0.2,0.1-0.5,0.2-0.7,0.2c-1,0-2,0-3,0v-12h0.5c2.3,0,4.7,0,7,0c0.8,0,1.6-0.1,2.3-0.4
							c1.2-0.5,2.2-1.4,2.6-2.7c0.1-0.2,0.2-0.3,0.4-0.3c3.6,0,7.2,0,10.7,0c0.1,0,0.2,0,0.3,0c0,0.1,0,0.2,0,0.4
							c0,4.8,0,9.7,0,14.5C60.8,34,60.7,34.1,60.3,34.1z M55.7,20.4c-1.8,0-3.4,1.6-3.4,3.4c0,1.8,1.6,3.4,3.4,3.4
							c1.8,0,3.4-1.6,3.4-3.4C59.1,22,57.5,20.4,55.7,20.4z M55.7,25.5c-1.1,0-1.7-0.7-1.7-1.7c0-1,0.7-1.7,1.7-1.7
							c1.1,0,1.7,0.7,1.7,1.7C57.4,24.9,56.7,25.5,55.7,25.5z M38.6,25.5h11.9v-1.6H38.6V25.5z"/>
					</g>
				</g>
				<g display="none">
					<path display="inline" fill="#0E3148" d="M63,16.8c-2.2-1.3-4.6-2.4-6.9-3.4c-0.9-0.4-1.8-0.7-2.8-0.8c-0.9-0.1-1.8-0.1-2.7,0
						c-0.8,0-1,0.2-1.1,1c-0.1,0.7-0.2,1.5-0.5,2.1c-1.1,2.7-3.9,4.9-7.7,4.3c-2.6-0.4-4.4-1.9-5.4-4.3c-0.2-0.5-0.3-1.1-0.5-1.8
						h11.9c0.4,0,0.7-0.3,0.7-0.7c0-0.3-0.3-0.7-0.6-0.7c-5,0-9.9,0-14.9,0c-1.1,0-2.2,0.2-3.3,0.6c-2.5,1-4.9,2.3-7.3,3.5
						c-0.2,0.1-0.3,0.2-0.5,0.4v0.4c0,0.1,0.1,0.3,0.1,0.4c0.8,3.2,1.6,6.3,2.4,9.5c0.1,0.4,0.3,0.9,0.4,1.3
						c0.1,0.3,0.2,0.4,0.6,0.3c0.2,0,0.5-0.1,0.7-0.1c0.8-0.1,1.6-0.2,2.4-0.4c0.2,0,0.3,0,0.3,0.2c0,0.1,0,0.3,0,0.4
						c0,4.8,0,9.7,0,14.5c0,1.9,0.1,3.7,0.1,5.6c0,0.6,0.2,1.2,0.6,1.7c0.6,0.8,1.4,1.3,2.4,1.4c0.3,0,0.6,0,0.8,0
						c4.8,0,9.5,0,14.3,0c2.1,0,4.1,0,6.2,0c0.3,0,0.7,0,1-0.1c1.5-0.3,2.6-1.7,2.6-3.2c0-2.3,0.1-4.5,0.1-6.8c0-4.1,0-8.2,0-12.2
						c0-0.5,0-1,0-1.4c0-0.2,0.1-0.2,0.2-0.2c0.4,0.1,0.7,0.1,1.1,0.2c0.7,0.1,1.3,0.2,2,0.3c0.4,0,0.6-0.1,0.7-0.5
						c0.2-0.6,0.3-1.2,0.5-1.8c0.8-3,1.5-6,2.3-9C63.6,17.1,63.6,17.1,63,16.8z M61.9,18c-0.4,1.5-0.7,3-1.1,4.5
						c-0.4,1.6-0.8,3.2-1.2,4.8c-0.1,0.3-0.1,0.3-0.4,0.3c-1-0.2-2-0.3-3.1-0.5c-0.3,0-0.5-0.1-0.8,0.1c-0.1,0.1-0.2,0.2-0.2,0.4
						c0,2.3,0,4.5,0,6.8c0,4.6,0,9.1-0.1,13.7c0,0.1,0,0.2,0,0.3c-0.1,0-0.2,0-0.3,0c-7.6,0-15.3,0-22.9,0c-0.4,0-0.5,0.2-0.6,0.4
						c-0.1,0.2-0.1,0.4,0.1,0.6c0.2,0.2,0.4,0.3,0.7,0.3c7.5,0,15.1,0,22.6,0h0.3c-0.2,0.7-0.9,1.2-1.6,1.3c-1.1,0-2.3,0.1-3.4,0.1
						c-5.4,0-10.8,0-16.2,0c-0.7,0-1.3-0.1-2-0.1c-0.8,0-1.3-0.4-1.7-1.1c-0.2-0.3-0.2-0.5-0.2-0.9c0-7.2,0-14.3-0.1-21.5
						c0-0.4-0.2-0.6-0.6-0.6c-0.5,0-1,0.1-1.5,0.2c-0.6,0.1-1.3,0.2-1.9,0.3c-0.2,0-0.3,0-0.4-0.2c-0.8-3.1-1.6-6.2-2.4-9.3
						c0-0.2,0-0.3,0.1-0.4c0.4-0.2,0.8-0.4,1.3-0.7c0.1,0.5,0.2,1,0.4,1.4c0.6,2.3,1.2,4.6,1.8,6.9c0.1,0.2,0.1,0.4,0.2,0.6
						c0.1,0.3,0.3,0.4,0.6,0.4c0.4-0.1,0.7-0.5,0.6-0.9c-0.7-2.9-1.5-5.9-2.2-8.8c0-0.2,0-0.3,0.1-0.3c1.6-0.8,3.2-1.6,4.9-2.1
						c0.6-0.2,1.3-0.2,1.9-0.2c0.4,0,0.7,0,1.1,0c0.2,0,0.3,0.1,0.3,0.2c0.2,1.9,1.1,3.6,2.4,4.9c3.6,3.5,8.9,3,12-0.1
						c1.3-1.3,2-2.9,2.3-4.7c0-0.1,0-0.2,0.1-0.3c0.1,0,0.2,0,0.2,0c0.7,0,1.5,0,2.2,0.1c0.1,0,0.2,0,0.3,0c1.8,0.6,3.5,1.3,5.2,2.2
						c0.4,0.2,0.4,0.2,0.3,0.7c-0.7,2.6-1.3,5.2-2,7.8c-0.1,0.3-0.2,0.6-0.2,0.9c-0.1,0.3,0.1,0.6,0.5,0.7c0.4,0.1,0.6,0,0.7-0.3
						c0.2-0.7,0.4-1.4,0.6-2.1c0.6-2.2,1.1-4.4,1.7-6.6c0-0.1,0.1-0.2,0.1-0.4c0.5,0.3,0.9,0.5,1.4,0.8C61.9,17.8,61.9,17.9,61.9,18
						z M48,32.1c-0.1,0-0.3-0.1-0.4-0.1c-0.8-0.1-1.7-0.2-2.5-0.2c-0.2,0-0.3-0.1-0.3-0.2c-0.4-0.9-0.8-1.8-1.2-2.8
						c-0.1-0.2-0.2-0.5-0.4-0.7c-0.3-0.4-0.7-0.5-1.2-0.3c-0.3,0.1-0.5,0.3-0.6,0.6c-0.4,1-0.8,1.9-1.1,2.9
						c-0.1,0.3-0.3,0.5-0.6,0.5c-0.9,0.1-1.7,0.2-2.6,0.2c-0.5,0-0.8,0.3-0.9,0.8c-0.2,0.4-0.1,0.8,0.3,1.1c0.3,0.3,0.6,0.5,1,0.8
						c0.4,0.3,0.8,0.6,1.2,0.9c0.2,0.2,0.2,0.3,0.2,0.6c-0.3,1-0.5,1.9-0.8,2.9c-0.2,0.6,0.4,1.1,1,1.2c0.2-0.1,0.4-0.1,0.5-0.2
						c0.3-0.1,0.5-0.3,0.7-0.4c0.7-0.4,1.3-0.9,2-1.3c0.2-0.1,0.3-0.1,0.5,0c0.2,0.2,0.4,0.3,0.7,0.4c0.7,0.4,1.3,0.9,2,1.3
						c0.4,0.2,0.8,0.2,1.1,0c0.4-0.2,0.5-0.6,0.4-1c0-0.1,0-0.2-0.1-0.3c-0.2-0.9-0.4-1.8-0.7-2.7c0-0.2,0-0.3,0.1-0.4
						c0.5-0.3,0.9-0.7,1.4-1.1c0.3-0.3,0.6-0.5,0.9-0.9C49.1,33.1,48.7,32.3,48,32.1z M45.9,34.1c-0.3,0.3-0.6,0.5-1,0.8
						c-0.2,0.2-0.3,0.4-0.2,0.7c0.2,0.8,0.3,1.5,0.5,2.3c0,0.1,0,0.2,0.1,0.4c-0.1-0.1-0.2-0.1-0.3-0.2c-0.6-0.4-1.2-0.8-1.8-1.3
						c-0.7-0.5-0.8-0.5-1.5,0c-0.6,0.4-1.1,0.8-1.7,1.1c-0.1,0.1-0.2,0.1-0.3,0.2c0.1-0.2,0.1-0.4,0.1-0.5c0.2-0.6,0.3-1.3,0.5-1.9
						c0.1-0.4,0-0.7-0.3-1c-0.5-0.4-1-0.8-1.5-1.1c-0.1-0.1-0.3-0.2-0.4-0.3c0,0,0,0,0-0.1c0.1,0,0.2,0,0.4,0c0.6,0,1.2-0.1,1.9-0.1
						c0.6,0,1-0.3,1.2-0.9c0.3-0.8,0.6-1.5,0.8-2.3c0-0.1,0.1-0.2,0.1-0.3c0.1,0.2,0.1,0.3,0.2,0.4c0.3,0.8,0.7,1.6,1,2.5
						c0.2,0.5,0.5,0.6,1,0.7c0.7,0,1.3,0.1,2,0.2c0.1,0,0.1,0,0.2,0c0,0,0,0,0,0.1C46.6,33.6,46.3,33.9,45.9,34.1z"/>
				</g>
			</g>
			<g display="none">
				<path display="inline" fill="#0E3148" d="M33.4,17h-8.1v8.5h8.1V17z M32,24.1h-5.4v-5.7H32V24.1z M25.3,47.3h35.5V27.8H25.3
					V47.3z M26.6,29.3h32.7v16.6H26.6V29.3z M22.5,14.2v37h41v-37H22.5z M62.1,49.7H23.9V15.6h38.3V49.7z M60.7,17H36.2v2h24.5V17z
					 M56.7,20.3H36.2v2h20.5V20.3z M54.6,23.7H36.2v2h18.4V23.7z M47.4,36.8c-0.1-0.3-0.3-0.6-0.7-0.6c-0.7,0-1.4,0-2.1,0
					c-0.1,0-0.1,0-0.2,0c-0.1,0-0.1-0.1-0.1-0.2c0.1-0.4,0.3-0.7,0.4-1.1c0.2-0.6,0.2-1.3-0.1-1.9c-0.1-0.2-0.2-0.3-0.4-0.4
					c-0.4-0.2-0.8,0.1-0.8,0.5c0,0.2,0,0.4,0,0.6c0,0.2-0.1,0.3-0.2,0.5c-0.3,0.3-0.6,0.7-0.9,1c-0.6,0.8-1,1.7-1,2.8
					c0,0.7,0,1.3,0,2c0,0.4,0,0.8,0,1.2c0,0.3,0.1,0.4,0.3,0.4c0.4,0,0.9,0,1.3,0c1.1,0,2.1,0,3.2,0c0.1,0,0.2,0,0.3-0.1
					c0.3-0.2,0.4-0.7,0.1-1c0,0-0.1,0-0.1-0.1c0,0,0,0,0,0c0.3-0.1,0.5-0.3,0.5-0.6c0-0.3-0.1-0.5-0.4-0.7c0.4-0.1,0.6-0.3,0.6-0.7
					c0-0.4-0.2-0.6-0.5-0.8c0,0,0,0,0.1,0C47.4,37.6,47.5,37.3,47.4,36.8z"/>
			</g>
		</g>
		<g display="none">
			<path display="inline" fill="#0E3148" d="M42.7,39.7c0.3,0.9,0.8,1.5,1.6,1.8c0.6,0.3,1.2,0.3,1.9,0.3c1.2,0,2.4,0,3.6,0
				c0.6,0,1.3,0,1.9-0.2c0.8-0.3,1.4-0.8,1.8-1.5c0.3-0.6,0.4-1.3,0.4-2c0-1.2,0-2.4,0-3.6c0-0.7,0-1.4-0.3-2
				c-0.3-0.7-0.8-1.3-1.5-1.6c-0.6-0.3-1.2-0.4-1.9-0.4c-1.3,0-2.5,0-3.8,0c-0.6,0-1.2,0-1.8,0.2c-0.9,0.3-1.5,0.9-1.9,1.8
				c-0.2,0.6-0.3,1.1-0.3,1.7c0,0.7,0,1.3,0,2c0,0,0,0,0,0c0,0.5,0,1,0,1.6C42.4,38.4,42.5,39,42.7,39.7z M43.5,33.6
				c0-0.7,0.3-1.3,1-1.7c0.3-0.2,0.7-0.3,1.1-0.3c1.7-0.1,3.4-0.1,5.2,0c0.7,0,1.3,0.3,1.7,0.9c0.2,0.4,0.3,0.8,0.4,1.2
				c0,0.8,0.1,1.7,0.1,2.5c0,0.8,0,1.6-0.1,2.5c0,0.5-0.2,1-0.5,1.4c-0.3,0.4-0.7,0.6-1.2,0.6c-0.7,0.1-1.5,0.1-2.2,0.1
				c-1.1,0-2.1,0-3.2-0.1c-0.6,0-1.2-0.2-1.6-0.8c-0.3-0.4-0.4-0.8-0.4-1.3C43.4,37,43.4,35.3,43.5,33.6z M48.1,39.1
				c1.6,0,2.9-1.3,2.9-2.9c0-1.6-1.3-2.9-2.9-2.9c-1.6,0-2.9,1.3-2.9,2.9C45.2,37.8,46.5,39.1,48.1,39.1z M48.1,34.3
				c1,0,1.9,0.9,1.9,1.9c0,1-0.9,1.9-1.9,1.9c-1,0-1.9-0.9-1.9-1.9C46.2,35.2,47.1,34.3,48.1,34.3z M51.2,33.8
				c0.4,0,0.7-0.3,0.7-0.7c0-0.4-0.3-0.7-0.7-0.7c-0.4,0-0.7,0.3-0.7,0.7C50.5,33.5,50.8,33.8,51.2,33.8z M52.7,24.2l-1.9-7.3
				l-6.5,1.7l-3-6.3L16.5,23.9l12.4,25.9l1.8-0.9l0.6,2.4l2.4-0.6v3.4h28.7v-30H52.7z M49.9,18.3l1.5,5.8H47l-2.2-4.5L49.9,18.3z
				 M27.1,43.1l-8.9-18.6l22.5-10.7l2.4,5l-18.9,4.8L29,42.2L27.1,43.1z M33.8,40l-3.6,1.7l-4.4-17.2l17.9-4.6l2,4.2H33.8V40z
				 M61.2,47.1H35.1V25.4h26.1V47.1z"/>
		</g>
	</g>
	<g display="none">
		<path display="inline" fill="#0E3148" d="M59.4,20.3c0.2-0.9,0-1.3-0.9-1.4c-0.8-0.1-1.6-0.4-2.5-0.6c0-0.3,0-0.6,0-0.9
			c0-1.8,0-1.8-1.8-1.8h-1.7c-0.1-0.5-0.2-0.9-0.3-1.4c-0.2-1.2-0.4-1.3-1.5-1c-2.1,0.5-4.2,0.9-6.2,1.4c-1.7,0.5-3.4,0.4-5.1-0.1
			C37.3,14,35.2,13.5,33,13h-0.7c-0.3,0.8-0.5,1.7-0.8,2.6c-0.9,0-1.7,0-2.6,0c-0.7,0-1,0.3-1,1c0,1.7,0,1.7-1.7,2
			c-1.8,0.4-1.8,0.4-1.4,2.3c0.9,4.1,1.8,8.3,2.6,12.5c0.1,0.7,0,1.4-0.2,2.1c-0.9,4.1-1.8,8.3-2.7,12.4c-0.2,0.7,0,1,0.7,1.2
			c0.9,0.2,1.7,0.4,2.6,0.6c0,0.5,0,0.9,0,1.4c0,1.3,0,1.3,1.3,1.3c0.7,0,1.5,0,2.3,0c0.1,0.5,0.2,0.9,0.3,1.4
			c0.2,1.2,0.4,1.3,1.5,1c2.4-0.5,4.7-1,7.1-1.6c1.2-0.3,2.4-0.2,3.6,0.1c2.4,0.6,4.7,1.1,7.1,1.7h0.7c0.3-0.8,0.5-1.7,0.8-2.6
			c0.9,0,1.7,0,2.6,0c0.7,0,1-0.3,1-1c0-1.7,0-1.7,1.7-2c1.8-0.4,1.8-0.4,1.4-2.3c-0.9-4.1-1.8-8.3-2.6-12.5c-0.2-0.9,0.1-2,0.3-2.9
			C57.7,27.9,58.6,24.1,59.4,20.3z M25.9,20c0.7-0.2,1.3-0.3,2-0.5v9.4c0,0-0.1,0-0.1,0C27.1,26,26.5,23.1,25.9,20z M27.9,48.4
			c-0.7-0.2-1.4-0.3-2.1-0.5c0.7-3.1,1.3-6.2,2-9.2c0,0,0.1,0,0.1,0V48.4z M51.1,14.4c0.1,0.4,0.2,0.8,0.2,1.1h-4.9c0,0,0-0.1,0-0.1
			C48,15.1,49.5,14.8,51.1,14.4z M33,14.3c1.6,0.4,3.2,0.7,4.7,1.1c0,0.1,0,0.1,0,0.2h-5C32.9,15.2,33,14.8,33,14.3z M32.9,53.6
			c-0.1-0.5-0.2-0.8-0.3-1.1h4.9c0,0,0,0.1,0,0.1C36,52.9,34.5,53.2,32.9,53.6z M51,53.7c-1.6-0.4-3.2-0.7-4.7-1.1c0,0,0-0.1,0-0.1
			h5C51.1,52.9,51.1,53.2,51,53.7z M54.9,51.2H29.2V16.8h25.7V51.2z M58.1,48c-0.7,0.2-1.3,0.3-2,0.5V39c0,0,0.1,0,0.1,0
			C56.9,42,57.5,45,58.1,48z M56.3,29.3l-0.1,0v-9.6c0.7,0.2,1.4,0.3,2.1,0.5C57.6,23.2,56.9,26.3,56.3,29.3z M33.5,39.9
			c-0.5,0.7-1,1.4-1.5,2.1c-0.1,0.2-0.3,0.6-0.2,0.8c0.1,0.2,0.5,0.3,0.7,0.3c6.3,0,12.5,0,18.8,0c0.3,0,0.6-0.2,0.7-0.4
			c0.1-0.2,0-0.6-0.2-0.8c-0.5-0.7-1-1.4-1.5-2c0.5-0.7,1.1-1.4,1.5-2.1c0.4-0.6,0.2-1.1-0.4-1.1c-1,0-2,0-3,0
			c-0.2,0-0.4,0.4-0.7,0.6c0.2,0.2,0.4,0.5,0.7,0.5c0.5,0.1,1.1,0,1.7,0c0.1,0,0.2,0.1,0.3,0.1c-1.7,1.3-1.6,2.6,0,3.9H33.4
			c1.9-1.4,1.6-2.6,0-4h1.3c3.5,0,7,0,10.6,0c0.3,0,0.6-0.4,0.9-0.5c-0.3-0.2-0.6-0.6-0.8-0.6c-4.2,0-8.5,0-12.7,0
			c-0.3,0-0.6,0.2-0.7,0.4c-0.1,0.2,0,0.5,0.2,0.7C32.5,38.5,33,39.2,33.5,39.9z M41.5,33.7c0.2,0.1,0.7,0.1,0.9,0
			c2.5-1.6,4.8-3.5,6.6-5.9c0.8-1.1,1.2-2.4,1-3.7c-0.2-2.9-2.6-5.1-5.2-4.7c-1,0.1-2,0.7-3.1,1.2c-0.3-0.2-0.7-0.5-1.2-0.7
			c-1.7-0.8-3.4-0.7-4.9,0.6c-2.1,1.8-2.5,5-1,7.2C36.6,30.2,39,32.1,41.5,33.7z M36.1,21.8c1-1.4,2.4-1.7,3.9-1
			c0.5,0.2,1,0.5,1.4,0.9c0.5,0.4,0.9,0.4,1.3,0c0.1-0.1,0.2-0.2,0.3-0.2c1.8-1.3,3.5-1.3,4.8,0c1.5,1.6,1.7,3.8,0.5,5.5
			c-1.6,2.2-3.7,3.9-5.9,5.4c-0.2,0.1-0.5,0.1-0.7,0c-2.2-1.5-4.3-3.1-5.8-5.4c-0.4-0.7-0.7-1.5-1-2.4
			C35.2,23.6,35.5,22.6,36.1,21.8z M48.9,44.6c-2.3,0-4.6,0-6.9,0c-2.3,0-4.7,0-7,0c-0.5,0-1.3-0.2-1.3,0.6c0,0.8,0.7,0.6,1.2,0.6
			c4.7,0,9.4,0,14.1,0c0.2,0,0.3,0.1,0.4,0c0.3-0.2,0.5-0.4,0.8-0.6c-0.2-0.2-0.5-0.5-0.8-0.6C49.4,44.5,49.1,44.6,48.9,44.6z
			 M49.2,47.3c-2.4,0-4.7,0-7.1,0c-1.5,0-3.1,0-4.6,0c-1,0-1.9,0-2.9,0c-0.3,0-0.6,0.4-0.8,0.6c0.3,0.2,0.6,0.4,0.9,0.6
			c0,0,0.1,0,0.2,0c4.8,0,9.6,0,14.5,0c0.4,0,1-0.3,1-0.6C50.3,47.1,49.6,47.3,49.2,47.3z"/>
	</g>
</g>
<g>
	<path fill="#0E3148" d="M59.4,18.4c-3.7-1.1-7.5-2.1-11.2-3.2c-0.1,0-0.2-0.1-0.4-0.2h-0.7c-2,0.6-4,1.2-6,1.8
		c-1.7,0.5-3.3,1-5,1.4c-0.4,0.1-0.9,0.1-1.3,0c-3.6-1-7.2-2-10.8-3c-0.1,0-0.2-0.1-0.4-0.2h-1.2v33.9c0.4,0.2,0.7,0.6,1.1,0.7
		c3.7,1.1,7.5,2.1,11.2,3.2c0.1,0,0.2,0.1,0.4,0.2h0.7c2-0.6,4-1.2,5.9-1.8c1.7-0.5,3.5-1,5.2-1.5c0.3-0.1,0.7-0.1,1.1,0
		c3.7,1,7.3,2.1,11,3.1c0.1,0,0.2,0.1,0.3,0.2h1.2V19.1C60.1,18.8,59.8,18.5,59.4,18.4z M34.6,51c-3.5-1-6.9-2-10.4-3V17
		c3.5,1,6.9,2,10.4,2.9V51z M46.6,48.1c-3.4,1-6.8,1.9-10.3,2.9v-1c0-9.7,0-19.5,0-29.2c0-0.7,0.2-1,0.9-1.2c3-0.8,5.9-1.7,8.9-2.5
		c0.2,0,0.3-0.1,0.5-0.1V48.1z M58.8,51c-3.5-1-6.9-2-10.4-3V17c3.5,1,6.9,2,10.4,3V51z M43.9,36c-0.3-0.1-0.7,0.2-1,0.3
		c-1.4,0.4-2.8,0.7-4.1,1.2c-0.3,0.1-0.6,0.6-0.7,1c0,0.2,0.4,0.5,0.7,0.8c2-0.6,3.9-1.1,5.8-1.7c0.2-0.1,0.5-0.7,0.4-0.9
		C44.7,36.3,44.3,36,43.9,36z M39.1,34.7c1.8-0.4,3.5-0.9,5.2-1.5c0.3-0.1,0.5-0.6,0.5-1c0-0.3-0.5-0.5-0.7-0.7
		c-2,0.6-3.9,1.1-5.7,1.7c-0.2,0.1-0.5,0.7-0.3,0.9C38.3,34.5,38.8,34.8,39.1,34.7z M43.9,20.4c-0.5,0-0.9,0.2-1.4,0.3
		c-1.3,0.4-2.5,0.7-3.8,1.1c-0.3,0.1-0.6,0.6-0.7,1c0,0.2,0.4,0.5,0.7,0.8c2-0.6,3.9-1.1,5.8-1.7c0.2-0.1,0.5-0.7,0.4-0.9
		C44.7,20.6,44.3,20.4,43.9,20.4z M43.8,44.6c-0.8,0.1-1.7,0.4-2.5,0.7c-0.9,0.3-1.8,0.5-2.6,0.8c-0.3,0.1-0.6,0.6-0.5,0.9
		c0,0.3,0.5,0.5,0.7,0.7c2-0.6,3.9-1.1,5.7-1.7c0.2-0.1,0.5-0.8,0.4-0.9C44.6,44.9,44.1,44.6,43.8,44.6z M38.8,43.5
		c2-0.6,3.9-1.1,5.7-1.7c0.2-0.1,0.4-0.7,0.4-1c-0.1-0.3-0.6-0.6-0.9-0.5c-1.8,0.4-3.6,1-5.4,1.5c-0.2,0.1-0.5,0.6-0.5,0.9
		C38.2,43,38.6,43.3,38.8,43.5z M51,46.3c1.5,0.4,3,0.9,4.5,1.3c1.1,0.3,1.5,0,1.5-1.2c0-1.7,0-3.5,0-5.2c0-1.8,0-3.5,0-5.3
		c0-0.7-0.2-1.1-0.9-1.2c-1.6-0.4-3.1-0.9-4.7-1.3c-0.9-0.2-1.3,0.1-1.3,1c0,3.6,0,7.3,0,10.9C50.1,45.8,50.4,46.1,51,46.3z
		 M51.8,35.2c1.2,0.3,2.4,0.7,3.5,1v9.6c-1.1-0.3-2-0.5-2.9-0.8c-0.2-0.1-0.5-0.3-0.5-0.5C51.8,41.3,51.8,38.3,51.8,35.2z
		 M56.5,30.5c-1.8-0.6-3.5-1.1-5.3-1.5c-0.3-0.1-0.8,0.3-0.9,0.5c-0.1,0.3,0.1,0.9,0.4,1c1.8,0.6,3.6,1.1,5.6,1.7
		c0.2-0.2,0.6-0.4,0.7-0.7C57,31.1,56.7,30.5,56.5,30.5z M51,22c1.6,0.4,3.2,0.9,4.8,1.4c0.1,0,0.3,0.1,0.6,0.1
		c0.2-0.2,0.5-0.4,0.6-0.8c0.2-0.5-0.2-0.8-0.7-1c-1.6-0.5-3.3-0.9-4.9-1.4c-0.6-0.2-1-0.1-1.2,0.5C50,21.5,50.4,21.8,51,22z
		 M56.3,26.1c-1.3-0.4-2.7-0.8-4-1.1c-0.4-0.1-0.8-0.2-1.4-0.4c-0.2,0.2-0.6,0.5-0.6,0.7c0,0.3,0.3,0.9,0.5,1c1.7,0.6,3.4,1,5.2,1.5
		c0.5,0.1,0.9,0,1-0.6C57.1,26.6,56.8,26.2,56.3,26.1z M26.9,33.4c1.5,0.4,3.1,0.9,4.6,1.3c1,0.3,1.4,0,1.4-1.1c0-1.8,0-3.5,0-5.3
		c0-1.8,0-3.6,0-5.4c0-0.7-0.2-1-0.9-1.2c-1.5-0.4-3.1-0.9-4.6-1.3c-1-0.3-1.4,0-1.4,1c0,3.6,0,7.1,0,10.7
		C25.9,32.8,26.2,33.2,26.9,33.4z M27.6,22.3c1.1,0.3,2.2,0.6,3.2,0.9c0.1,0,0.3,0.3,0.3,0.5c0,3,0,6,0,9.1C30,32.5,29,32.2,28,31.9
		c-0.2-0.1-0.4-0.3-0.4-0.5C27.6,28.4,27.6,25.4,27.6,22.3z M26.5,37.5c1.8,0.6,3.5,1.1,5.3,1.5c0.3,0.1,0.8-0.3,0.9-0.6
		c0.1-0.3-0.2-0.7-0.5-1c-0.2-0.2-0.6-0.2-0.9-0.3c-1.5-0.4-3-0.8-4.6-1.3c-0.2,0.2-0.6,0.4-0.6,0.7C26,36.9,26.3,37.5,26.5,37.5z
		 M32.1,46c-1.2-0.3-2.3-0.7-3.5-1c-0.6-0.2-1.2-0.3-1.9-0.6c-0.2,0.2-0.6,0.4-0.7,0.7c-0.2,0.5,0.1,0.9,0.6,1
		c1.7,0.5,3.4,1,5.1,1.4c0.5,0.2,1,0,1.1-0.6C32.9,46.5,32.7,46.2,32.1,46z M26.7,41.9c1.7,0.5,3.3,1,5,1.4c0.5,0.1,1,0,1.1-0.6
		c0.1-0.6-0.2-0.9-0.7-1.1c-0.8-0.2-1.7-0.5-2.5-0.7c-0.9-0.3-1.8-0.5-2.9-0.8c-0.2,0.2-0.6,0.4-0.7,0.7
		C25.8,41.4,26.2,41.8,26.7,41.9z"/>
</g>
</svg>
